Frame,L-class,L-blnk,L-blnk-f,R-class,R-blnk,R-blnk-f
1,OPEN,False,,OPEN,False,
2,OPEN,False,,OPEN,False,
3,OPEN,False,,OPEN,False,
4,open,False,,open,False,
5,open,False,,open,False,
6,open,False,,open,False,
7,open,False,,open,False,
8,open,False,,open,False,
9,open,False,,open,False,
10,open,False,,open,False,
11,open,False,,open,False,
12,open,False,,open,False,
13,open,False,,open,False,
14,open,False,,open,False,
15,open,False,,open,False,
16,open,False,,open,False,
17,open,False,,open,False,
18,open,False,,open,False,
19,open,False,,open,False,
20,open,False,,open,False,
21,open,False,,open,False,
22,open,False,,open,False,
23,open,False,,open,False,
24,open,False,,open,False,
25,open,False,,open,False,
26,open,False,,open,False,
27,open,False,,open,False,
28,open,False,,open,False,
29,open,False,,open,False,
30,open,False,,open,False,
31,open,False,,open,False,
32,open,False,,open,False,
33,open,False,,open,False,
34,open,False,,open,False,
35,open,False,,open,False,
36,open,False,,open,False,
37,open,False,,open,False,
38,open,False,,open,False,
39,open,False,,open,False,
40,open,False,,open,False,
41,open,False,,open,False,
42,open,False,,open,False,
43,open,False,,closing,False,
44,open,False,,open,True,
45,open,False,,open,False,
46,open,False,,open,False,
47,open,False,,open,False,
48,open,False,,open,False,
49,open,False,,open,False,
50,open,False,,open,False,
51,open,False,,open,False,
52,open,False,,open,False,
53,open,False,,open,False,
54,open,False,,open,False,
55,open,False,,open,False,
56,open,False,,open,False,
57,open,False,,open,False,
58,open,False,,open,False,
59,open,False,,open,False,
60,open,False,,open,False,
61,open,False,,open,False,
62,open,False,,open,False,
63,open,False,,open,False,
64,open,False,,open,False,
65,open,False,,open,False,
66,open,False,,open,False,
67,open,False,,open,False,
68,open,False,,open,False,
69,open,False,,open,False,
70,open,False,,open,False,
71,open,False,,open,False,
72,open,False,,open,False,
73,open,False,,open,False,
74,open,False,,open,False,
75,open,False,,open,False,
76,open,False,,open,False,
77,open,False,,open,False,
78,open,False,,open,False,
79,open,False,,open,False,
80,open,False,,open,False,
81,open,False,,open,False,
82,open,False,,open,False,
83,open,False,,open,False,
84,open,False,,open,False,
85,open,False,,open,False,
86,open,False,,open,False,
87,open,False,,open,False,
88,open,False,,open,False,
89,open,False,,open,False,
90,open,False,,open,False,
91,open,False,,open,False,
92,open,False,,open,False,
93,open,False,,open,False,
94,open,False,,open,False,
95,open,False,,open,False,
96,open,False,,open,False,
97,open,False,,open,False,
98,open,False,,open,False,
99,open,False,,open,False,
100,open,False,,open,False,
101,open,False,,open,False,
102,open,False,,open,False,
103,open,False,,open,False,
104,open,False,,open,False,
105,open,False,,open,False,
106,open,False,,open,False,
107,open,False,,closing,False,
108,open,False,,open,True,
109,open,False,,open,False,
110,open,False,,open,False,
111,open,False,,open,False,
112,open,False,,open,False,
113,open,False,,open,False,
114,open,False,,open,False,
115,open,False,,open,False,
116,open,False,,open,False,
117,open,False,,open,False,
118,open,False,,open,False,
119,open,False,,open,False,
120,open,False,,open,False,
121,open,False,,open,False,
122,open,False,,open,False,
123,open,False,,open,False,
124,open,False,,open,False,
125,open,False,,open,False,
126,open,False,,open,False,
127,open,False,,open,False,
128,open,False,,open,False,
129,open,False,,open,False,
130,closing,False,,open,False,
131,open,True,,open,False,
132,open,False,,open,False,
133,open,False,,open,False,
134,closing,False,,open,False,
135,open,True,,open,False,
136,open,False,,open,False,
137,open,False,,open,False,
138,open,False,,open,False,
139,open,False,,open,False,
140,open,False,,open,False,
141,open,False,,open,False,
142,open,False,,open,False,
143,open,False,,open,False,
144,open,False,,open,False,
145,open,False,,open,False,
146,closing,False,,open,False,
147,open,True,,open,False,
148,open,False,,open,False,
149,open,False,,open,False,
150,closing,False,,open,False,
151,open,True,,open,False,
152,open,False,,open,False,
153,closing,False,,closing,False,
154,open,True,154,open,True,154
155,open,False,,open,False,
156,open,False,,open,False,
157,closed,False,,open,False,
158,opening,True,,closing,False,
159,opening,False,,closing,False,
160,opening,False,158,open,True,160
161,closing,False,,closing,False,
162,open,True,162,open,True,162
163,open,False,,open,False,
164,closing,False,,open,False,
165,open,True,,open,False,
166,open,False,,open,False,
167,open,False,,open,False,
168,open,False,,open,False,
169,open,False,,open,False,
170,open,False,,open,False,
171,open,False,,open,False,
172,open,False,,open,False,
173,open,False,,open,False,
174,open,False,,open,False,
175,open,False,,open,False,
176,open,False,,open,False,
177,open,False,,open,False,
178,open,False,,open,False,
179,open,False,,open,False,
180,open,False,,open,False,
181,open,False,,open,False,
182,open,False,,open,False,
183,open,False,,open,False,
184,open,False,,open,False,
185,open,False,,open,False,
186,open,False,,open,False,
187,open,False,,open,False,
188,open,False,,open,False,
189,open,False,,open,False,
190,open,False,,open,False,
191,open,False,,open,False,
192,open,False,,open,False,
193,open,False,,open,False,
194,open,False,,open,False,
195,open,False,,open,False,
196,open,False,,open,False,
197,open,False,,open,False,
198,open,False,,open,False,
199,open,False,,open,False,
200,closed,False,,open,False,
201,opening,True,,open,False,
202,opening,False,,closing,False,
203,closing,False,,closing,False,
204,open,True,,closing,False,
205,closing,False,,closing,False,
206,open,True,,closing,False,
207,open,False,206,open,True,207
208,open,False,,open,False,
209,open,False,,open,False,
210,open,False,,open,False,
211,open,False,,open,False,
212,open,False,,open,False,
213,open,False,,open,False,
214,open,False,,open,False,
215,open,False,,open,False,
216,open,False,,open,False,
217,open,False,,open,False,
218,open,False,,open,False,
219,open,False,,open,False,
220,open,False,,open,False,
221,closed,False,,closed,False,
222,closed,False,,closed,False,
223,opening,True,223,opening,True,223
224,open,False,,closing,False,
225,closing,False,,closing,False,
226,closing,False,,closing,False,
227,open,True,,closing,False,
228,closing,False,227,open,True,228
229,open,True,,closing,False,
230,open,False,229,open,True,230
231,open,False,,closing,False,
232,open,False,,open,True,
233,open,False,,open,False,
234,open,False,,open,False,
235,open,False,,open,False,
236,open,False,,open,False,
237,open,False,,open,False,
238,open,False,,open,False,
239,open,False,,open,False,
240,open,False,,open,False,
241,open,False,,open,False,
242,open,False,,open,False,
243,open,False,,open,False,
244,open,False,,open,False,
245,open,False,,open,False,
246,open,False,,open,False,
247,open,False,,open,False,
248,open,False,,open,False,
249,open,False,,open,False,
250,closed,False,,closed,False,
251,opening,True,,closed,False,
252,opening,False,251,opening,True,252
253,open,False,,closing,False,
254,open,False,,closing,False,
255,closing,False,,closing,False,
256,closing,False,,closing,False,
257,open,True,,closing,False,
258,open,False,257,open,True,258
259,open,False,,open,False,
260,open,False,,open,False,
261,open,False,,open,False,
262,open,False,,open,False,
263,open,False,,open,False,
264,open,False,,open,False,
265,open,False,,open,False,
266,open,False,,open,False,
267,open,False,,open,False,
268,open,False,,open,False,
269,open,False,,open,False,
270,open,False,,open,False,
271,open,False,,open,False,
272,open,False,,open,False,
273,open,False,,open,False,
274,open,False,,open,False,
275,open,False,,open,False,
276,open,False,,open,False,
277,open,False,,open,False,
278,open,False,,open,False,
279,open,False,,open,False,
280,open,False,,open,False,
281,open,False,,open,False,
282,open,False,,open,False,
283,open,False,,open,False,
284,open,False,,open,False,
285,open,False,,open,False,
286,open,False,,open,False,
287,open,False,,open,False,
288,open,False,,open,False,
289,open,False,,open,False,
290,open,False,,open,False,
291,open,False,,open,False,
292,open,False,,open,False,
293,open,False,,open,False,
294,open,False,,open,False,
295,open,False,,open,False,
296,open,False,,open,False,
297,open,False,,open,False,
298,open,False,,open,False,
299,open,False,,open,False,
300,open,False,,open,False,
301,open,False,,open,False,
302,open,False,,open,False,
303,closing,False,,open,False,
304,open,True,,open,False,
305,open,False,,open,False,
306,open,False,,open,False,
307,open,False,,open,False,
308,open,False,,open,False,
309,open,False,,open,False,
310,open,False,,open,False,
311,open,False,,open,False,
312,open,False,,open,False,
313,open,False,,open,False,
314,open,False,,open,False,
315,open,False,,open,False,
316,open,False,,open,False,
317,open,False,,open,False,
318,open,False,,open,False,
319,open,False,,open,False,
320,open,False,,open,False,
321,open,False,,open,False,
322,open,False,,open,False,
323,open,False,,open,False,
324,open,False,,open,False,
325,open,False,,open,False,
326,open,False,,open,False,
327,open,False,,open,False,
328,open,False,,open,False,
329,open,False,,open,False,
330,open,False,,open,False,
331,open,False,,open,False,
332,open,False,,open,False,
333,open,False,,open,False,
334,open,False,,open,False,
335,open,False,,open,False,
336,open,False,,open,False,
337,open,False,,open,False,
338,open,False,,open,False,
339,open,False,,open,False,
340,open,False,,open,False,
341,open,False,,open,False,
342,open,False,,open,False,
343,open,False,,open,False,
344,open,False,,open,False,
345,open,False,,open,False,
346,open,False,,open,False,
347,open,False,,open,False,
348,open,False,,open,False,
349,open,False,,open,False,
350,open,False,,open,False,
351,open,False,,open,False,
352,open,False,,open,False,
353,open,False,,open,False,
354,open,False,,open,False,
355,open,False,,open,False,
356,open,False,,open,False,
357,open,False,,closing,False,
358,closing,False,,closing,False,
359,open,True,,closing,False,
360,open,False,359,open,True,360
361,open,False,,open,False,
362,open,False,,open,False,
363,open,False,,open,False,
364,open,False,,open,False,
365,open,False,,closing,False,
366,open,False,,open,True,
367,open,False,,open,False,
368,open,False,,open,False,
369,open,False,,open,False,
370,open,False,,open,False,
371,open,False,,open,False,
372,open,False,,open,False,
373,open,False,,open,False,
374,open,False,,open,False,
375,open,False,,open,False,
376,open,False,,open,False,
377,open,False,,open,False,
378,open,False,,open,False,
379,open,False,,open,False,
380,open,False,,open,False,
381,open,False,,open,False,
382,open,False,,open,False,
383,open,False,,open,False,
384,open,False,,open,False,
385,open,False,,open,False,
386,open,False,,open,False,
387,open,False,,open,False,
388,open,False,,open,False,
389,open,False,,open,False,
390,open,False,,open,False,
391,open,False,,open,False,
392,open,False,,open,False,
393,open,False,,open,False,
394,open,False,,open,False,
395,open,False,,open,False,
396,open,False,,open,False,
397,open,False,,open,False,
398,open,False,,open,False,
399,open,False,,open,False,
400,open,False,,open,False,
401,open,False,,open,False,
402,open,False,,open,False,
403,closed,False,,open,False,
404,closed,False,,open,False,
405,opening,True,,open,False,
406,opening,False,,closing,False,
407,closing,False,,closing,False,
408,closing,False,405,open,True,408
409,closing,False,,open,False,
410,open,True,,closing,False,
411,open,False,410,open,True,411
412,open,False,,open,False,
413,open,False,,open,False,
414,open,False,,open,False,
415,open,False,,open,False,
416,open,False,,open,False,
417,open,False,,open,False,
418,open,False,,open,False,
419,open,False,,open,False,
420,open,False,,open,False,
421,open,False,,open,False,
422,open,False,,open,False,
423,open,False,,open,False,
424,open,False,,open,False,
425,open,False,,open,False,
426,open,False,,open,False,
427,open,False,,open,False,
428,open,False,,open,False,
429,open,False,,open,False,
430,open,False,,open,False,
431,open,False,,open,False,
432,open,False,,open,False,
433,open,False,,open,False,
434,open,False,,open,False,
435,open,False,,open,False,
436,open,False,,open,False,
437,open,False,,open,False,
438,open,False,,open,False,
439,open,False,,open,False,
440,open,False,,open,False,
441,open,False,,open,False,
442,open,False,,open,False,
443,open,False,,open,False,
444,open,False,,open,False,
445,open,False,,open,False,
446,open,False,,open,False,
447,open,False,,open,False,
448,open,False,,open,False,
449,open,False,,open,False,
450,open,False,,open,False,
451,open,False,,open,False,
452,open,False,,closing,False,
453,open,False,,closing,False,
454,open,False,,closing,False,
455,closing,False,,closing,False,
456,open,True,,closing,False,
457,open,False,456,open,True,457
458,open,False,,open,False,
459,open,False,,open,False,
460,open,False,,open,False,
461,open,False,,open,False,
462,open,False,,open,False,
463,open,False,,open,False,
464,open,False,,open,False,
465,open,False,,open,False,
466,open,False,,open,False,
467,open,False,,open,False,
468,open,False,,open,False,
469,open,False,,open,False,
470,open,False,,open,False,
471,open,False,,open,False,
472,open,False,,open,False,
473,open,False,,open,False,
474,open,False,,open,False,
475,open,False,,open,False,
476,open,False,,open,False,
477,open,False,,open,False,
478,open,False,,open,False,
479,open,False,,open,False,
480,open,False,,open,False,
481,open,False,,open,False,
482,open,False,,open,False,
483,open,False,,open,False,
484,open,False,,open,False,
485,open,False,,open,False,
486,open,False,,open,False,
487,open,False,,open,False,
488,open,False,,open,False,
489,open,False,,open,False,
490,open,False,,open,False,
491,open,False,,open,False,
492,open,False,,open,False,
493,open,False,,open,False,
494,open,False,,open,False,
495,open,False,,open,False,
496,open,False,,open,False,
497,open,False,,open,False,
498,open,False,,open,False,
499,open,False,,open,False,
500,open,False,,open,False,
501,open,False,,open,False,
502,open,False,,open,False,
503,open,False,,open,False,
504,open,False,,open,False,
505,open,False,,open,False,
506,open,False,,open,False,
507,open,False,,open,False,
508,open,False,,open,False,
509,open,False,,open,False,
510,open,False,,open,False,
511,open,False,,open,False,
512,open,False,,open,False,
513,open,False,,open,False,
514,open,False,,open,False,
515,open,False,,open,False,
516,open,False,,open,False,
517,open,False,,open,False,
518,open,False,,open,False,
519,open,False,,open,False,
520,open,False,,open,False,
521,open,False,,open,False,
522,open,False,,open,False,
523,open,False,,open,False,
524,open,False,,open,False,
525,open,False,,open,False,
526,open,False,,open,False,
527,open,False,,open,False,
528,open,False,,open,False,
529,open,False,,open,False,
530,open,False,,open,False,
531,open,False,,open,False,
532,open,False,,open,False,
533,open,False,,open,False,
534,open,False,,open,False,
535,open,False,,open,False,
536,open,False,,open,False,
537,open,False,,open,False,
538,open,False,,open,False,
539,open,False,,open,False,
540,open,False,,open,False,
541,open,False,,open,False,
542,open,False,,open,False,
543,open,False,,open,False,
544,open,False,,open,False,
545,open,False,,open,False,
546,open,False,,open,False,
547,open,False,,open,False,
548,closing,False,,open,False,
549,open,True,,closing,False,
550,closing,False,,closing,False,
551,closing,False,,closing,False,
552,open,True,552,open,True,552
553,open,False,,open,False,
554,open,False,,open,False,
555,open,False,,closing,False,
556,open,False,,open,True,
557,open,False,,open,False,
558,open,False,,open,False,
559,open,False,,open,False,
560,open,False,,open,False,
561,open,False,,open,False,
562,open,False,,open,False,
563,open,False,,open,False,
564,open,False,,open,False,
565,open,False,,open,False,
566,open,False,,open,False,
567,open,False,,open,False,
568,open,False,,open,False,
569,open,False,,open,False,
570,open,False,,open,False,
571,open,False,,open,False,
572,open,False,,open,False,
573,open,False,,open,False,
574,open,False,,open,False,
575,open,False,,open,False,
576,open,False,,open,False,
577,open,False,,open,False,
578,open,False,,open,False,
579,open,False,,open,False,
580,open,False,,open,False,
581,open,False,,open,False,
582,open,False,,open,False,
583,open,False,,open,False,
584,open,False,,open,False,
585,open,False,,open,False,
586,open,False,,open,False,
587,open,False,,open,False,
588,open,False,,open,False,
589,open,False,,open,False,
590,open,False,,open,False,
591,open,False,,open,False,
592,open,False,,open,False,
593,open,False,,open,False,
594,open,False,,open,False,
595,open,False,,open,False,
596,open,False,,open,False,
597,open,False,,open,False,
598,open,False,,open,False,
599,open,False,,open,False,
600,open,False,,open,False,
601,open,False,,open,False,
602,open,False,,open,False,
603,open,False,,open,False,
604,open,False,,open,False,
605,open,False,,open,False,
606,open,False,,open,False,
607,open,False,,open,False,
608,open,False,,open,False,
609,open,False,,open,False,
610,open,False,,open,False,
611,open,False,,open,False,
612,open,False,,open,False,
613,open,False,,open,False,
614,open,False,,open,False,
615,open,False,,open,False,
616,open,False,,open,False,
617,open,False,,open,False,
618,open,False,,open,False,
619,open,False,,open,False,
620,open,False,,open,False,
621,open,False,,open,False,
622,open,False,,open,False,
623,open,False,,open,False,
624,open,False,,open,False,
625,open,False,,open,False,
626,open,False,,open,False,
627,open,False,,open,False,
628,open,False,,open,False,
629,open,False,,open,False,
630,open,False,,open,False,
631,open,False,,open,False,
632,open,False,,open,False,
633,open,False,,open,False,
634,open,False,,open,False,
635,open,False,,open,False,
636,open,False,,open,False,
637,open,False,,open,False,
638,open,False,,open,False,
639,open,False,,open,False,
640,open,False,,open,False,
641,open,False,,open,False,
642,open,False,,open,False,
643,open,False,,open,False,
644,open,False,,open,False,
645,open,False,,open,False,
646,open,False,,open,False,
647,open,False,,open,False,
648,open,False,,open,False,
649,open,False,,open,False,
650,open,False,,open,False,
651,open,False,,open,False,
652,open,False,,open,False,
653,open,False,,open,False,
654,open,False,,open,False,
655,open,False,,open,False,
656,open,False,,open,False,
657,open,False,,open,False,
658,open,False,,open,False,
659,open,False,,open,False,
660,open,False,,open,False,
661,open,False,,open,False,
662,open,False,,open,False,
663,open,False,,open,False,
664,open,False,,open,False,
665,open,False,,open,False,
666,open,False,,open,False,
667,open,False,,open,False,
668,open,False,,open,False,
669,open,False,,open,False,
670,open,False,,open,False,
671,open,False,,open,False,
672,open,False,,open,False,
673,open,False,,open,False,
674,open,False,,open,False,
675,open,False,,open,False,
676,open,False,,open,False,
677,open,False,,open,False,
678,open,False,,open,False,
679,open,False,,open,False,
680,open,False,,open,False,
681,open,False,,open,False,
682,open,False,,open,False,
683,open,False,,open,False,
684,open,False,,open,False,
685,open,False,,open,False,
686,open,False,,open,False,
687,open,False,,open,False,
688,open,False,,open,False,
689,open,False,,open,False,
690,open,False,,open,False,
691,open,False,,open,False,
692,open,False,,open,False,
693,open,False,,open,False,
694,open,False,,open,False,
695,open,False,,open,False,
696,open,False,,open,False,
697,open,False,,open,False,
698,open,False,,open,False,
699,open,False,,open,False,
700,open,False,,open,False,
701,open,False,,open,False,
702,open,False,,open,False,
703,open,False,,open,False,
704,open,False,,open,False,
705,open,False,,open,False,
706,open,False,,open,False,
707,open,False,,open,False,
708,open,False,,closing,False,
709,open,False,,open,True,
710,open,False,,open,False,
711,open,False,,closing,False,
712,open,False,,closing,False,
713,open,False,,closing,False,
714,open,False,,open,True,
715,open,False,,open,False,
716,open,False,,open,False,
717,open,False,,open,False,
718,open,False,,open,False,
719,open,False,,open,False,
720,open,False,,open,False,
721,open,False,,open,False,
722,open,False,,open,False,
723,open,False,,open,False,
724,open,False,,open,False,
725,open,False,,open,False,
726,open,False,,open,False,
727,open,False,,open,False,
728,open,False,,open,False,
729,open,False,,open,False,
730,open,False,,open,False,
731,open,False,,open,False,
732,open,False,,open,False,
733,open,False,,open,False,
734,open,False,,open,False,
735,open,False,,open,False,
736,open,False,,open,False,
737,open,False,,open,False,
738,open,False,,open,False,
739,open,False,,open,False,
740,open,False,,open,False,
741,open,False,,open,False,
742,open,False,,open,False,
743,open,False,,open,False,
744,open,False,,open,False,
745,open,False,,open,False,
746,open,False,,open,False,
747,open,False,,open,False,
748,open,False,,open,False,
749,open,False,,open,False,
750,open,False,,open,False,
751,open,False,,open,False,
752,open,False,,open,False,
753,open,False,,open,False,
754,open,False,,open,False,
755,open,False,,open,False,
756,open,False,,open,False,
757,open,False,,open,False,
758,open,False,,open,False,
759,open,False,,open,False,
760,open,False,,open,False,
761,open,False,,open,False,
762,open,False,,open,False,
763,open,False,,open,False,
764,open,False,,open,False,
765,open,False,,open,False,
766,open,False,,open,False,
767,open,False,,open,False,
768,open,False,,open,False,
769,open,False,,open,False,
770,open,False,,open,False,
771,open,False,,open,False,
772,open,False,,open,False,
773,open,False,,open,False,
774,open,False,,open,False,
775,open,False,,open,False,
776,open,False,,open,False,
777,open,False,,open,False,
778,open,False,,open,False,
779,open,False,,open,False,
780,open,False,,open,False,
781,open,False,,open,False,
782,open,False,,open,False,
783,open,False,,open,False,
784,open,False,,open,False,
785,open,False,,open,False,
786,closing,False,,open,False,
787,open,True,,open,False,
788,open,False,,open,False,
789,open,False,,open,False,
790,open,False,,open,False,
791,open,False,,open,False,
792,open,False,,open,False,
793,open,False,,open,False,
794,open,False,,open,False,
795,open,False,,open,False,
796,open,False,,open,False,
797,open,False,,open,False,
798,open,False,,open,False,
799,open,False,,open,False,
800,open,False,,open,False,
801,open,False,,open,False,
802,open,False,,open,False,
803,open,False,,open,False,
804,open,False,,open,False,
805,open,False,,open,False,
806,closing,False,,open,False,
807,open,True,,open,False,
808,open,False,,open,False,
809,open,False,,open,False,
810,open,False,,open,False,
811,open,False,,open,False,
812,open,False,,open,False,
813,open,False,,open,False,
814,open,False,,open,False,
815,open,False,,open,False,
816,open,False,,open,False,
817,open,False,,open,False,
818,open,False,,open,False,
819,open,False,,open,False,
820,open,False,,open,False,
821,open,False,,open,False,
822,open,False,,open,False,
823,open,False,,open,False,
824,open,False,,open,False,
825,open,False,,open,False,
826,open,False,,open,False,
827,open,False,,open,False,
828,open,False,,open,False,
829,open,False,,open,False,
830,open,False,,open,False,
831,open,False,,open,False,
832,open,False,,open,False,
833,open,False,,open,False,
834,open,False,,open,False,
835,open,False,,open,False,
836,open,False,,open,False,
837,open,False,,open,False,
838,open,False,,open,False,
839,open,False,,closing,False,
840,open,False,,open,True,
841,open,False,,open,False,
842,open,False,,open,False,
843,open,False,,open,False,
844,open,False,,open,False,
845,open,False,,open,False,
846,open,False,,open,False,
847,open,False,,open,False,
848,open,False,,open,False,
849,open,False,,open,False,
850,open,False,,open,False,
851,open,False,,open,False,
852,open,False,,open,False,
853,open,False,,open,False,
854,open,False,,open,False,
855,open,False,,open,False,
856,open,False,,open,False,
857,open,False,,open,False,
858,open,False,,open,False,
859,open,False,,open,False,
860,open,False,,open,False,
861,open,False,,open,False,
862,open,False,,open,False,
863,open,False,,open,False,
864,open,False,,open,False,
865,open,False,,open,False,
866,open,False,,open,False,
867,open,False,,open,False,
868,open,False,,open,False,
869,open,False,,open,False,
870,open,False,,open,False,
871,open,False,,open,False,
872,open,False,,open,False,
873,open,False,,open,False,
874,open,False,,open,False,
875,open,False,,open,False,
876,open,False,,open,False,
877,open,False,,open,False,
878,open,False,,open,False,
879,open,False,,open,False,
880,open,False,,open,False,
881,open,False,,open,False,
882,open,False,,open,False,
883,open,False,,open,False,
884,open,False,,open,False,
885,open,False,,open,False,
886,open,False,,open,False,
887,open,False,,open,False,
888,open,False,,open,False,
889,open,False,,open,False,
890,open,False,,open,False,
891,open,False,,open,False,
892,open,False,,open,False,
893,open,False,,open,False,
894,open,False,,open,False,
895,open,False,,open,False,
896,open,False,,open,False,
897,open,False,,open,False,
898,open,False,,open,False,
899,open,False,,open,False,
900,open,False,,open,False,
901,open,False,,open,False,
902,open,False,,open,False,
903,open,False,,open,False,
904,open,False,,open,False,
905,open,False,,open,False,
906,open,False,,open,False,
907,open,False,,open,False,
908,open,False,,open,False,
909,open,False,,open,False,
910,open,False,,open,False,
911,open,False,,open,False,
912,open,False,,open,False,
913,open,False,,open,False,
914,open,False,,open,False,
915,open,False,,open,False,
916,open,False,,open,False,
917,open,False,,open,False,
918,open,False,,open,False,
919,open,False,,open,False,
920,open,False,,open,False,
921,open,False,,open,False,
922,open,False,,open,False,
923,open,False,,open,False,
924,open,False,,open,False,
925,open,False,,open,False,
926,open,False,,closing,False,
927,open,False,,open,True,
928,open,False,,open,False,
929,open,False,,open,False,
930,open,False,,open,False,
931,open,False,,open,False,
932,open,False,,open,False,
933,open,False,,open,False,
934,open,False,,open,False,
935,open,False,,open,False,
936,open,False,,open,False,
937,open,False,,open,False,
938,open,False,,open,False,
939,open,False,,open,False,
940,closed,False,,closed,False,
941,closed,False,,closed,False,
942,opening,True,942,opening,True,942
943,opening,False,,closing,False,
944,open,False,,closing,False,
945,open,False,,open,True,
946,open,False,,open,False,
947,open,False,,closing,False,
948,open,False,,open,True,
949,open,False,,open,False,
950,open,False,,open,False,
951,open,False,,open,False,
952,open,False,,open,False,
953,open,False,,open,False,
954,open,False,,open,False,
955,open,False,,open,False,
956,open,False,,open,False,
957,open,False,,open,False,
958,open,False,,open,False,
959,closing,False,,open,False,
960,open,True,,open,False,
961,open,False,,open,False,
962,open,False,,open,False,
963,open,False,,open,False,
964,open,False,,open,False,
965,open,False,,open,False,
966,open,False,,open,False,
967,open,False,,open,False,
968,open,False,,open,False,
969,open,False,,open,False,
970,open,False,,open,False,
971,open,False,,open,False,
972,open,False,,open,False,
973,open,False,,open,False,
974,open,False,,open,False,
975,open,False,,open,False,
976,open,False,,open,False,
977,open,False,,open,False,
978,open,False,,open,False,
979,open,False,,open,False,
980,open,False,,open,False,
981,open,False,,open,False,
982,open,False,,open,False,
983,open,False,,open,False,
984,open,False,,open,False,
985,open,False,,open,False,
986,open,False,,open,False,
987,open,False,,open,False,
988,open,False,,open,False,
989,open,False,,open,False,
990,open,False,,open,False,
991,open,False,,open,False,
992,open,False,,open,False,
993,open,False,,open,False,
994,open,False,,open,False,
995,open,False,,open,False,
996,open,False,,open,False,
997,open,False,,open,False,
998,open,False,,open,False,
999,open,False,,open,False,
1000,open,False,,open,False,
1001,open,False,,open,False,
1002,open,False,,open,False,
1003,open,False,,open,False,
1004,open,False,,open,False,
1005,open,False,,open,False,
1006,open,False,,open,False,
1007,open,False,,open,False,
1008,open,False,,open,False,
1009,open,False,,open,False,
1010,open,False,,open,False,
1011,open,False,,open,False,
1012,open,False,,open,False,
1013,open,False,,open,False,
1014,open,False,,open,False,
1015,open,False,,open,False,
1016,open,False,,open,False,
1017,open,False,,open,False,
1018,open,False,,open,False,
1019,open,False,,open,False,
1020,open,False,,open,False,
1021,open,False,,open,False,
1022,open,False,,open,False,
1023,open,False,,open,False,
1024,open,False,,open,False,
1025,open,False,,open,False,
1026,open,False,,open,False,
1027,open,False,,open,False,
1028,open,False,,open,False,
1029,open,False,,open,False,
1030,open,False,,open,False,
1031,open,False,,open,False,
1032,open,False,,open,False,
1033,open,False,,open,False,
1034,open,False,,open,False,
1035,open,False,,open,False,
1036,open,False,,open,False,
1037,open,False,,open,False,
1038,open,False,,open,False,
1039,open,False,,open,False,
1040,open,False,,open,False,
1041,open,False,,open,False,
1042,open,False,,open,False,
1043,open,False,,open,False,
1044,open,False,,open,False,
1045,open,False,,open,False,
1046,open,False,,open,False,
1047,open,False,,open,False,
1048,open,False,,open,False,
1049,open,False,,open,False,
1050,open,False,,open,False,
1051,open,False,,open,False,
1052,open,False,,open,False,
1053,open,False,,open,False,
1054,open,False,,open,False,
1055,open,False,,open,False,
1056,open,False,,open,False,
1057,open,False,,open,False,
1058,open,False,,open,False,
1059,open,False,,open,False,
1060,open,False,,open,False,
1061,open,False,,open,False,
1062,open,False,,open,False,
1063,open,False,,open,False,
1064,open,False,,open,False,
1065,open,False,,open,False,
1066,open,False,,open,False,
1067,open,False,,open,False,
1068,open,False,,open,False,
1069,open,False,,open,False,
1070,open,False,,open,False,
1071,open,False,,open,False,
1072,open,False,,open,False,
1073,open,False,,open,False,
1074,open,False,,open,False,
1075,open,False,,open,False,
1076,open,False,,open,False,
1077,open,False,,open,False,
1078,open,False,,open,False,
1079,open,False,,open,False,
1080,open,False,,open,False,
1081,open,False,,open,False,
1082,open,False,,open,False,
1083,open,False,,open,False,
1084,open,False,,open,False,
1085,open,False,,open,False,
1086,open,False,,open,False,
1087,open,False,,open,False,
1088,open,False,,open,False,
1089,open,False,,open,False,
1090,open,False,,open,False,
1091,open,False,,open,False,
1092,open,False,,open,False,
1093,open,False,,open,False,
1094,open,False,,open,False,
1095,open,False,,open,False,
1096,open,False,,open,False,
1097,open,False,,open,False,
1098,open,False,,open,False,
1099,open,False,,open,False,
1100,open,False,,open,False,
1101,open,False,,open,False,
1102,open,False,,open,False,
1103,open,False,,open,False,
1104,open,False,,open,False,
1105,open,False,,open,False,
1106,open,False,,open,False,
1107,open,False,,open,False,
1108,open,False,,open,False,
1109,open,False,,open,False,
1110,open,False,,open,False,
1111,open,False,,open,False,
1112,open,False,,open,False,
1113,open,False,,open,False,
1114,open,False,,open,False,
1115,open,False,,open,False,
1116,open,False,,open,False,
1117,open,False,,open,False,
1118,open,False,,open,False,
1119,open,False,,open,False,
1120,open,False,,open,False,
1121,open,False,,open,False,
1122,open,False,,open,False,
1123,open,False,,open,False,
1124,open,False,,open,False,
1125,open,False,,open,False,
1126,open,False,,open,False,
1127,open,False,,open,False,
1128,open,False,,open,False,
1129,open,False,,open,False,
1130,open,False,,open,False,
1131,open,False,,open,False,
1132,open,False,,open,False,
