162,"[array([[103, 103, 104, ..., 122, 122, 122],
       [103, 103, 104, ..., 122, 122, 122],
       [103, 103, 104, ..., 122, 122, 122],
       ...,
       [127, 127, 127, ..., 141, 141, 141],
       [127, 127, 127, ..., 141, 141, 141],
       [127, 127, 127, ..., 141, 141, 141]], dtype=uint8), array([[104, 104, 104, ..., 120, 120, 120],
       [104, 104, 105, ..., 120, 120, 120],
       [104, 104, 105, ..., 120, 120, 120],
       ...,
       [128, 128, 128, ..., 142, 142, 142],
       [128, 128, 128, ..., 142, 142, 142],
       [128, 128, 128, ..., 142, 142, 142]], dtype=uint8), array([[106, 106, 107, ..., 120, 120, 120],
       [106, 106, 106, ..., 120, 120, 120],
       [106, 106, 106, ..., 120, 120, 120],
       ...,
       [128, 128, 128, ..., 142, 142, 142],
       [128, 128, 128, ..., 142, 142, 142],
       [128, 128, 128, ..., 142, 142, 142]], dtype=uint8)]",160.5
1563,"[array([[103, 103, 104, ..., 122, 122, 122],
       [103, 103, 104, ..., 122, 122, 122],
       [103, 103, 104, ..., 122, 122, 122],
       ...,
       [127, 127, 127, ..., 141, 141, 141],
       [127, 127, 127, ..., 141, 141, 141],
       [127, 127, 127, ..., 141, 141, 141]], dtype=uint8), array([[104, 104, 104, ..., 120, 120, 120],
       [104, 104, 105, ..., 120, 120, 120],
       [104, 104, 105, ..., 120, 120, 120],
       ...,
       [128, 128, 128, ..., 142, 142, 142],
       [128, 128, 128, ..., 142, 142, 142],
       [128, 128, 128, ..., 142, 142, 142]], dtype=uint8), array([[106, 106, 107, ..., 120, 120, 120],
       [106, 106, 106, ..., 120, 120, 120],
       [106, 106, 106, ..., 120, 120, 120],
       ...,
       [128, 128, 128, ..., 142, 142, 142],
       [128, 128, 128, ..., 142, 142, 142],
       [128, 128, 128, ..., 142, 142, 142]], dtype=uint8)]",1563.0
2358,"[array([[103, 103, 104, ..., 122, 122, 122],
       [103, 103, 104, ..., 122, 122, 122],
       [103, 103, 104, ..., 122, 122, 122],
       ...,
       [127, 127, 127, ..., 141, 141, 141],
       [127, 127, 127, ..., 141, 141, 141],
       [127, 127, 127, ..., 141, 141, 141]], dtype=uint8), array([[104, 104, 104, ..., 120, 120, 120],
       [104, 104, 105, ..., 120, 120, 120],
       [104, 104, 105, ..., 120, 120, 120],
       ...,
       [128, 128, 128, ..., 142, 142, 142],
       [128, 128, 128, ..., 142, 142, 142],
       [128, 128, 128, ..., 142, 142, 142]], dtype=uint8), array([[106, 106, 107, ..., 120, 120, 120],
       [106, 106, 106, ..., 120, 120, 120],
       [106, 106, 106, ..., 120, 120, 120],
       ...,
       [128, 128, 128, ..., 142, 142, 142],
       [128, 128, 128, ..., 142, 142, 142],
       [128, 128, 128, ..., 142, 142, 142]], dtype=uint8)]",2358.0
2973,"[array([[103, 103, 104, ..., 122, 122, 122],
       [103, 103, 104, ..., 122, 122, 122],
       [103, 103, 104, ..., 122, 122, 122],
       ...,
       [127, 127, 127, ..., 141, 141, 141],
       [127, 127, 127, ..., 141, 141, 141],
       [127, 127, 127, ..., 141, 141, 141]], dtype=uint8), array([[104, 104, 104, ..., 120, 120, 120],
       [104, 104, 105, ..., 120, 120, 120],
       [104, 104, 105, ..., 120, 120, 120],
       ...,
       [128, 128, 128, ..., 142, 142, 142],
       [128, 128, 128, ..., 142, 142, 142],
       [128, 128, 128, ..., 142, 142, 142]], dtype=uint8), array([[106, 106, 107, ..., 120, 120, 120],
       [106, 106, 106, ..., 120, 120, 120],
       [106, 106, 106, ..., 120, 120, 120],
       ...,
       [128, 128, 128, ..., 142, 142, 142],
       [128, 128, 128, ..., 142, 142, 142],
       [128, 128, 128, ..., 142, 142, 142]], dtype=uint8)]",2973.5
3064,"[array([[103, 103, 104, ..., 122, 122, 122],
       [103, 103, 104, ..., 122, 122, 122],
       [103, 103, 104, ..., 122, 122, 122],
       ...,
       [127, 127, 127, ..., 141, 141, 141],
       [127, 127, 127, ..., 141, 141, 141],
       [127, 127, 127, ..., 141, 141, 141]], dtype=uint8), array([[104, 104, 104, ..., 120, 120, 120],
       [104, 104, 105, ..., 120, 120, 120],
       [104, 104, 105, ..., 120, 120, 120],
       ...,
       [128, 128, 128, ..., 142, 142, 142],
       [128, 128, 128, ..., 142, 142, 142],
       [128, 128, 128, ..., 142, 142, 142]], dtype=uint8), array([[106, 106, 107, ..., 120, 120, 120],
       [106, 106, 106, ..., 120, 120, 120],
       [106, 106, 106, ..., 120, 120, 120],
       ...,
       [128, 128, 128, ..., 142, 142, 142],
       [128, 128, 128, ..., 142, 142, 142],
       [128, 128, 128, ..., 142, 142, 142]], dtype=uint8)]",3064.0
3137,"[array([[103, 103, 104, ..., 122, 122, 122],
       [103, 103, 104, ..., 122, 122, 122],
       [103, 103, 104, ..., 122, 122, 122],
       ...,
       [127, 127, 127, ..., 141, 141, 141],
       [127, 127, 127, ..., 141, 141, 141],
       [127, 127, 127, ..., 141, 141, 141]], dtype=uint8), array([[104, 104, 104, ..., 120, 120, 120],
       [104, 104, 105, ..., 120, 120, 120],
       [104, 104, 105, ..., 120, 120, 120],
       ...,
       [128, 128, 128, ..., 142, 142, 142],
       [128, 128, 128, ..., 142, 142, 142],
       [128, 128, 128, ..., 142, 142, 142]], dtype=uint8), array([[106, 106, 107, ..., 120, 120, 120],
       [106, 106, 106, ..., 120, 120, 120],
       [106, 106, 106, ..., 120, 120, 120],
       ...,
       [128, 128, 128, ..., 142, 142, 142],
       [128, 128, 128, ..., 142, 142, 142],
       [128, 128, 128, ..., 142, 142, 142]], dtype=uint8)]",3137.5
3872,"[array([[103, 103, 104, ..., 122, 122, 122],
       [103, 103, 104, ..., 122, 122, 122],
       [103, 103, 104, ..., 122, 122, 122],
       ...,
       [127, 127, 127, ..., 141, 141, 141],
       [127, 127, 127, ..., 141, 141, 141],
       [127, 127, 127, ..., 141, 141, 141]], dtype=uint8), array([[104, 104, 104, ..., 120, 120, 120],
       [104, 104, 105, ..., 120, 120, 120],
       [104, 104, 105, ..., 120, 120, 120],
       ...,
       [128, 128, 128, ..., 142, 142, 142],
       [128, 128, 128, ..., 142, 142, 142],
       [128, 128, 128, ..., 142, 142, 142]], dtype=uint8), array([[106, 106, 107, ..., 120, 120, 120],
       [106, 106, 106, ..., 120, 120, 120],
       [106, 106, 106, ..., 120, 120, 120],
       ...,
       [128, 128, 128, ..., 142, 142, 142],
       [128, 128, 128, ..., 142, 142, 142],
       [128, 128, 128, ..., 142, 142, 142]], dtype=uint8)]",3871.0
4003,"[array([[103, 103, 104, ..., 122, 122, 122],
       [103, 103, 104, ..., 122, 122, 122],
       [103, 103, 104, ..., 122, 122, 122],
       ...,
       [127, 127, 127, ..., 141, 141, 141],
       [127, 127, 127, ..., 141, 141, 141],
       [127, 127, 127, ..., 141, 141, 141]], dtype=uint8), array([[104, 104, 104, ..., 120, 120, 120],
       [104, 104, 105, ..., 120, 120, 120],
       [104, 104, 105, ..., 120, 120, 120],
       ...,
       [128, 128, 128, ..., 142, 142, 142],
       [128, 128, 128, ..., 142, 142, 142],
       [128, 128, 128, ..., 142, 142, 142]], dtype=uint8), array([[106, 106, 107, ..., 120, 120, 120],
       [106, 106, 106, ..., 120, 120, 120],
       [106, 106, 106, ..., 120, 120, 120],
       ...,
       [128, 128, 128, ..., 142, 142, 142],
       [128, 128, 128, ..., 142, 142, 142],
       [128, 128, 128, ..., 142, 142, 142]], dtype=uint8)]",4003.0
4622,"[array([[103, 103, 104, ..., 122, 122, 122],
       [103, 103, 104, ..., 122, 122, 122],
       [103, 103, 104, ..., 122, 122, 122],
       ...,
       [127, 127, 127, ..., 141, 141, 141],
       [127, 127, 127, ..., 141, 141, 141],
       [127, 127, 127, ..., 141, 141, 141]], dtype=uint8), array([[104, 104, 104, ..., 120, 120, 120],
       [104, 104, 105, ..., 120, 120, 120],
       [104, 104, 105, ..., 120, 120, 120],
       ...,
       [128, 128, 128, ..., 142, 142, 142],
       [128, 128, 128, ..., 142, 142, 142],
       [128, 128, 128, ..., 142, 142, 142]], dtype=uint8), array([[106, 106, 107, ..., 120, 120, 120],
       [106, 106, 106, ..., 120, 120, 120],
       [106, 106, 106, ..., 120, 120, 120],
       ...,
       [128, 128, 128, ..., 142, 142, 142],
       [128, 128, 128, ..., 142, 142, 142],
       [128, 128, 128, ..., 142, 142, 142]], dtype=uint8)]",4622.5
5072,"[array([[103, 103, 104, ..., 122, 122, 122],
       [103, 103, 104, ..., 122, 122, 122],
       [103, 103, 104, ..., 122, 122, 122],
       ...,
       [127, 127, 127, ..., 141, 141, 141],
       [127, 127, 127, ..., 141, 141, 141],
       [127, 127, 127, ..., 141, 141, 141]], dtype=uint8), array([[104, 104, 104, ..., 120, 120, 120],
       [104, 104, 105, ..., 120, 120, 120],
       [104, 104, 105, ..., 120, 120, 120],
       ...,
       [128, 128, 128, ..., 142, 142, 142],
       [128, 128, 128, ..., 142, 142, 142],
       [128, 128, 128, ..., 142, 142, 142]], dtype=uint8), array([[106, 106, 107, ..., 120, 120, 120],
       [106, 106, 106, ..., 120, 120, 120],
       [106, 106, 106, ..., 120, 120, 120],
       ...,
       [128, 128, 128, ..., 142, 142, 142],
       [128, 128, 128, ..., 142, 142, 142],
       [128, 128, 128, ..., 142, 142, 142]], dtype=uint8)]",5072.5
5075,"[array([[103, 103, 104, ..., 122, 122, 122],
       [103, 103, 104, ..., 122, 122, 122],
       [103, 103, 104, ..., 122, 122, 122],
       ...,
       [127, 127, 127, ..., 141, 141, 141],
       [127, 127, 127, ..., 141, 141, 141],
       [127, 127, 127, ..., 141, 141, 141]], dtype=uint8), array([[104, 104, 104, ..., 120, 120, 120],
       [104, 104, 105, ..., 120, 120, 120],
       [104, 104, 105, ..., 120, 120, 120],
       ...,
       [128, 128, 128, ..., 142, 142, 142],
       [128, 128, 128, ..., 142, 142, 142],
       [128, 128, 128, ..., 142, 142, 142]], dtype=uint8), array([[106, 106, 107, ..., 120, 120, 120],
       [106, 106, 106, ..., 120, 120, 120],
       [106, 106, 106, ..., 120, 120, 120],
       ...,
       [128, 128, 128, ..., 142, 142, 142],
       [128, 128, 128, ..., 142, 142, 142],
       [128, 128, 128, ..., 142, 142, 142]], dtype=uint8)]",5075.0
5307,"[array([[103, 103, 104, ..., 122, 122, 122],
       [103, 103, 104, ..., 122, 122, 122],
       [103, 103, 104, ..., 122, 122, 122],
       ...,
       [127, 127, 127, ..., 141, 141, 141],
       [127, 127, 127, ..., 141, 141, 141],
       [127, 127, 127, ..., 141, 141, 141]], dtype=uint8), array([[104, 104, 104, ..., 120, 120, 120],
       [104, 104, 105, ..., 120, 120, 120],
       [104, 104, 105, ..., 120, 120, 120],
       ...,
       [128, 128, 128, ..., 142, 142, 142],
       [128, 128, 128, ..., 142, 142, 142],
       [128, 128, 128, ..., 142, 142, 142]], dtype=uint8), array([[106, 106, 107, ..., 120, 120, 120],
       [106, 106, 106, ..., 120, 120, 120],
       [106, 106, 106, ..., 120, 120, 120],
       ...,
       [128, 128, 128, ..., 142, 142, 142],
       [128, 128, 128, ..., 142, 142, 142],
       [128, 128, 128, ..., 142, 142, 142]], dtype=uint8)]",5308.0
6070,"[array([[103, 103, 104, ..., 122, 122, 122],
       [103, 103, 104, ..., 122, 122, 122],
       [103, 103, 104, ..., 122, 122, 122],
       ...,
       [127, 127, 127, ..., 141, 141, 141],
       [127, 127, 127, ..., 141, 141, 141],
       [127, 127, 127, ..., 141, 141, 141]], dtype=uint8), array([[104, 104, 104, ..., 120, 120, 120],
       [104, 104, 105, ..., 120, 120, 120],
       [104, 104, 105, ..., 120, 120, 120],
       ...,
       [128, 128, 128, ..., 142, 142, 142],
       [128, 128, 128, ..., 142, 142, 142],
       [128, 128, 128, ..., 142, 142, 142]], dtype=uint8), array([[106, 106, 107, ..., 120, 120, 120],
       [106, 106, 106, ..., 120, 120, 120],
       [106, 106, 106, ..., 120, 120, 120],
       ...,
       [128, 128, 128, ..., 142, 142, 142],
       [128, 128, 128, ..., 142, 142, 142],
       [128, 128, 128, ..., 142, 142, 142]], dtype=uint8)]",6069.5
6942,"[array([[103, 103, 104, ..., 122, 122, 122],
       [103, 103, 104, ..., 122, 122, 122],
       [103, 103, 104, ..., 122, 122, 122],
       ...,
       [127, 127, 127, ..., 141, 141, 141],
       [127, 127, 127, ..., 141, 141, 141],
       [127, 127, 127, ..., 141, 141, 141]], dtype=uint8), array([[104, 104, 104, ..., 120, 120, 120],
       [104, 104, 105, ..., 120, 120, 120],
       [104, 104, 105, ..., 120, 120, 120],
       ...,
       [128, 128, 128, ..., 142, 142, 142],
       [128, 128, 128, ..., 142, 142, 142],
       [128, 128, 128, ..., 142, 142, 142]], dtype=uint8), array([[106, 106, 107, ..., 120, 120, 120],
       [106, 106, 106, ..., 120, 120, 120],
       [106, 106, 106, ..., 120, 120, 120],
       ...,
       [128, 128, 128, ..., 142, 142, 142],
       [128, 128, 128, ..., 142, 142, 142],
       [128, 128, 128, ..., 142, 142, 142]], dtype=uint8)]",6942.0
8275,"[array([[103, 103, 104, ..., 122, 122, 122],
       [103, 103, 104, ..., 122, 122, 122],
       [103, 103, 104, ..., 122, 122, 122],
       ...,
       [127, 127, 127, ..., 141, 141, 141],
       [127, 127, 127, ..., 141, 141, 141],
       [127, 127, 127, ..., 141, 141, 141]], dtype=uint8), array([[104, 104, 104, ..., 120, 120, 120],
       [104, 104, 105, ..., 120, 120, 120],
       [104, 104, 105, ..., 120, 120, 120],
       ...,
       [128, 128, 128, ..., 142, 142, 142],
       [128, 128, 128, ..., 142, 142, 142],
       [128, 128, 128, ..., 142, 142, 142]], dtype=uint8), array([[106, 106, 107, ..., 120, 120, 120],
       [106, 106, 106, ..., 120, 120, 120],
       [106, 106, 106, ..., 120, 120, 120],
       ...,
       [128, 128, 128, ..., 142, 142, 142],
       [128, 128, 128, ..., 142, 142, 142],
       [128, 128, 128, ..., 142, 142, 142]], dtype=uint8)]",8276.0
8555,"[array([[103, 103, 104, ..., 122, 122, 122],
       [103, 103, 104, ..., 122, 122, 122],
       [103, 103, 104, ..., 122, 122, 122],
       ...,
       [127, 127, 127, ..., 141, 141, 141],
       [127, 127, 127, ..., 141, 141, 141],
       [127, 127, 127, ..., 141, 141, 141]], dtype=uint8), array([[104, 104, 104, ..., 120, 120, 120],
       [104, 104, 105, ..., 120, 120, 120],
       [104, 104, 105, ..., 120, 120, 120],
       ...,
       [128, 128, 128, ..., 142, 142, 142],
       [128, 128, 128, ..., 142, 142, 142],
       [128, 128, 128, ..., 142, 142, 142]], dtype=uint8), array([[106, 106, 107, ..., 120, 120, 120],
       [106, 106, 106, ..., 120, 120, 120],
       [106, 106, 106, ..., 120, 120, 120],
       ...,
       [128, 128, 128, ..., 142, 142, 142],
       [128, 128, 128, ..., 142, 142, 142],
       [128, 128, 128, ..., 142, 142, 142]], dtype=uint8)]",8555.0
8647,"[array([[103, 103, 104, ..., 122, 122, 122],
       [103, 103, 104, ..., 122, 122, 122],
       [103, 103, 104, ..., 122, 122, 122],
       ...,
       [127, 127, 127, ..., 141, 141, 141],
       [127, 127, 127, ..., 141, 141, 141],
       [127, 127, 127, ..., 141, 141, 141]], dtype=uint8), array([[104, 104, 104, ..., 120, 120, 120],
       [104, 104, 105, ..., 120, 120, 120],
       [104, 104, 105, ..., 120, 120, 120],
       ...,
       [128, 128, 128, ..., 142, 142, 142],
       [128, 128, 128, ..., 142, 142, 142],
       [128, 128, 128, ..., 142, 142, 142]], dtype=uint8), array([[106, 106, 107, ..., 120, 120, 120],
       [106, 106, 106, ..., 120, 120, 120],
       [106, 106, 106, ..., 120, 120, 120],
       ...,
       [128, 128, 128, ..., 142, 142, 142],
       [128, 128, 128, ..., 142, 142, 142],
       [128, 128, 128, ..., 142, 142, 142]], dtype=uint8)]",8647.0
8697,"[array([[103, 103, 104, ..., 122, 122, 122],
       [103, 103, 104, ..., 122, 122, 122],
       [103, 103, 104, ..., 122, 122, 122],
       ...,
       [127, 127, 127, ..., 141, 141, 141],
       [127, 127, 127, ..., 141, 141, 141],
       [127, 127, 127, ..., 141, 141, 141]], dtype=uint8), array([[104, 104, 104, ..., 120, 120, 120],
       [104, 104, 105, ..., 120, 120, 120],
       [104, 104, 105, ..., 120, 120, 120],
       ...,
       [128, 128, 128, ..., 142, 142, 142],
       [128, 128, 128, ..., 142, 142, 142],
       [128, 128, 128, ..., 142, 142, 142]], dtype=uint8), array([[106, 106, 107, ..., 120, 120, 120],
       [106, 106, 106, ..., 120, 120, 120],
       [106, 106, 106, ..., 120, 120, 120],
       ...,
       [128, 128, 128, ..., 142, 142, 142],
       [128, 128, 128, ..., 142, 142, 142],
       [128, 128, 128, ..., 142, 142, 142]], dtype=uint8)]",8697.5
8786,"[array([[103, 103, 104, ..., 122, 122, 122],
       [103, 103, 104, ..., 122, 122, 122],
       [103, 103, 104, ..., 122, 122, 122],
       ...,
       [127, 127, 127, ..., 141, 141, 141],
       [127, 127, 127, ..., 141, 141, 141],
       [127, 127, 127, ..., 141, 141, 141]], dtype=uint8), array([[104, 104, 104, ..., 120, 120, 120],
       [104, 104, 105, ..., 120, 120, 120],
       [104, 104, 105, ..., 120, 120, 120],
       ...,
       [128, 128, 128, ..., 142, 142, 142],
       [128, 128, 128, ..., 142, 142, 142],
       [128, 128, 128, ..., 142, 142, 142]], dtype=uint8), array([[106, 106, 107, ..., 120, 120, 120],
       [106, 106, 106, ..., 120, 120, 120],
       [106, 106, 106, ..., 120, 120, 120],
       ...,
       [128, 128, 128, ..., 142, 142, 142],
       [128, 128, 128, ..., 142, 142, 142],
       [128, 128, 128, ..., 142, 142, 142]], dtype=uint8)]",8786.0
8973,"[array([[103, 103, 104, ..., 122, 122, 122],
       [103, 103, 104, ..., 122, 122, 122],
       [103, 103, 104, ..., 122, 122, 122],
       ...,
       [127, 127, 127, ..., 141, 141, 141],
       [127, 127, 127, ..., 141, 141, 141],
       [127, 127, 127, ..., 141, 141, 141]], dtype=uint8), array([[104, 104, 104, ..., 120, 120, 120],
       [104, 104, 105, ..., 120, 120, 120],
       [104, 104, 105, ..., 120, 120, 120],
       ...,
       [128, 128, 128, ..., 142, 142, 142],
       [128, 128, 128, ..., 142, 142, 142],
       [128, 128, 128, ..., 142, 142, 142]], dtype=uint8), array([[106, 106, 107, ..., 120, 120, 120],
       [106, 106, 106, ..., 120, 120, 120],
       [106, 106, 106, ..., 120, 120, 120],
       ...,
       [128, 128, 128, ..., 142, 142, 142],
       [128, 128, 128, ..., 142, 142, 142],
       [128, 128, 128, ..., 142, 142, 142]], dtype=uint8)]",8973.0
9131,"[array([[103, 103, 104, ..., 122, 122, 122],
       [103, 103, 104, ..., 122, 122, 122],
       [103, 103, 104, ..., 122, 122, 122],
       ...,
       [127, 127, 127, ..., 141, 141, 141],
       [127, 127, 127, ..., 141, 141, 141],
       [127, 127, 127, ..., 141, 141, 141]], dtype=uint8), array([[104, 104, 104, ..., 120, 120, 120],
       [104, 104, 105, ..., 120, 120, 120],
       [104, 104, 105, ..., 120, 120, 120],
       ...,
       [128, 128, 128, ..., 142, 142, 142],
       [128, 128, 128, ..., 142, 142, 142],
       [128, 128, 128, ..., 142, 142, 142]], dtype=uint8), array([[106, 106, 107, ..., 120, 120, 120],
       [106, 106, 106, ..., 120, 120, 120],
       [106, 106, 106, ..., 120, 120, 120],
       ...,
       [128, 128, 128, ..., 142, 142, 142],
       [128, 128, 128, ..., 142, 142, 142],
       [128, 128, 128, ..., 142, 142, 142]], dtype=uint8)]",9132.0
