Frame,L-class,L-blnk,L-blnk-f,R-class,R-blnk,R-blnk-f
1,OPEN,False,,OPEN,False,
2,OPEN,False,,OPEN,False,
3,OPEN,False,,OPEN,False,
4,open,False,,open,False,
5,open,False,,open,False,
6,closing,False,,closing,False,
7,closing,False,,opening,True,
8,closing,False,,opening,False,
9,open,True,9,open,False,7
10,open,False,,open,False,
11,open,False,,open,False,
12,open,False,,open,False,
13,open,False,,open,False,
14,open,False,,open,False,
15,open,False,,closed,False,
16,closed,False,,closed,False,
17,closed,False,,closed,False,
18,open,True,18,opening,True,18
19,closing,False,,open,False,
20,open,True,,open,False,
21,open,False,,open,False,
22,open,False,,open,False,
23,open,False,,open,False,
24,open,False,,open,False,
25,open,False,,open,False,
26,open,False,,open,False,
27,open,False,,open,False,
28,open,False,,closed,False,
29,closing,False,,opening,True,
30,opening,True,30,opening,False,29
31,open,False,,opening,False,
32,open,False,,open,False,
33,open,False,,open,False,
34,open,False,,open,False,
35,open,False,,open,False,
36,open,False,,open,False,
37,open,False,,open,False,
38,open,False,,open,False,
39,open,False,,open,False,
40,open,False,,open,False,
41,open,False,,open,False,
42,open,False,,open,False,
43,open,False,,open,False,
44,open,False,,open,False,
45,open,False,,open,False,
46,open,False,,open,False,
47,open,False,,closed,False,
48,open,False,,opening,True,
49,open,False,,opening,False,
50,closing,False,,open,False,
51,open,True,51,open,False,48
52,open,False,,open,False,
53,open,False,,open,False,
54,open,False,,open,False,
55,open,False,,open,False,
56,open,False,,open,False,
57,open,False,,open,False,
58,open,False,,open,False,
59,open,False,,open,False,
60,open,False,,open,False,
61,open,False,,open,False,
62,open,False,,open,False,
63,open,False,,open,False,
64,open,False,,open,False,
65,open,False,,open,False,
66,open,False,,open,False,
67,open,False,,open,False,
68,open,False,,open,False,
69,open,False,,open,False,
70,open,False,,open,False,
71,open,False,,open,False,
72,open,False,,open,False,
73,open,False,,open,False,
74,open,False,,open,False,
75,open,False,,open,False,
76,open,False,,open,False,
77,open,False,,open,False,
78,open,False,,open,False,
79,open,False,,open,False,
80,open,False,,closed,False,
81,open,False,,closed,False,
82,open,False,,opening,True,
83,open,False,,opening,False,
84,open,False,,open,False,
85,open,False,,open,False,
86,open,False,,open,False,
87,open,False,,open,False,
88,open,False,,open,False,
89,open,False,,open,False,
90,open,False,,open,False,
91,open,False,,open,False,
92,open,False,,open,False,
93,open,False,,open,False,
94,open,False,,open,False,
95,open,False,,open,False,
96,open,False,,open,False,
97,open,False,,open,False,
98,open,False,,open,False,
99,open,False,,open,False,
100,open,False,,open,False,
