Frame,L-class,L-blnk,L-blnk-f,R-class,R-blnk,R-blnk-f
1,OPEN,False,,OPEN,False,
2,OPEN,False,,OPEN,False,
3,OPEN,False,,OPEN,False,
4,open,False,,open,False,
5,open,False,,open,False,
6,closed,False,,closing,False,
7,closed,False,,closing,False,
8,closed,False,,opening,True,
9,open,True,9,open,False,8
10,open,False,,open,False,
11,open,False,,open,False,
12,open,False,,open,False,
13,open,False,,open,False,
14,open,False,,open,False,
15,open,False,,closed,False,
16,closing,False,,closed,False,
17,closing,False,,closed,False,
18,closing,False,,opening,True,
19,open,True,19,open,False,18
20,open,False,,open,False,
21,open,False,,open,False,
22,open,False,,open,False,
23,open,False,,open,False,
24,open,False,,open,False,
25,open,False,,open,False,
26,open,False,,open,False,
27,closed,False,,open,False,
28,closed,False,,closed,False,
29,closed,False,,closed,False,
30,opening,True,,closed,False,
31,open,False,30,opening,True,31
32,open,False,,open,False,
33,open,False,,open,False,
34,open,False,,open,False,
35,open,False,,open,False,
36,open,False,,open,False,
37,open,False,,open,False,
38,open,False,,open,False,
39,open,False,,open,False,
40,open,False,,open,False,
41,open,False,,open,False,
42,open,False,,open,False,
43,open,False,,open,False,
44,open,False,,open,False,
45,open,False,,open,False,
46,open,False,,open,False,
47,closing,False,,closing,False,
48,closing,False,,closing,False,
49,open,True,,closing,False,
50,open,False,49,open,True,50
51,open,False,,open,False,
52,open,False,,open,False,
53,open,False,,open,False,
54,open,False,,open,False,
55,open,False,,open,False,
56,open,False,,open,False,
57,open,False,,open,False,
58,open,False,,open,False,
59,open,False,,open,False,
60,open,False,,open,False,
61,open,False,,open,False,
62,open,False,,open,False,
63,open,False,,open,False,
64,open,False,,open,False,
65,open,False,,open,False,
66,open,False,,open,False,
67,open,False,,open,False,
68,open,False,,open,False,
69,open,False,,open,False,
70,open,False,,open,False,
71,open,False,,open,False,
72,open,False,,open,False,
73,open,False,,open,False,
74,open,False,,open,False,
75,open,False,,open,False,
76,open,False,,open,False,
77,open,False,,open,False,
78,open,False,,open,False,
79,open,False,,open,False,
80,closed,False,,closed,False,
81,closed,False,,closed,False,
82,opening,True,,closed,False,
83,open,False,,closed,False,
84,open,False,82,open,True,84
85,open,False,,open,False,
86,open,False,,open,False,
87,open,False,,open,False,
88,open,False,,open,False,
89,open,False,,open,False,
90,open,False,,open,False,
91,open,False,,open,False,
92,open,False,,open,False,
93,open,False,,open,False,
94,open,False,,open,False,
95,open,False,,open,False,
96,open,False,,open,False,
97,open,False,,open,False,
98,open,False,,open,False,
99,open,False,,open,False,
100,open,False,,open,False,
101,open,False,,open,False,
102,open,False,,open,False,
103,open,False,,open,False,
104,open,False,,open,False,
105,closed,False,,closing,False,
106,closed,False,,closing,False,
107,open,True,,closing,False,
108,open,False,107,open,True,108
109,open,False,,open,False,
110,open,False,,open,False,
111,open,False,,open,False,
112,open,False,,open,False,
113,open,False,,open,False,
114,open,False,,open,False,
115,open,False,,open,False,
116,open,False,,open,False,
117,open,False,,open,False,
118,open,False,,open,False,
119,open,False,,open,False,
120,open,False,,open,False,
121,open,False,,open,False,
122,open,False,,open,False,
123,open,False,,open,False,
124,open,False,,open,False,
125,open,False,,open,False,
126,closed,False,,closed,False,
127,closed,False,,closed,False,
128,closed,False,,closed,False,
129,closed,False,,closed,False,
130,opening,True,,closed,False,
131,closed,False,,closed,False,
132,closed,False,,closed,False,
133,closed,False,,closed,False,
134,closed,False,,closed,False,
135,open,True,135,open,True,135
136,open,False,,open,False,
137,open,False,,open,False,
138,open,False,,open,False,
139,open,False,,open,False,
140,open,False,,open,False,
141,open,False,,open,False,
142,open,False,,open,False,
143,open,False,,open,False,
144,open,False,,open,False,
145,open,False,,open,False,
146,open,False,,open,False,
147,open,False,,open,False,
148,open,False,,open,False,
149,open,False,,open,False,
150,open,False,,open,False,
151,open,False,,open,False,
152,open,False,,open,False,
153,open,False,,open,False,
154,open,False,,open,False,
155,open,False,,open,False,
156,open,False,,open,False,
157,closing,False,,closing,False,
158,closing,False,,closing,False,
159,open,True,159,open,True,159
160,open,False,,open,False,
161,open,False,,open,False,
162,open,False,,open,False,
163,open,False,,open,False,
164,open,False,,open,False,
165,open,False,,open,False,
166,open,False,,open,False,
167,open,False,,open,False,
168,open,False,,open,False,
169,open,False,,open,False,
170,open,False,,open,False,
171,open,False,,open,False,
172,open,False,,open,False,
173,open,False,,open,False,
174,open,False,,open,False,
175,open,False,,open,False,
176,open,False,,open,False,
177,open,False,,open,False,
178,open,False,,open,False,
179,open,False,,open,False,
180,open,False,,open,False,
181,open,False,,open,False,
182,open,False,,open,False,
183,open,False,,open,False,
184,open,False,,open,False,
185,open,False,,open,False,
186,open,False,,open,False,
187,closing,False,,open,False,
188,closing,False,,closing,False,
189,open,True,189,opening,True,189
190,closing,False,,open,False,
191,open,True,,open,False,
192,open,False,,open,False,
193,open,False,,open,False,
194,open,False,,open,False,
195,open,False,,open,False,
196,open,False,,open,False,
197,open,False,,open,False,
198,open,False,,open,False,
199,open,False,,open,False,
200,open,False,,open,False,
