Frame,L-class,L-blnk,L-blnk-f,R-class,R-blnk,R-blnk-f
1,OPEN,False,,,OPEN,False,,
2,OPEN,False,,,OPEN,False,,
3,OPEN,False,,,OPEN,False,,
4,open,False,,,open,False,,
5,open,False,,True,open,False,,True
6,closed,False,,True,closing,False,,True
7,closed,False,,True,closing,False,,True
8,closed,False,,True,opening,True,,True
9,open,True,9,True,open,False,8,True
10,open,False,,,open,False,,
11,open,False,,,open,False,,
12,open,False,,,open,False,,
13,open,False,,,open,False,,
14,open,False,,,open,False,,
15,open,False,,True,closed,False,,
16,closing,False,,True,closed,False,,
17,closing,False,,True,closed,False,,
18,closing,False,,True,opening,True,,True
19,open,True,19,True,open,False,18,True
20,open,False,,,open,False,,
21,open,False,,,open,False,,
22,open,False,,,open,False,,
23,open,False,,,open,False,,
24,open,False,,,open,False,,
25,open,False,,,open,False,,
26,open,False,,True,open,False,,
27,closed,False,,True,open,False,,
28,closed,False,,True,closed,False,,
29,closed,False,,True,closed,False,,
30,opening,True,,True,closed,False,,
31,open,False,30,True,opening,True,31,True
32,open,False,,,open,False,,True
33,open,False,,,open,False,,True
34,open,False,,,open,False,,True
35,open,False,,,open,False,,True
36,open,False,,,open,False,,True
37,open,False,,,open,False,,True
38,open,False,,,open,False,,True
39,open,False,,,open,False,,True
40,open,False,,,open,False,,True
41,open,False,,,open,False,,True
42,open,False,,,open,False,,True
43,open,False,,,open,False,,True
44,open,False,,,open,False,,True
45,open,False,,,open,False,,True
46,open,False,,,open,False,,True
47,closing,False,,,closing,False,,True
48,closing,False,,,closing,False,,True
49,open,True,,True,closing,False,,True
50,open,False,49,,open,True,50,True
51,open,False,,,open,False,,
52,open,False,,,open,False,,
53,open,False,,,open,False,,
54,open,False,,,open,False,,
55,open,False,,,open,False,,
56,open,False,,,open,False,,
57,open,False,,,open,False,,
58,open,False,,,open,False,,
59,open,False,,,open,False,,
60,open,False,,,open,False,,
61,open,False,,,open,False,,
62,open,False,,,open,False,,
63,open,False,,,open,False,,
64,open,False,,,open,False,,
65,open,False,,,open,False,,
66,open,False,,,open,False,,
67,open,False,,,open,False,,
68,open,False,,,open,False,,
69,open,False,,,open,False,,
70,open,False,,,open,False,,
71,open,False,,,open,False,,
72,open,False,,,open,False,,
73,open,False,,,open,False,,
74,open,False,,,open,False,,
75,open,False,,,open,False,,
76,open,False,,,open,False,,
77,open,False,,,open,False,,
78,open,False,,,open,False,,
79,open,False,,True,open,False,,True
80,closed,False,,True,closed,False,,True
81,closed,False,,True,closed,False,,True
82,opening,True,,True,closed,False,,True
83,open,False,,True,closed,False,,True
84,open,False,82,,open,True,84,True
85,open,False,,,open,False,,
86,open,False,,,open,False,,
87,open,False,,,open,False,,
88,open,False,,,open,False,,
89,open,False,,,open,False,,
90,open,False,,,open,False,,
91,open,False,,,open,False,,
92,open,False,,,open,False,,
93,open,False,,,open,False,,
94,open,False,,,open,False,,
95,open,False,,,open,False,,
96,open,False,,,open,False,,
97,open,False,,,open,False,,
98,open,False,,,open,False,,
99,open,False,,,open,False,,
100,open,False,,,open,False,,
101,open,False,,,open,False,,
102,open,False,,,open,False,,
103,open,False,,,open,False,,
104,open,False,,,open,False,,True
105,closed,False,,,closing,False,,True
106,closed,False,,,closing,False,,True
107,open,True,,True,closing,False,,True
108,open,False,107,,open,True,108,True
109,open,False,,,open,False,,
110,open,False,,,open,False,,
111,open,False,,,open,False,,
112,open,False,,,open,False,,
113,open,False,,,open,False,,
114,open,False,,,open,False,,
115,open,False,,,open,False,,
116,open,False,,,open,False,,
117,open,False,,,open,False,,
118,open,False,,,open,False,,
119,open,False,,,open,False,,
120,open,False,,,open,False,,
121,open,False,,,open,False,,
122,open,False,,,open,False,,
123,open,False,,,open,False,,
124,open,False,,,open,False,,
125,open,False,,True,open,False,,True
126,closed,False,,True,closed,False,,True
127,closed,False,,True,closed,False,,True
128,closed,False,,True,closed,False,,True
129,closed,False,,True,closed,False,,True
130,opening,True,,True,closed,False,,True
131,closed,False,,True,closed,False,,True
132,closed,False,,True,closed,False,,True
133,closed,False,,True,closed,False,,True
134,closed,False,,True,closed,False,,True
135,open,True,135,True,open,True,135,True
136,open,False,,,open,False,,
137,open,False,,,open,False,,
138,open,False,,,open,False,,
139,open,False,,,open,False,,
140,open,False,,,open,False,,
141,open,False,,,open,False,,
142,open,False,,,open,False,,
143,open,False,,,open,False,,
144,open,False,,,open,False,,
145,open,False,,,open,False,,
146,open,False,,,open,False,,
147,open,False,,,open,False,,
148,open,False,,,open,False,,
149,open,False,,,open,False,,
150,open,False,,,open,False,,
151,open,False,,,open,False,,
152,open,False,,,open,False,,
153,open,False,,,open,False,,
154,open,False,,,open,False,,
155,open,False,,,open,False,,
156,open,False,,True,open,False,,True
157,closing,False,,True,closing,False,,True
158,closing,False,,True,closing,False,,True
159,open,True,159,True,open,True,159,True
160,open,False,,,open,False,,
161,open,False,,,open,False,,
162,open,False,,,open,False,,
163,open,False,,,open,False,,
164,open,False,,,open,False,,
165,open,False,,,open,False,,
166,open,False,,,open,False,,
167,open,False,,,open,False,,
168,open,False,,,open,False,,
169,open,False,,,open,False,,
170,open,False,,,open,False,,
171,open,False,,,open,False,,
172,open,False,,,open,False,,
173,open,False,,,open,False,,
174,open,False,,,open,False,,
175,open,False,,,open,False,,
176,open,False,,,open,False,,
177,open,False,,,open,False,,
178,open,False,,,open,False,,
179,open,False,,,open,False,,
180,open,False,,,open,False,,
181,open,False,,,open,False,,
182,open,False,,,open,False,,
183,open,False,,,open,False,,
184,open,False,,,open,False,,
185,open,False,,,open,False,,
186,open,False,,True,open,False,,
187,closing,False,,True,open,False,,True
188,closing,False,,True,closing,False,,True
189,open,True,189,True,opening,True,189,True
190,closing,False,,True,open,False,,True
191,open,True,,True,open,False,,True
192,open,False,,True,open,False,,True
193,open,False,,True,open,False,,True
194,open,False,,True,open,False,,True
195,open,False,,True,open,False,,True
196,open,False,,True,open,False,,True
197,open,False,,True,open,False,,True
198,open,False,,True,open,False,,True
199,open,False,,True,open,False,,True
200,open,False,,True,open,False,,True
201,open,False,,True,open,False,,True
202,open,False,,True,open,False,,True
203,open,False,,True,open,False,,True
204,open,False,,True,open,False,,True
205,open,False,,True,open,False,,True
206,open,False,,True,open,False,,True
207,open,False,,True,open,False,,True
208,closing,False,,True,closed,False,,True
209,closing,False,,True,closed,False,,True
210,closing,False,,True,opening,True,,True
211,closing,False,,True,closing,False,,True
212,open,True,212,True,open,True,212,True
213,open,False,,,open,False,,
214,open,False,,,open,False,,
215,open,False,,,open,False,,
216,open,False,,,open,False,,True
217,open,False,,True,closed,False,,True
218,closing,False,,True,closed,False,,True
219,opening,True,,True,closed,False,,True
220,closing,False,,True,closed,False,,True
221,open,True,221,True,open,True,221,True
222,open,False,,,open,False,,
223,open,False,,,open,False,,
224,open,False,,,open,False,,
225,open,False,,,open,False,,
226,open,False,,,open,False,,
227,open,False,,,open,False,,
228,open,False,,,open,False,,
229,open,False,,,open,False,,
230,open,False,,,open,False,,
231,open,False,,,open,False,,
232,open,False,,,open,False,,
233,open,False,,,open,False,,
234,open,False,,,open,False,,
235,open,False,,,open,False,,
236,open,False,,,open,False,,
237,open,False,,,open,False,,
238,open,False,,,open,False,,
239,open,False,,,open,False,,
240,open,False,,,open,False,,True
241,open,False,,True,closing,False,,True
242,closing,False,,True,closing,False,,True
243,open,True,,True,closing,False,,True
244,open,False,,,closing,False,,True
245,open,False,243,,open,True,245,True
246,open,False,,,open,False,,
247,open,False,,,open,False,,
248,open,False,,,open,False,,
249,open,False,,,open,False,,
250,open,False,,,open,False,,
251,open,False,,,open,False,,
252,open,False,,,open,False,,
253,open,False,,,open,False,,
254,open,False,,,open,False,,
255,open,False,,,open,False,,
256,open,False,,,open,False,,
257,open,False,,,open,False,,
258,open,False,,,open,False,,
259,open,False,,,open,False,,
260,open,False,,,open,False,,
261,open,False,,,open,False,,
262,open,False,,,open,False,,
263,open,False,,,open,False,,
264,open,False,,,open,False,,True
265,closing,False,,,closing,False,,True
266,closing,False,,,closing,False,,True
267,closed,False,,,closing,False,,True
268,closed,False,,,closing,False,,True
269,open,False,,True,open,True,,True
270,open,False,,True,open,False,,True
271,open,False,,True,open,False,,True
272,open,False,,True,open,False,,True
273,open,False,,True,open,False,,True
274,open,False,,True,open,False,,True
275,open,False,,True,open,False,,True
276,open,False,,True,open,False,,True
277,open,False,,True,open,False,,True
278,open,False,,True,open,False,,True
279,open,False,,True,open,False,,True
280,open,False,,True,open,False,,True
281,open,False,,True,open,False,,True
282,open,False,,True,open,False,,True
283,open,False,,True,open,False,,True
284,open,False,,True,open,False,,True
285,open,False,,True,open,False,,True
286,open,False,,True,open,False,,True
287,closed,False,,True,closed,False,,True
288,closed,False,,True,closed,False,,True
289,closed,False,,True,closed,False,,True
290,open,True,,True,closed,False,,True
291,open,False,290,,open,True,291,True
292,open,False,,,open,False,,
293,open,False,,,open,False,,
294,open,False,,,open,False,,
295,open,False,,,open,False,,
296,open,False,,,open,False,,
297,open,False,,,open,False,,
298,open,False,,,open,False,,
299,open,False,,,open,False,,
300,open,False,,,open,False,,
