Frame,L-class,L-blnk,L-blnk-f,R-class,R-blnk,R-blnk-f
1,OPEN,False,,OPEN,False,
2,OPEN,False,,OPEN,False,
3,OPEN,False,,OPEN,False,
4,open,False,,open,False,
5,open,False,,open,False,
6,closing,False,,closing,False,
7,closing,False,,opening,True,
8,closing,False,,opening,False,
9,open,True,9,open,False,7
10,open,False,,open,False,
11,open,False,,open,False,
12,open,False,,open,False,
13,open,False,,open,False,
14,open,False,,open,False,
15,open,False,,closed,False,
16,closed,False,,closed,False,
17,closed,False,,closed,False,
18,open,True,18,opening,True,18
19,closing,False,,open,False,
20,open,True,,open,False,
21,open,False,,open,False,
22,open,False,,open,False,
23,open,False,,open,False,
24,open,False,,open,False,
25,open,False,,open,False,
26,open,False,,open,False,
27,open,False,,open,False,
28,open,False,,closed,False,
29,closing,False,,opening,True,
30,opening,True,30,opening,False,29
