Frame,L-class,L-blnk,L-blnk-f,R-class,R-blnk,R-blnk-f
1,OPEN,False,,OPEN,False,
2,OPEN,False,,OPEN,False,
3,OPEN,False,,OPEN,False,
4,open,False,,open,False,
5,open,False,,open,False,
6,closing,False,,closing,False,
7,closing,False,,opening,True,
8,closing,False,,opening,False,
9,open,True,9,open,False,7
10,open,False,,open,False,
11,open,False,,open,False,
12,open,False,,open,False,
13,open,False,,open,False,
14,open,False,,open,False,
15,open,False,,closed,False,
16,closed,False,,closed,False,
17,closed,False,,closed,False,
18,open,True,18,opening,True,18
19,closing,False,,open,False,
20,open,True,,open,False,
21,open,False,,open,False,
22,open,False,,open,False,
23,open,False,,open,False,
24,open,False,,open,False,
25,open,False,,open,False,
26,open,False,,open,False,
27,open,False,,open,False,
28,open,False,,closed,False,
29,closing,False,,opening,True,
30,opening,True,30,opening,False,29
31,open,False,,opening,False,
32,open,False,,open,False,
33,open,False,,open,False,
34,open,False,,open,False,
35,open,False,,open,False,
36,open,False,,open,False,
37,open,False,,open,False,
38,open,False,,open,False,
39,open,False,,open,False,
40,open,False,,open,False,
41,open,False,,open,False,
42,open,False,,open,False,
43,open,False,,open,False,
44,open,False,,open,False,
45,open,False,,open,False,
46,open,False,,open,False,
47,open,False,,closed,False,
48,open,False,,opening,True,
49,open,False,,opening,False,
50,closing,False,,open,False,
51,open,True,51,open,False,48
52,open,False,,open,False,
53,open,False,,open,False,
54,open,False,,open,False,
55,open,False,,open,False,
56,open,False,,open,False,
57,open,False,,open,False,
58,open,False,,open,False,
59,open,False,,open,False,
60,open,False,,open,False,
61,open,False,,open,False,
62,open,False,,open,False,
63,open,False,,open,False,
64,open,False,,open,False,
65,open,False,,open,False,
66,open,False,,open,False,
67,open,False,,open,False,
68,open,False,,open,False,
69,open,False,,open,False,
70,open,False,,open,False,
71,open,False,,open,False,
72,open,False,,open,False,
73,open,False,,open,False,
74,open,False,,open,False,
75,open,False,,open,False,
76,open,False,,open,False,
77,open,False,,open,False,
78,open,False,,open,False,
79,open,False,,open,False,
80,open,False,,closed,False,
81,open,False,,closed,False,
82,open,False,,opening,True,
83,open,False,,opening,False,
84,open,False,,open,False,
85,open,False,,open,False,
86,open,False,,open,False,
87,open,False,,open,False,
88,open,False,,open,False,
89,open,False,,open,False,
90,open,False,,open,False,
91,open,False,,open,False,
92,open,False,,open,False,
93,open,False,,open,False,
94,open,False,,open,False,
95,open,False,,open,False,
96,open,False,,open,False,
97,open,False,,open,False,
98,open,False,,open,False,
99,open,False,,open,False,
100,open,False,,open,False,
101,open,False,,open,False,
102,open,False,,open,False,
103,open,False,,open,False,
104,open,False,,open,False,
105,closed,False,,closing,False,
106,closed,False,,opening,True,
107,open,True,107,closing,False,106
108,open,False,,open,True,
109,open,False,,open,False,
110,open,False,,open,False,
111,open,False,,open,False,
112,open,False,,open,False,
113,open,False,,open,False,
114,open,False,,open,False,
115,open,False,,open,False,
116,open,False,,open,False,
117,open,False,,open,False,
118,open,False,,open,False,
119,open,False,,open,False,
120,open,False,,open,False,
121,open,False,,open,False,
122,open,False,,open,False,
123,open,False,,open,False,
124,open,False,,open,False,
125,open,False,,open,False,
126,open,False,,closed,False,
127,open,False,,closed,False,
128,open,False,,closed,False,
129,closed,False,,closed,False,
130,opening,True,,closed,False,
131,opening,False,,closed,False,
132,opening,False,,closed,False,
133,closing,False,,closed,False,
134,closing,False,,closed,False,
135,open,True,135,open,True,135
136,open,False,,open,False,
137,open,False,,open,False,
138,open,False,,open,False,
139,open,False,,open,False,
140,open,False,,open,False,
141,open,False,,open,False,
142,open,False,,open,False,
143,open,False,,open,False,
144,open,False,,open,False,
145,open,False,,open,False,
146,open,False,,open,False,
147,open,False,,open,False,
148,open,False,,open,False,
149,open,False,,open,False,
150,open,False,,open,False,
151,open,False,,open,False,
152,open,False,,open,False,
153,open,False,,open,False,
154,open,False,,open,False,
155,open,False,,open,False,
156,open,False,,open,False,
157,closing,False,,closing,False,
158,closing,False,,closing,False,
159,open,True,159,open,True,159
160,open,False,,open,False,
161,open,False,,open,False,
162,open,False,,open,False,
163,open,False,,open,False,
164,open,False,,open,False,
165,open,False,,open,False,
166,open,False,,open,False,
167,open,False,,open,False,
168,open,False,,open,False,
169,open,False,,open,False,
170,open,False,,open,False,
171,open,False,,open,False,
172,open,False,,open,False,
173,open,False,,open,False,
174,open,False,,open,False,
175,open,False,,open,False,
176,open,False,,open,False,
177,open,False,,open,False,
178,open,False,,open,False,
179,open,False,,open,False,
180,open,False,,open,False,
181,open,False,,open,False,
182,open,False,,open,False,
183,open,False,,open,False,
184,open,False,,open,False,
185,open,False,,open,False,
186,open,False,,open,False,
187,closing,False,,open,False,
188,opening,True,,open,False,
189,open,False,,open,False,
190,closing,False,,open,False,
191,open,True,,open,False,
192,open,False,,open,False,
193,open,False,,open,False,
194,open,False,,open,False,
195,open,False,,open,False,
196,open,False,,open,False,
197,open,False,,open,False,
198,open,False,,open,False,
199,open,False,,open,False,
200,open,False,,open,False,
201,open,False,,open,False,
202,open,False,,open,False,
203,open,False,,open,False,
204,open,False,,open,False,
205,open,False,,open,False,
206,open,False,,open,False,
207,open,False,,open,False,
208,open,False,,open,False,
209,closing,False,,closing,False,
210,closing,False,,opening,True,
211,closing,False,,opening,False,
212,open,True,212,open,False,210
213,open,False,,open,False,
214,open,False,,open,False,
215,open,False,,open,False,
216,open,False,,open,False,
217,open,False,,closed,False,
218,closing,False,,closed,False,
219,opening,True,219,opening,True,219
220,opening,False,,opening,False,
221,open,False,,open,False,
222,open,False,,open,False,
223,open,False,,open,False,
224,open,False,,open,False,
225,open,False,,open,False,
226,open,False,,open,False,
227,open,False,,open,False,
228,open,False,,open,False,
229,open,False,,open,False,
230,open,False,,open,False,
231,open,False,,open,False,
232,open,False,,open,False,
233,open,False,,open,False,
234,open,False,,open,False,
235,open,False,,open,False,
236,open,False,,open,False,
237,open,False,,open,False,
238,open,False,,open,False,
239,open,False,,open,False,
240,open,False,,open,False,
241,open,False,,open,False,
242,closing,False,,closing,False,
243,opening,True,243,opening,True,243
244,open,False,,closing,False,
245,open,False,,open,True,
246,open,False,,open,False,
247,open,False,,open,False,
248,open,False,,open,False,
249,open,False,,open,False,
250,open,False,,open,False,
251,open,False,,open,False,
252,open,False,,open,False,
253,open,False,,open,False,
254,open,False,,open,False,
255,open,False,,open,False,
256,open,False,,open,False,
257,open,False,,open,False,
258,open,False,,open,False,
259,open,False,,open,False,
260,open,False,,open,False,
261,open,False,,open,False,
262,open,False,,open,False,
263,open,False,,open,False,
264,open,False,,open,False,
265,closed,False,,closed,False,
266,closed,False,,closed,False,
267,opening,True,267,opening,True,267
268,closing,False,,opening,False,
269,open,True,,open,False,
270,open,False,,open,False,
271,open,False,,open,False,
272,open,False,,open,False,
273,open,False,,open,False,
274,open,False,,open,False,
275,open,False,,open,False,
276,open,False,,open,False,
277,open,False,,open,False,
278,open,False,,open,False,
279,open,False,,open,False,
280,open,False,,open,False,
281,open,False,,open,False,
282,open,False,,open,False,
283,open,False,,open,False,
284,open,False,,open,False,
285,open,False,,open,False,
286,open,False,,open,False,
287,open,False,,open,False,
288,closed,False,,closed,False,
289,opening,True,289,opening,True,289
290,open,False,,opening,False,
291,open,False,,open,False,
292,open,False,,open,False,
293,open,False,,open,False,
294,open,False,,open,False,
295,open,False,,open,False,
296,open,False,,open,False,
297,open,False,,open,False,
298,open,False,,open,False,
299,open,False,,open,False,
300,open,False,,open,False,
301,open,False,,open,False,
302,open,False,,open,False,
303,open,False,,open,False,
304,open,False,,open,False,
305,open,False,,open,False,
306,open,False,,open,False,
307,open,False,,open,False,
308,open,False,,open,False,
309,open,False,,closed,False,
310,open,False,,closed,False,
311,closing,False,,opening,True,
312,opening,True,312,opening,False,311
313,open,False,,opening,False,
314,open,False,,open,False,
315,open,False,,open,False,
316,open,False,,open,False,
317,open,False,,open,False,
318,open,False,,open,False,
319,open,False,,open,False,
320,open,False,,open,False,
321,open,False,,open,False,
322,open,False,,open,False,
323,open,False,,open,False,
324,open,False,,open,False,
325,open,False,,open,False,
326,open,False,,open,False,
327,open,False,,open,False,
328,open,False,,open,False,
329,open,False,,open,False,
330,open,False,,open,False,
331,open,False,,open,False,
332,closed,False,,open,False,
333,opening,True,,closing,False,
334,opening,False,,closing,False,
335,closing,False,333,opening,True,335
336,closing,False,,open,False,
337,open,True,,open,False,
338,open,False,,open,False,
339,open,False,,open,False,
340,open,False,,open,False,
341,open,False,,open,False,
342,closed,False,,closed,False,
343,closed,False,,closed,False,
344,closed,False,,opening,True,
345,open,True,345,open,False,344
346,open,False,,open,False,
347,open,False,,open,False,
348,open,False,,open,False,
349,open,False,,open,False,
350,open,False,,open,False,
351,open,False,,open,False,
352,open,False,,open,False,
353,open,False,,open,False,
354,open,False,,open,False,
355,open,False,,open,False,
356,open,False,,open,False,
357,open,False,,open,False,
358,open,False,,open,False,
359,open,False,,open,False,
360,open,False,,open,False,
361,open,False,,open,False,
362,open,False,,open,False,
363,open,False,,open,False,
364,open,False,,open,False,
365,open,False,,open,False,
366,open,False,,open,False,
367,open,False,,open,False,
368,open,False,,open,False,
369,open,False,,open,False,
370,open,False,,open,False,
371,open,False,,open,False,
372,open,False,,open,False,
373,open,False,,open,False,
374,open,False,,open,False,
375,open,False,,open,False,
376,open,False,,open,False,
377,closing,False,,open,False,
378,closing,False,,closing,False,
379,closing,False,,closing,False,
380,closing,False,,opening,True,
381,open,True,381,open,False,380
382,open,False,,open,False,
383,open,False,,open,False,
384,open,False,,open,False,
385,open,False,,open,False,
386,open,False,,open,False,
387,open,False,,open,False,
388,open,False,,open,False,
389,open,False,,open,False,
390,open,False,,closed,False,
391,closing,False,,closed,False,
392,closing,False,,closed,False,
393,open,True,393,opening,True,393
394,closing,False,,opening,False,
395,open,True,,open,False,
396,open,False,,open,False,
397,open,False,,open,False,
398,open,False,,open,False,
399,open,False,,open,False,
400,open,False,,open,False,
401,open,False,,open,False,
402,open,False,,open,False,
403,open,False,,open,False,
404,open,False,,open,False,
405,open,False,,open,False,
406,open,False,,open,False,
407,open,False,,open,False,
408,open,False,,open,False,
409,open,False,,open,False,
410,open,False,,open,False,
411,open,False,,open,False,
412,open,False,,open,False,
413,open,False,,open,False,
414,open,False,,open,False,
415,open,False,,closed,False,
416,closing,False,,closed,False,
417,opening,True,417,opening,True,417
418,open,False,,closing,False,
419,open,False,,open,True,
420,open,False,,open,False,
421,open,False,,open,False,
422,open,False,,open,False,
423,open,False,,open,False,
424,open,False,,open,False,
425,open,False,,open,False,
426,open,False,,open,False,
427,open,False,,open,False,
428,open,False,,open,False,
429,open,False,,open,False,
430,open,False,,open,False,
431,open,False,,open,False,
432,open,False,,open,False,
433,open,False,,open,False,
434,open,False,,open,False,
435,open,False,,open,False,
436,open,False,,open,False,
437,open,False,,open,False,
438,open,False,,open,False,
439,open,False,,open,False,
440,open,False,,open,False,
441,open,False,,open,False,
442,open,False,,open,False,
443,open,False,,open,False,
444,open,False,,open,False,
445,open,False,,open,False,
446,open,False,,open,False,
447,open,False,,open,False,
448,open,False,,open,False,
449,open,False,,open,False,
450,open,False,,open,False,
451,open,False,,open,False,
452,open,False,,open,False,
453,open,False,,open,False,
454,open,False,,open,False,
455,open,False,,open,False,
456,open,False,,open,False,
457,open,False,,open,False,
458,open,False,,open,False,
459,open,False,,open,False,
460,open,False,,open,False,
461,open,False,,closed,False,
462,open,False,,closed,False,
463,open,False,,closed,False,
464,closing,False,,closed,False,
465,open,True,465,open,True,465
466,open,False,,open,False,
467,open,False,,open,False,
468,open,False,,open,False,
469,open,False,,open,False,
470,open,False,,open,False,
471,open,False,,open,False,
472,open,False,,open,False,
473,open,False,,open,False,
474,open,False,,open,False,
475,open,False,,open,False,
476,open,False,,open,False,
477,open,False,,open,False,
478,open,False,,open,False,
479,open,False,,open,False,
480,open,False,,open,False,
481,open,False,,open,False,
482,open,False,,open,False,
483,open,False,,open,False,
484,open,False,,open,False,
485,open,False,,open,False,
486,open,False,,open,False,
487,open,False,,open,False,
488,open,False,,open,False,
489,open,False,,open,False,
490,open,False,,open,False,
491,open,False,,open,False,
492,open,False,,open,False,
493,closed,False,,closed,False,
494,closed,False,,opening,True,
495,closed,False,,opening,False,
496,open,True,496,open,False,494
497,open,False,,open,False,
498,open,False,,open,False,
499,open,False,,open,False,
500,open,False,,open,False,
501,open,False,,open,False,
502,open,False,,open,False,
503,open,False,,open,False,
504,open,False,,open,False,
505,open,False,,open,False,
506,open,False,,open,False,
507,open,False,,open,False,
508,open,False,,open,False,
509,open,False,,open,False,
510,open,False,,open,False,
511,open,False,,open,False,
512,open,False,,open,False,
513,open,False,,open,False,
514,open,False,,open,False,
515,open,False,,open,False,
516,open,False,,open,False,
517,open,False,,open,False,
518,open,False,,open,False,
519,open,False,,open,False,
520,open,False,,open,False,
521,open,False,,open,False,
522,closing,False,,closing,False,
523,opening,True,523,opening,True,523
524,opening,False,,opening,False,
525,open,False,,open,False,
526,open,False,,open,False,
527,open,False,,open,False,
528,open,False,,open,False,
529,open,False,,open,False,
530,open,False,,open,False,
531,open,False,,open,False,
532,open,False,,open,False,
533,open,False,,open,False,
534,open,False,,open,False,
535,open,False,,open,False,
536,open,False,,open,False,
537,open,False,,open,False,
538,open,False,,open,False,
539,open,False,,open,False,
540,open,False,,open,False,
541,open,False,,open,False,
542,open,False,,open,False,
543,open,False,,open,False,
544,open,False,,open,False,
545,open,False,,open,False,
546,open,False,,open,False,
547,open,False,,open,False,
548,open,False,,open,False,
549,open,False,,open,False,
550,open,False,,open,False,
551,open,False,,open,False,
552,open,False,,open,False,
553,open,False,,open,False,
554,open,False,,open,False,
555,open,False,,open,False,
556,open,False,,open,False,
557,open,False,,open,False,
558,open,False,,open,False,
559,open,False,,open,False,
560,open,False,,open,False,
561,open,False,,open,False,
562,open,False,,open,False,
563,open,False,,open,False,
564,open,False,,open,False,
565,open,False,,open,False,
566,open,False,,open,False,
567,open,False,,open,False,
568,open,False,,open,False,
569,open,False,,open,False,
570,open,False,,open,False,
571,open,False,,open,False,
572,open,False,,open,False,
573,open,False,,open,False,
574,open,False,,open,False,
575,open,False,,open,False,
576,open,False,,open,False,
577,open,False,,open,False,
578,open,False,,open,False,
579,open,False,,open,False,
580,open,False,,open,False,
581,open,False,,open,False,
582,open,False,,open,False,
583,open,False,,open,False,
584,open,False,,open,False,
585,open,False,,open,False,
586,open,False,,open,False,
587,open,False,,open,False,
588,open,False,,open,False,
589,open,False,,open,False,
590,open,False,,open,False,
591,open,False,,open,False,
592,open,False,,open,False,
593,open,False,,open,False,
594,open,False,,open,False,
595,open,False,,open,False,
596,open,False,,open,False,
597,open,False,,open,False,
598,open,False,,open,False,
599,open,False,,open,False,
600,open,False,,open,False,
601,open,False,,open,False,
602,open,False,,open,False,
603,open,False,,open,False,
604,open,False,,open,False,
605,open,False,,open,False,
606,open,False,,open,False,
607,open,False,,open,False,
608,open,False,,open,False,
609,open,False,,open,False,
610,open,False,,open,False,
611,open,False,,open,False,
612,open,False,,open,False,
613,open,False,,open,False,
614,open,False,,open,False,
615,open,False,,open,False,
616,open,False,,open,False,
617,open,False,,closed,False,
618,open,False,,closed,False,
619,open,False,,closed,False,
620,closed,False,,closed,False,
621,opening,True,,closed,False,
622,opening,False,,closed,False,
623,opening,False,621,opening,True,623
624,closing,False,,opening,False,
625,open,True,,open,False,
626,open,False,,open,False,
627,open,False,,open,False,
628,open,False,,open,False,
629,open,False,,open,False,
630,open,False,,open,False,
631,open,False,,open,False,
632,open,False,,open,False,
633,open,False,,open,False,
634,open,False,,open,False,
635,open,False,,open,False,
636,open,False,,open,False,
637,open,False,,open,False,
638,open,False,,open,False,
639,open,False,,open,False,
640,open,False,,open,False,
641,open,False,,open,False,
642,open,False,,open,False,
643,open,False,,open,False,
644,open,False,,open,False,
645,open,False,,open,False,
646,open,False,,open,False,
647,open,False,,open,False,
648,open,False,,open,False,
649,open,False,,open,False,
650,open,False,,open,False,
651,open,False,,open,False,
652,open,False,,open,False,
653,open,False,,open,False,
654,open,False,,open,False,
655,open,False,,open,False,
656,open,False,,open,False,
657,open,False,,open,False,
658,open,False,,open,False,
659,open,False,,open,False,
660,open,False,,open,False,
661,open,False,,open,False,
662,open,False,,open,False,
663,open,False,,open,False,
664,open,False,,open,False,
665,open,False,,open,False,
666,open,False,,open,False,
667,open,False,,closed,False,
668,closing,False,,opening,True,
669,opening,True,669,opening,False,668
670,open,False,,open,False,
671,open,False,,open,False,
672,open,False,,open,False,
673,open,False,,open,False,
674,open,False,,open,False,
675,open,False,,open,False,
676,open,False,,open,False,
677,open,False,,open,False,
678,open,False,,open,False,
679,open,False,,open,False,
680,open,False,,closed,False,
681,closing,False,,closed,False,
682,opening,True,682,opening,True,682
683,opening,False,,opening,False,
684,open,False,,open,False,
685,open,False,,open,False,
686,open,False,,open,False,
687,open,False,,open,False,
688,open,False,,open,False,
689,open,False,,open,False,
690,open,False,,open,False,
691,open,False,,open,False,
692,open,False,,open,False,
693,open,False,,open,False,
694,open,False,,open,False,
695,open,False,,open,False,
696,open,False,,open,False,
697,open,False,,open,False,
698,open,False,,open,False,
699,open,False,,open,False,
700,open,False,,open,False,
701,open,False,,open,False,
702,open,False,,open,False,
703,open,False,,open,False,
704,open,False,,open,False,
705,open,False,,open,False,
706,open,False,,open,False,
707,open,False,,open,False,
708,open,False,,open,False,
709,open,False,,open,False,
710,open,False,,open,False,
711,open,False,,open,False,
712,open,False,,open,False,
713,open,False,,open,False,
714,closing,False,,open,False,
715,opening,True,,open,False,
716,open,False,,open,False,
717,open,False,,open,False,
718,open,False,,open,False,
719,open,False,,open,False,
720,open,False,,open,False,
721,open,False,,open,False,
722,open,False,,open,False,
723,open,False,,open,False,
724,open,False,,open,False,
725,open,False,,open,False,
726,open,False,,open,False,
727,open,False,,open,False,
728,open,False,,open,False,
729,open,False,,open,False,
730,closed,False,,closed,False,
731,opening,True,,closed,False,
732,opening,False,731,opening,True,732
733,closed,False,,closed,False,
734,closed,False,,opening,True,
735,closed,False,,opening,False,
736,opening,True,736,opening,False,734
737,open,False,,open,False,
738,open,False,,open,False,
739,open,False,,open,False,
740,open,False,,open,False,
741,open,False,,open,False,
742,open,False,,open,False,
743,open,False,,open,False,
744,open,False,,open,False,
745,open,False,,open,False,
746,open,False,,open,False,
747,open,False,,open,False,
748,open,False,,open,False,
749,open,False,,open,False,
750,open,False,,open,False,
751,open,False,,open,False,
752,open,False,,open,False,
753,open,False,,open,False,
754,open,False,,open,False,
755,open,False,,open,False,
756,open,False,,open,False,
757,open,False,,open,False,
758,open,False,,open,False,
759,open,False,,open,False,
760,open,False,,open,False,
761,open,False,,open,False,
762,closing,False,,closing,False,
763,opening,True,763,opening,True,763
764,closing,False,,opening,False,
765,open,True,,open,False,
766,open,False,,open,False,
767,open,False,,open,False,
768,open,False,,open,False,
769,open,False,,open,False,
770,open,False,,open,False,
771,closed,False,,closed,False,
772,closed,False,,closed,False,
773,closed,False,,opening,True,
774,closed,False,,opening,False,
775,open,True,775,open,False,773
776,open,False,,open,False,
777,open,False,,open,False,
778,open,False,,open,False,
779,open,False,,open,False,
780,open,False,,open,False,
781,open,False,,open,False,
782,open,False,,open,False,
783,open,False,,open,False,
784,open,False,,open,False,
785,open,False,,open,False,
786,open,False,,open,False,
787,open,False,,open,False,
788,open,False,,open,False,
789,open,False,,open,False,
790,open,False,,open,False,
791,open,False,,open,False,
792,open,False,,open,False,
793,open,False,,open,False,
794,open,False,,open,False,
795,open,False,,open,False,
796,open,False,,open,False,
797,open,False,,open,False,
798,open,False,,open,False,
799,open,False,,open,False,
800,open,False,,open,False,
801,open,False,,open,False,
802,open,False,,open,False,
803,open,False,,open,False,
804,open,False,,open,False,
805,open,False,,open,False,
806,open,False,,open,False,
807,open,False,,open,False,
808,open,False,,open,False,
809,open,False,,closed,False,
810,closing,False,,closed,False,
811,opening,True,811,opening,True,811
812,open,False,,opening,False,
813,open,False,,open,False,
814,open,False,,open,False,
815,open,False,,open,False,
816,open,False,,open,False,
817,open,False,,open,False,
818,open,False,,open,False,
819,open,False,,open,False,
820,open,False,,open,False,
821,open,False,,open,False,
822,open,False,,open,False,
823,open,False,,open,False,
824,open,False,,open,False,
825,open,False,,open,False,
826,open,False,,open,False,
827,open,False,,open,False,
828,open,False,,open,False,
829,open,False,,open,False,
830,open,False,,open,False,
831,open,False,,open,False,
832,open,False,,open,False,
833,open,False,,open,False,
834,open,False,,open,False,
835,open,False,,open,False,
836,open,False,,open,False,
837,open,False,,open,False,
838,open,False,,open,False,
839,open,False,,open,False,
840,open,False,,open,False,
841,open,False,,open,False,
842,open,False,,open,False,
843,open,False,,open,False,
844,open,False,,open,False,
845,open,False,,open,False,
846,open,False,,open,False,
847,open,False,,open,False,
848,open,False,,open,False,
849,open,False,,open,False,
850,open,False,,open,False,
851,open,False,,open,False,
852,open,False,,closed,False,
853,open,False,,closed,False,
854,open,False,,closed,False,
855,open,False,,closed,False,
856,open,False,,opening,True,
857,open,False,,closed,False,
858,closing,False,,closed,False,
859,opening,True,859,opening,True,859
860,open,False,,opening,False,
861,open,False,,opening,False,
862,open,False,,open,False,
863,open,False,,open,False,
864,open,False,,open,False,
865,open,False,,open,False,
866,open,False,,open,False,
867,open,False,,open,False,
868,open,False,,open,False,
869,open,False,,open,False,
870,open,False,,open,False,
871,open,False,,open,False,
872,open,False,,open,False,
873,open,False,,open,False,
874,open,False,,open,False,
875,open,False,,closed,False,
876,closing,False,,closed,False,
877,closing,False,,opening,True,
878,open,True,878,opening,False,877
879,open,False,,open,False,
880,open,False,,open,False,
881,open,False,,open,False,
882,open,False,,open,False,
883,open,False,,open,False,
884,open,False,,open,False,
885,open,False,,open,False,
886,open,False,,open,False,
887,open,False,,open,False,
888,open,False,,open,False,
889,open,False,,open,False,
890,open,False,,open,False,
891,open,False,,open,False,
892,open,False,,open,False,
893,open,False,,open,False,
894,open,False,,open,False,
895,open,False,,open,False,
896,open,False,,open,False,
897,open,False,,open,False,
898,open,False,,open,False,
899,open,False,,open,False,
900,open,False,,open,False,
901,open,False,,open,False,
902,open,False,,open,False,
903,open,False,,open,False,
904,open,False,,open,False,
905,open,False,,open,False,
906,open,False,,open,False,
907,open,False,,open,False,
908,open,False,,open,False,
909,open,False,,open,False,
910,open,False,,open,False,
911,open,False,,open,False,
912,open,False,,open,False,
913,open,False,,open,False,
914,open,False,,open,False,
915,open,False,,open,False,
916,open,False,,open,False,
917,open,False,,open,False,
918,open,False,,open,False,
919,open,False,,open,False,
920,open,False,,open,False,
921,open,False,,open,False,
922,open,False,,open,False,
923,open,False,,open,False,
924,open,False,,open,False,
925,open,False,,open,False,
926,open,False,,open,False,
927,open,False,,open,False,
928,open,False,,open,False,
929,open,False,,open,False,
930,open,False,,open,False,
931,open,False,,closed,False,
932,open,False,,opening,True,
933,open,False,,closed,False,
934,open,False,,closed,False,
935,open,False,,closed,False,
936,open,False,,closed,False,
937,open,False,,closed,False,
938,closing,False,,closed,False,
939,closing,False,,opening,True,
940,open,True,940,opening,False,939
941,open,False,,opening,False,
942,open,False,,open,False,
943,open,False,,open,False,
944,open,False,,open,False,
945,open,False,,open,False,
946,open,False,,open,False,
947,open,False,,open,False,
948,open,False,,open,False,
949,open,False,,open,False,
950,open,False,,open,False,
951,open,False,,open,False,
952,open,False,,open,False,
953,open,False,,open,False,
954,open,False,,open,False,
955,open,False,,open,False,
956,open,False,,open,False,
957,open,False,,open,False,
958,open,False,,open,False,
959,open,False,,open,False,
960,open,False,,open,False,
961,open,False,,open,False,
962,open,False,,open,False,
963,closing,False,,closing,False,
964,closing,False,,closing,False,
965,closing,False,,opening,True,
966,open,True,966,opening,False,965
967,open,False,,open,False,
968,open,False,,open,False,
969,open,False,,open,False,
970,open,False,,open,False,
971,open,False,,open,False,
972,open,False,,open,False,
973,open,False,,open,False,
974,open,False,,open,False,
975,open,False,,closed,False,
976,closed,False,,closed,False,
977,closed,False,,closed,False,
978,closed,False,,opening,True,
979,open,True,979,opening,False,978
980,closing,False,,open,False,
981,open,True,,open,False,
982,open,False,,open,False,
983,open,False,,open,False,
984,open,False,,open,False,
985,open,False,,open,False,
986,open,False,,open,False,
987,open,False,,open,False,
988,open,False,,open,False,
989,open,False,,open,False,
990,open,False,,open,False,
991,open,False,,open,False,
992,open,False,,open,False,
993,open,False,,open,False,
994,open,False,,open,False,
995,open,False,,open,False,
996,open,False,,open,False,
997,open,False,,open,False,
998,open,False,,open,False,
999,open,False,,open,False,
1000,open,False,,open,False,
1001,open,False,,open,False,
1002,open,False,,open,False,
1003,open,False,,open,False,
1004,open,False,,open,False,
1005,open,False,,open,False,
1006,open,False,,closed,False,
1007,open,False,,closed,False,
1008,closing,False,,closed,False,
1009,opening,True,1009,opening,True,1009
1010,closing,False,,opening,False,
1011,open,True,,open,False,
1012,open,False,,open,False,
1013,open,False,,open,False,
1014,open,False,,open,False,
1015,closed,False,,closed,False,
1016,opening,True,1016,opening,True,1016
1017,closing,False,,closed,False,
1018,opening,True,1018,opening,True,1018
1019,opening,False,,opening,False,
1020,open,False,,open,False,
1021,open,False,,open,False,
1022,open,False,,open,False,
1023,open,False,,open,False,
1024,open,False,,open,False,
1025,open,False,,open,False,
1026,open,False,,open,False,
1027,open,False,,open,False,
1028,open,False,,open,False,
1029,open,False,,open,False,
1030,open,False,,open,False,
1031,open,False,,open,False,
1032,open,False,,open,False,
1033,open,False,,open,False,
1034,open,False,,open,False,
1035,open,False,,open,False,
1036,open,False,,open,False,
1037,open,False,,open,False,
1038,open,False,,open,False,
1039,open,False,,open,False,
1040,closed,False,,closed,False,
1041,closed,False,,closed,False,
1042,opening,True,1042,opening,True,1042
1043,closing,False,,opening,False,
1044,open,True,,opening,False,
1045,open,False,,open,False,
1046,open,False,,open,False,
1047,open,False,,open,False,
1048,open,False,,open,False,
1049,open,False,,open,False,
1050,open,False,,open,False,
1051,open,False,,open,False,
1052,open,False,,open,False,
1053,open,False,,open,False,
1054,open,False,,open,False,
1055,open,False,,open,False,
1056,open,False,,open,False,
1057,open,False,,open,False,
1058,open,False,,open,False,
1059,open,False,,open,False,
1060,open,False,,open,False,
1061,open,False,,open,False,
1062,open,False,,open,False,
1063,open,False,,open,False,
1064,open,False,,open,False,
1065,open,False,,open,False,
1066,open,False,,open,False,
1067,open,False,,open,False,
1068,open,False,,open,False,
1069,open,False,,open,False,
1070,open,False,,open,False,
1071,open,False,,open,False,
1072,open,False,,open,False,
1073,open,False,,open,False,
1074,open,False,,open,False,
1075,open,False,,open,False,
1076,open,False,,open,False,
1077,open,False,,open,False,
1078,open,False,,open,False,
1079,open,False,,open,False,
1080,open,False,,open,False,
1081,open,False,,open,False,
1082,open,False,,open,False,
1083,open,False,,open,False,
1084,open,False,,open,False,
1085,open,False,,open,False,
1086,open,False,,open,False,
1087,open,False,,open,False,
1088,open,False,,open,False,
1089,open,False,,open,False,
1090,open,False,,open,False,
1091,open,False,,closed,False,
1092,closed,False,,closed,False,
1093,opening,True,,closed,False,
1094,opening,False,1093,opening,True,1094
1095,closing,False,,closing,False,
1096,opening,True,1096,opening,True,1096
1097,opening,False,,opening,False,
1098,open,False,,open,False,
1099,open,False,,open,False,
1100,open,False,,open,False,
1101,open,False,,open,False,
1102,open,False,,open,False,
1103,open,False,,open,False,
1104,open,False,,open,False,
1105,open,False,,open,False,
1106,open,False,,open,False,
1107,open,False,,open,False,
1108,open,False,,open,False,
1109,open,False,,open,False,
1110,open,False,,open,False,
1111,open,False,,open,False,
1112,open,False,,open,False,
1113,open,False,,open,False,
1114,open,False,,open,False,
1115,open,False,,open,False,
1116,open,False,,closed,False,
1117,open,False,,closed,False,
1118,closing,False,,closed,False,
1119,open,True,1119,opening,True,1119
1120,open,False,,open,False,
1121,open,False,,open,False,
1122,open,False,,open,False,
1123,open,False,,open,False,
1124,open,False,,open,False,
1125,open,False,,open,False,
1126,open,False,,open,False,
1127,open,False,,open,False,
1128,open,False,,open,False,
1129,open,False,,open,False,
1130,open,False,,open,False,
1131,open,False,,open,False,
1132,open,False,,open,False,
1133,open,False,,open,False,
1134,open,False,,open,False,
1135,open,False,,open,False,
1136,open,False,,open,False,
1137,open,False,,open,False,
1138,open,False,,open,False,
1139,open,False,,open,False,
1140,open,False,,open,False,
1141,open,False,,open,False,
1142,open,False,,open,False,
1143,open,False,,closed,False,
1144,closed,False,,closed,False,
1145,closed,False,,closed,False,
1146,closed,False,,closed,False,
1147,closed,False,,closed,False,
1148,closed,False,,closed,False,
1149,opening,True,,closed,False,
1150,closed,False,,closed,False,
1151,closed,False,,closed,False,
1152,opening,True,,closed,False,
1153,closed,False,,closed,False,
1154,closed,False,1152,opening,True,1154
1155,closed,False,,opening,False,
1156,open,True,,open,False,
1157,open,False,,open,False,
1158,open,False,,open,False,
1159,open,False,,open,False,
1160,open,False,,open,False,
1161,open,False,,open,False,
1162,open,False,,open,False,
1163,open,False,,open,False,
1164,open,False,,open,False,
1165,open,False,,open,False,
1166,open,False,,open,False,
1167,open,False,,open,False,
1168,open,False,,open,False,
1169,open,False,,open,False,
1170,open,False,,open,False,
1171,open,False,,open,False,
1172,open,False,,open,False,
1173,open,False,,open,False,
1174,open,False,,open,False,
1175,open,False,,open,False,
1176,open,False,,open,False,
1177,open,False,,open,False,
1178,open,False,,open,False,
1179,open,False,,open,False,
1180,open,False,,open,False,
1181,open,False,,open,False,
1182,open,False,,open,False,
1183,open,False,,open,False,
1184,open,False,,open,False,
1185,open,False,,closed,False,
1186,open,False,,closed,False,
1187,open,False,,closed,False,
1188,open,False,,closed,False,
1189,closed,False,,closed,False,
1190,closed,False,,closed,False,
1191,closed,False,,opening,True,
1192,open,True,1192,open,False,1191
1193,open,False,,open,False,
1194,open,False,,open,False,
1195,open,False,,open,False,
1196,open,False,,open,False,
1197,open,False,,open,False,
1198,open,False,,open,False,
1199,open,False,,open,False,
1200,open,False,,open,False,
1201,open,False,,open,False,
1202,closing,False,,closing,False,
1203,opening,True,,closing,False,
1204,open,False,,closing,False,
1205,open,False,1203,open,True,1205
1206,open,False,,open,False,
1207,open,False,,open,False,
1208,open,False,,open,False,
1209,open,False,,open,False,
1210,open,False,,open,False,
1211,open,False,,open,False,
1212,open,False,,open,False,
1213,open,False,,open,False,
1214,open,False,,open,False,
1215,open,False,,open,False,
1216,open,False,,open,False,
1217,open,False,,open,False,
1218,open,False,,open,False,
1219,open,False,,open,False,
1220,open,False,,open,False,
1221,open,False,,open,False,
1222,open,False,,open,False,
1223,open,False,,open,False,
1224,open,False,,open,False,
1225,open,False,,open,False,
1226,open,False,,open,False,
1227,open,False,,open,False,
1228,open,False,,open,False,
1229,open,False,,open,False,
1230,open,False,,open,False,
1231,open,False,,open,False,
1232,open,False,,open,False,
1233,open,False,,open,False,
1234,open,False,,open,False,
1235,open,False,,open,False,
1236,open,False,,open,False,
1237,open,False,,open,False,
1238,open,False,,open,False,
1239,open,False,,open,False,
1240,open,False,,open,False,
1241,open,False,,open,False,
1242,open,False,,open,False,
1243,open,False,,open,False,
1244,open,False,,open,False,
1245,open,False,,open,False,
1246,open,False,,open,False,
1247,open,False,,open,False,
1248,open,False,,open,False,
1249,open,False,,open,False,
1250,open,False,,open,False,
1251,open,False,,open,False,
1252,open,False,,open,False,
1253,open,False,,open,False,
1254,open,False,,open,False,
1255,open,False,,open,False,
1256,open,False,,open,False,
1257,open,False,,open,False,
1258,open,False,,open,False,
1259,open,False,,open,False,
1260,open,False,,open,False,
1261,open,False,,open,False,
1262,open,False,,open,False,
1263,open,False,,open,False,
1264,open,False,,open,False,
1265,open,False,,open,False,
1266,open,False,,open,False,
1267,open,False,,open,False,
1268,open,False,,open,False,
1269,open,False,,open,False,
1270,open,False,,open,False,
1271,open,False,,open,False,
1272,open,False,,open,False,
1273,open,False,,open,False,
1274,open,False,,open,False,
1275,open,False,,open,False,
1276,open,False,,open,False,
1277,open,False,,open,False,
1278,open,False,,open,False,
1279,open,False,,open,False,
1280,open,False,,open,False,
1281,open,False,,open,False,
1282,open,False,,open,False,
1283,open,False,,closed,False,
1284,open,False,,opening,True,
1285,closing,False,,closing,False,
1286,closing,False,,closing,False,
1287,open,True,1287,open,True,1287
1288,open,False,,open,False,
1289,open,False,,open,False,
1290,open,False,,open,False,
1291,open,False,,open,False,
1292,open,False,,open,False,
1293,open,False,,open,False,
1294,open,False,,closed,False,
1295,closing,False,,closed,False,
1296,closing,False,,closed,False,
1297,closing,False,,opening,True,
1298,open,True,1298,open,False,1297
1299,open,False,,open,False,
1300,open,False,,open,False,
1301,open,False,,open,False,
1302,open,False,,open,False,
1303,open,False,,open,False,
1304,open,False,,open,False,
1305,open,False,,open,False,
1306,open,False,,closed,False,
1307,closed,False,,closed,False,
1308,closed,False,,closed,False,
1309,open,True,1309,opening,True,1309
1310,open,False,,open,False,
1311,open,False,,open,False,
1312,open,False,,open,False,
1313,open,False,,open,False,
1314,open,False,,open,False,
1315,open,False,,open,False,
1316,open,False,,open,False,
1317,open,False,,open,False,
1318,open,False,,open,False,
1319,open,False,,open,False,
1320,open,False,,open,False,
1321,open,False,,open,False,
1322,open,False,,open,False,
1323,open,False,,open,False,
1324,open,False,,open,False,
1325,open,False,,open,False,
1326,open,False,,open,False,
1327,open,False,,open,False,
1328,open,False,,open,False,
1329,open,False,,open,False,
1330,open,False,,closed,False,
1331,open,False,,opening,True,
1332,closed,False,,closed,False,
1333,opening,True,1333,closed,False,1331
1334,opening,False,,closed,False,
1335,opening,False,,closed,False,
1336,closed,False,,closed,False,
1337,open,True,1337,opening,True,1337
1338,open,False,,closed,False,
1339,open,False,,closed,False,
1340,closing,False,,closed,False,
1341,closing,False,,closed,False,
1342,opening,True,1342,opening,True,1342
1343,closing,False,,open,False,
1344,open,True,,open,False,
1345,open,False,,open,False,
1346,open,False,,open,False,
1347,open,False,,open,False,
1348,open,False,,open,False,
1349,open,False,,open,False,
1350,open,False,,open,False,
1351,open,False,,open,False,
1352,open,False,,open,False,
1353,open,False,,open,False,
1354,open,False,,open,False,
1355,open,False,,open,False,
1356,open,False,,open,False,
1357,open,False,,open,False,
1358,open,False,,open,False,
1359,open,False,,open,False,
1360,open,False,,open,False,
1361,open,False,,open,False,
1362,open,False,,open,False,
1363,open,False,,open,False,
1364,open,False,,open,False,
1365,open,False,,closed,False,
1366,open,False,,closed,False,
1367,open,False,,closed,False,
1368,open,False,,opening,True,
1369,open,False,,closed,False,
1370,open,False,,closed,False,
1371,open,False,,opening,True,
1372,open,False,,closed,False,
1373,open,False,,closed,False,
1374,open,False,,closed,False,
1375,open,False,,closed,False,
1376,open,False,,closed,False,
1377,open,False,,closed,False,
1378,open,False,,opening,True,
1379,open,False,,opening,False,
1380,open,False,,opening,False,
1381,open,False,,closed,False,
1382,closed,False,,closed,False,
1383,closed,False,,closed,False,
1384,closed,False,,closed,False,
1385,closed,False,,closed,False,
1386,opening,True,,closed,False,
1387,opening,False,,closed,False,
1388,opening,False,,closed,False,
1389,closed,False,,closed,False,
1390,opening,True,,closed,False,
1391,opening,False,,closed,False,
1392,opening,False,,closed,False,
1393,opening,False,,closed,False,
1394,opening,False,,opening,True,
1395,opening,False,,closed,False,
1396,opening,False,,closed,False,
1397,opening,False,,closed,False,
1398,opening,False,,closed,False,
1399,opening,False,,opening,True,
1400,opening,False,,closed,False,
1401,opening,False,,closed,False,
1402,opening,False,,closed,False,
1403,opening,False,,opening,True,
1404,opening,False,,opening,False,
1405,opening,False,,opening,False,
1406,opening,False,,opening,False,
1407,opening,False,,closed,False,
1408,opening,False,,closed,False,
1409,open,False,,closed,False,
1410,open,False,,opening,True,
1411,open,False,,closed,False,
1412,open,False,,closed,False,
1413,open,False,,closed,False,
1414,open,False,,closed,False,
1415,open,False,,closed,False,
1416,open,False,,closed,False,
1417,open,False,,closed,False,
1418,open,False,,closed,False,
1419,open,False,,closed,False,
1420,open,False,,closed,False,
1421,open,False,,opening,True,
1422,open,False,,opening,False,
1423,open,False,,closed,False,
1424,open,False,,closed,False,
1425,open,False,,closed,False,
1426,open,False,,closed,False,
1427,open,False,,opening,True,
1428,open,False,,opening,False,
1429,open,False,,closed,False,
1430,open,False,,opening,True,
1431,open,False,,opening,False,
1432,open,False,,opening,False,
1433,open,False,,opening,False,
1434,open,False,,closing,False,
1435,open,False,,opening,True,
1436,open,False,,opening,False,
1437,closing,False,,open,False,
1438,open,True,1438,open,False,1435
1439,open,False,,open,False,
1440,open,False,,open,False,
1441,open,False,,open,False,
1442,open,False,,open,False,
1443,open,False,,open,False,
1444,open,False,,open,False,
1445,open,False,,open,False,
1446,open,False,,open,False,
1447,open,False,,open,False,
1448,open,False,,open,False,
1449,open,False,,open,False,
1450,open,False,,open,False,
1451,open,False,,open,False,
1452,open,False,,open,False,
1453,open,False,,open,False,
1454,open,False,,open,False,
1455,closing,False,,closing,False,
1456,opening,True,1456,opening,True,1456
1457,closing,False,,open,False,
1458,open,True,,open,False,
1459,open,False,,open,False,
1460,open,False,,open,False,
1461,open,False,,open,False,
1462,open,False,,open,False,
1463,open,False,,open,False,
1464,open,False,,open,False,
1465,open,False,,open,False,
1466,open,False,,open,False,
1467,closing,False,,closing,False,
1468,opening,True,1468,opening,True,1468
1469,open,False,,opening,False,
1470,open,False,,open,False,
1471,open,False,,open,False,
1472,open,False,,open,False,
1473,open,False,,open,False,
1474,open,False,,open,False,
1475,open,False,,open,False,
1476,open,False,,open,False,
1477,open,False,,open,False,
1478,open,False,,open,False,
1479,open,False,,open,False,
1480,open,False,,open,False,
1481,open,False,,open,False,
1482,open,False,,open,False,
1483,open,False,,open,False,
1484,open,False,,open,False,
1485,open,False,,open,False,
1486,open,False,,open,False,
1487,open,False,,open,False,
1488,open,False,,open,False,
1489,open,False,,open,False,
1490,open,False,,open,False,
1491,open,False,,open,False,
1492,open,False,,open,False,
1493,open,False,,open,False,
1494,open,False,,open,False,
1495,open,False,,open,False,
1496,open,False,,open,False,
1497,closing,False,,closed,False,
1498,closing,False,,opening,True,
1499,open,True,1499,opening,False,1498
1500,open,False,,open,False,
1501,open,False,,open,False,
1502,open,False,,open,False,
1503,open,False,,open,False,
1504,open,False,,open,False,
1505,open,False,,open,False,
1506,open,False,,open,False,
1507,open,False,,open,False,
1508,open,False,,open,False,
1509,open,False,,open,False,
1510,open,False,,open,False,
1511,open,False,,open,False,
1512,open,False,,open,False,
1513,open,False,,open,False,
1514,open,False,,open,False,
1515,open,False,,open,False,
1516,open,False,,open,False,
1517,open,False,,open,False,
1518,open,False,,open,False,
1519,open,False,,open,False,
1520,open,False,,open,False,
1521,open,False,,open,False,
1522,open,False,,open,False,
1523,open,False,,open,False,
1524,open,False,,open,False,
1525,open,False,,open,False,
1526,open,False,,open,False,
1527,open,False,,open,False,
1528,open,False,,open,False,
1529,open,False,,open,False,
1530,open,False,,open,False,
1531,open,False,,open,False,
1532,open,False,,open,False,
1533,open,False,,open,False,
1534,open,False,,open,False,
1535,open,False,,open,False,
1536,closing,False,,closing,False,
1537,opening,True,1537,opening,True,1537
1538,open,False,,closing,False,
1539,open,False,,open,True,
1540,open,False,,open,False,
1541,open,False,,open,False,
1542,open,False,,open,False,
1543,open,False,,open,False,
1544,open,False,,open,False,
1545,open,False,,open,False,
1546,open,False,,open,False,
1547,open,False,,open,False,
1548,open,False,,open,False,
1549,open,False,,open,False,
1550,open,False,,open,False,
1551,open,False,,open,False,
1552,open,False,,open,False,
1553,open,False,,open,False,
1554,open,False,,open,False,
1555,open,False,,open,False,
1556,open,False,,open,False,
1557,open,False,,open,False,
1558,open,False,,open,False,
1559,open,False,,open,False,
1560,open,False,,open,False,
1561,open,False,,open,False,
1562,open,False,,open,False,
1563,open,False,,open,False,
1564,open,False,,open,False,
1565,open,False,,open,False,
1566,open,False,,open,False,
1567,open,False,,open,False,
1568,open,False,,open,False,
1569,open,False,,open,False,
1570,open,False,,open,False,
1571,open,False,,closed,False,
1572,closing,False,,closed,False,
1573,opening,True,1573,opening,True,1573
1574,opening,False,,open,False,
1575,open,False,,open,False,
1576,open,False,,open,False,
1577,open,False,,open,False,
1578,open,False,,open,False,
1579,open,False,,open,False,
1580,open,False,,open,False,
1581,open,False,,open,False,
1582,open,False,,open,False,
1583,open,False,,open,False,
1584,open,False,,open,False,
1585,open,False,,open,False,
1586,open,False,,open,False,
1587,open,False,,open,False,
1588,open,False,,open,False,
1589,closing,False,,closing,False,
1590,closing,False,,opening,True,
1591,open,True,1591,opening,False,1590
1592,open,False,,open,False,
1593,open,False,,open,False,
1594,open,False,,open,False,
1595,open,False,,open,False,
1596,open,False,,open,False,
1597,open,False,,open,False,
1598,open,False,,open,False,
1599,open,False,,closed,False,
1600,closed,False,,opening,True,
1601,closed,False,,opening,False,
1602,opening,True,1602,opening,False,1600
1603,open,False,,open,False,
1604,open,False,,open,False,
1605,open,False,,open,False,
1606,open,False,,open,False,
1607,open,False,,open,False,
1608,open,False,,open,False,
1609,open,False,,open,False,
1610,open,False,,open,False,
1611,open,False,,open,False,
1612,open,False,,open,False,
1613,open,False,,open,False,
1614,open,False,,open,False,
1615,open,False,,open,False,
1616,open,False,,open,False,
1617,open,False,,open,False,
1618,open,False,,open,False,
1619,open,False,,open,False,
1620,open,False,,open,False,
1621,open,False,,open,False,
1622,open,False,,open,False,
1623,open,False,,open,False,
1624,open,False,,closed,False,
1625,closed,False,,closed,False,
1626,closed,False,,closed,False,
1627,open,True,1627,opening,True,1627
1628,open,False,,opening,False,
1629,open,False,,open,False,
1630,open,False,,open,False,
1631,open,False,,open,False,
1632,open,False,,open,False,
1633,open,False,,open,False,
1634,open,False,,open,False,
1635,closed,False,,closed,False,
1636,opening,True,,closed,False,
1637,opening,False,,closed,False,
1638,opening,False,,closed,False,
1639,opening,False,,closed,False,
1640,opening,False,,closed,False,
1641,closed,False,,closed,False,
1642,closed,False,,closed,False,
1643,opening,True,,closed,False,
1644,closing,False,,closed,False,
1645,open,True,1645,open,True,1645
1646,closing,False,,open,False,
1647,open,True,,open,False,
1648,open,False,,open,False,
1649,open,False,,open,False,
1650,open,False,,open,False,
1651,open,False,,open,False,
1652,open,False,,open,False,
1653,open,False,,open,False,
1654,open,False,,open,False,
1655,open,False,,open,False,
1656,closing,False,,closing,False,
1657,opening,True,1657,opening,True,1657
1658,opening,False,,closing,False,
1659,open,False,,open,True,
1660,open,False,,open,False,
1661,open,False,,open,False,
1662,open,False,,open,False,
1663,open,False,,open,False,
1664,open,False,,open,False,
1665,open,False,,open,False,
1666,open,False,,open,False,
1667,open,False,,open,False,
1668,open,False,,open,False,
1669,open,False,,open,False,
1670,open,False,,open,False,
1671,open,False,,open,False,
1672,open,False,,open,False,
1673,open,False,,open,False,
1674,open,False,,open,False,
1675,open,False,,open,False,
1676,open,False,,open,False,
1677,open,False,,open,False,
1678,open,False,,open,False,
1679,open,False,,open,False,
1680,open,False,,open,False,
1681,open,False,,open,False,
1682,open,False,,open,False,
1683,open,False,,open,False,
1684,open,False,,open,False,
1685,open,False,,open,False,
1686,open,False,,open,False,
1687,open,False,,open,False,
1688,open,False,,open,False,
1689,open,False,,open,False,
1690,open,False,,closed,False,
1691,closed,False,,closed,False,
1692,closed,False,,closed,False,
1693,opening,True,1693,opening,True,1693
1694,open,False,,open,False,
1695,open,False,,open,False,
1696,open,False,,open,False,
1697,open,False,,open,False,
1698,open,False,,open,False,
1699,open,False,,open,False,
1700,open,False,,open,False,
1701,open,False,,open,False,
1702,open,False,,open,False,
1703,open,False,,open,False,
1704,open,False,,open,False,
1705,open,False,,open,False,
1706,open,False,,open,False,
1707,open,False,,open,False,
1708,open,False,,open,False,
1709,open,False,,open,False,
1710,open,False,,open,False,
1711,closed,False,,closed,False,
1712,opening,True,,closed,False,
1713,opening,False,,closed,False,
1714,closed,False,,closed,False,
1715,closed,False,,closed,False,
1716,closed,False,,closed,False,
1717,closed,False,,closed,False,
1718,closed,False,,closed,False,
1719,closed,False,,closed,False,
1720,closed,False,,closed,False,
1721,closed,False,,closed,False,
1722,closed,False,,closed,False,
1723,closed,False,,closed,False,
1724,closed,False,,closed,False,
1725,closed,False,,closed,False,
1726,opening,True,,closed,False,
1727,opening,False,1726,opening,True,1727
1728,open,False,,closing,False,
1729,open,False,,open,True,
1730,open,False,,closing,False,
1731,open,False,,open,True,
1732,open,False,,open,False,
1733,open,False,,open,False,
1734,open,False,,open,False,
1735,open,False,,open,False,
1736,open,False,,open,False,
1737,open,False,,open,False,
1738,open,False,,open,False,
1739,open,False,,open,False,
1740,open,False,,open,False,
1741,open,False,,open,False,
1742,open,False,,open,False,
1743,closing,False,,closing,False,
1744,closing,False,,opening,True,
1745,closing,False,,opening,False,
1746,open,True,1746,open,False,1744
1747,open,False,,open,False,
1748,open,False,,open,False,
1749,open,False,,open,False,
1750,open,False,,open,False,
1751,open,False,,open,False,
1752,open,False,,open,False,
1753,open,False,,open,False,
1754,open,False,,open,False,
1755,open,False,,open,False,
1756,open,False,,open,False,
1757,open,False,,open,False,
1758,open,False,,open,False,
1759,open,False,,open,False,
1760,open,False,,open,False,
1761,open,False,,open,False,
1762,open,False,,open,False,
1763,closed,False,,open,False,
1764,closed,False,,closing,False,
1765,closed,False,,opening,True,
1766,opening,True,1766,open,False,1765
1767,open,False,,open,False,
1768,open,False,,open,False,
1769,open,False,,open,False,
1770,open,False,,open,False,
1771,open,False,,open,False,
1772,open,False,,open,False,
1773,open,False,,open,False,
1774,open,False,,open,False,
1775,open,False,,open,False,
1776,open,False,,open,False,
1777,open,False,,open,False,
1778,open,False,,open,False,
1779,open,False,,open,False,
1780,open,False,,open,False,
1781,open,False,,open,False,
1782,open,False,,open,False,
1783,open,False,,open,False,
1784,open,False,,open,False,
1785,closing,False,,open,False,
1786,opening,True,,open,False,
1787,open,False,,open,False,
1788,open,False,,open,False,
1789,open,False,,open,False,
1790,open,False,,open,False,
1791,open,False,,open,False,
1792,open,False,,open,False,
1793,open,False,,open,False,
1794,open,False,,open,False,
1795,open,False,,open,False,
1796,open,False,,open,False,
1797,open,False,,open,False,
1798,open,False,,open,False,
1799,open,False,,open,False,
1800,open,False,,open,False,
1801,open,False,,open,False,
1802,open,False,,open,False,
1803,open,False,,open,False,
1804,open,False,,open,False,
1805,open,False,,open,False,
1806,open,False,,open,False,
1807,open,False,,open,False,
1808,open,False,,open,False,
1809,open,False,,open,False,
1810,open,False,,open,False,
1811,open,False,,open,False,
1812,closing,False,,open,False,
1813,open,True,,open,False,
1814,open,False,,open,False,
1815,open,False,,open,False,
1816,open,False,,open,False,
1817,open,False,,open,False,
1818,open,False,,open,False,
1819,open,False,,open,False,
1820,open,False,,open,False,
1821,open,False,,open,False,
1822,open,False,,open,False,
1823,open,False,,open,False,
1824,open,False,,open,False,
1825,open,False,,open,False,
1826,open,False,,open,False,
1827,open,False,,open,False,
1828,open,False,,open,False,
1829,open,False,,open,False,
1830,open,False,,open,False,
1831,open,False,,open,False,
1832,open,False,,open,False,
1833,open,False,,open,False,
1834,open,False,,open,False,
1835,open,False,,open,False,
1836,open,False,,open,False,
1837,open,False,,open,False,
1838,open,False,,open,False,
1839,open,False,,open,False,
1840,open,False,,open,False,
1841,open,False,,open,False,
1842,open,False,,open,False,
1843,open,False,,open,False,
1844,open,False,,open,False,
1845,open,False,,open,False,
1846,open,False,,open,False,
1847,open,False,,open,False,
1848,open,False,,open,False,
1849,open,False,,open,False,
1850,open,False,,open,False,
1851,open,False,,open,False,
1852,open,False,,open,False,
1853,open,False,,open,False,
1854,open,False,,closed,False,
1855,closed,False,,closed,False,
1856,closed,False,,closed,False,
1857,opening,True,,closed,False,
1858,closed,False,,closed,False,
1859,closed,False,,closed,False,
1860,opening,True,,closed,False,
1861,opening,False,,closed,False,
1862,closing,False,1860,opening,True,1862
1863,closing,False,,opening,False,
1864,open,True,,open,False,
1865,open,False,,open,False,
1866,open,False,,open,False,
1867,open,False,,open,False,
1868,open,False,,open,False,
1869,open,False,,open,False,
1870,open,False,,open,False,
1871,open,False,,open,False,
1872,open,False,,open,False,
1873,open,False,,open,False,
1874,open,False,,open,False,
1875,open,False,,open,False,
1876,open,False,,open,False,
1877,open,False,,open,False,
1878,open,False,,open,False,
1879,open,False,,open,False,
1880,open,False,,open,False,
1881,open,False,,open,False,
1882,open,False,,open,False,
1883,open,False,,open,False,
1884,open,False,,open,False,
1885,open,False,,open,False,
1886,open,False,,open,False,
1887,open,False,,open,False,
1888,open,False,,open,False,
1889,open,False,,open,False,
1890,open,False,,closed,False,
1891,open,False,,closed,False,
1892,closed,False,,closed,False,
1893,closed,False,,closed,False,
1894,opening,True,1894,opening,True,1894
1895,open,False,,opening,False,
1896,open,False,,open,False,
1897,open,False,,open,False,
1898,open,False,,open,False,
1899,open,False,,open,False,
1900,open,False,,open,False,
1901,open,False,,open,False,
1902,open,False,,open,False,
1903,open,False,,open,False,
1904,open,False,,open,False,
1905,open,False,,open,False,
1906,open,False,,open,False,
1907,closing,False,,open,False,
1908,closing,False,,closing,False,
1909,open,True,1909,opening,True,1909
1910,open,False,,open,False,
1911,open,False,,open,False,
1912,open,False,,open,False,
1913,open,False,,open,False,
1914,open,False,,open,False,
1915,open,False,,open,False,
1916,open,False,,open,False,
1917,open,False,,open,False,
1918,open,False,,open,False,
1919,open,False,,open,False,
1920,open,False,,closed,False,
1921,open,False,,closed,False,
1922,closing,False,,opening,True,
1923,opening,True,1923,opening,False,1922
1924,open,False,,opening,False,
1925,open,False,,closing,False,
1926,open,False,,open,True,
1927,open,False,,open,False,
1928,open,False,,open,False,
1929,open,False,,open,False,
1930,open,False,,open,False,
1931,open,False,,open,False,
1932,open,False,,open,False,
1933,open,False,,open,False,
1934,open,False,,open,False,
1935,open,False,,open,False,
1936,open,False,,open,False,
1937,open,False,,open,False,
1938,open,False,,open,False,
1939,open,False,,open,False,
1940,open,False,,open,False,
1941,open,False,,open,False,
1942,open,False,,open,False,
1943,open,False,,open,False,
1944,open,False,,open,False,
1945,open,False,,open,False,
1946,open,False,,open,False,
1947,open,False,,open,False,
1948,open,False,,open,False,
1949,open,False,,open,False,
1950,open,False,,open,False,
1951,open,False,,open,False,
1952,open,False,,open,False,
1953,open,False,,open,False,
1954,open,False,,open,False,
1955,open,False,,open,False,
1956,closing,False,,closing,False,
1957,open,True,1957,opening,True,1957
1958,open,False,,open,False,
1959,open,False,,open,False,
1960,open,False,,open,False,
1961,open,False,,open,False,
1962,open,False,,open,False,
1963,open,False,,open,False,
1964,open,False,,open,False,
1965,open,False,,open,False,
1966,open,False,,open,False,
1967,open,False,,open,False,
1968,closing,False,,closing,False,
1969,open,True,1969,open,True,1969
1970,open,False,,open,False,
1971,open,False,,open,False,
1972,open,False,,open,False,
1973,open,False,,open,False,
1974,open,False,,open,False,
1975,open,False,,open,False,
1976,open,False,,closing,False,
1977,closing,False,,closing,False,
1978,opening,True,1978,opening,True,1978
1979,open,False,,open,False,
1980,open,False,,open,False,
1981,open,False,,open,False,
1982,open,False,,open,False,
1983,open,False,,open,False,
1984,open,False,,open,False,
1985,open,False,,open,False,
1986,open,False,,open,False,
1987,open,False,,open,False,
1988,open,False,,open,False,
1989,open,False,,open,False,
1990,open,False,,open,False,
1991,open,False,,open,False,
1992,open,False,,open,False,
1993,open,False,,open,False,
1994,open,False,,closing,False,
1995,closing,False,,closing,False,
1996,open,True,1996,open,True,1996
1997,open,False,,open,False,
1998,open,False,,open,False,
1999,open,False,,open,False,
2000,open,False,,open,False,
2001,open,False,,open,False,
2002,open,False,,open,False,
2003,open,False,,open,False,
2004,open,False,,open,False,
2005,open,False,,open,False,
2006,open,False,,open,False,
2007,open,False,,open,False,
2008,open,False,,open,False,
2009,open,False,,open,False,
2010,open,False,,open,False,
2011,open,False,,open,False,
2012,open,False,,open,False,
2013,open,False,,open,False,
2014,open,False,,open,False,
2015,open,False,,open,False,
2016,open,False,,open,False,
2017,open,False,,open,False,
2018,open,False,,open,False,
2019,open,False,,open,False,
2020,open,False,,open,False,
2021,open,False,,open,False,
2022,open,False,,open,False,
2023,open,False,,open,False,
2024,open,False,,open,False,
2025,open,False,,open,False,
2026,open,False,,open,False,
2027,open,False,,open,False,
2028,open,False,,open,False,
2029,open,False,,open,False,
2030,closed,False,,closing,False,
2031,closed,False,,closing,False,
2032,open,True,2032,opening,True,2032
2033,open,False,,opening,False,
2034,open,False,,open,False,
2035,open,False,,open,False,
2036,open,False,,open,False,
2037,open,False,,open,False,
2038,open,False,,open,False,
2039,open,False,,open,False,
2040,open,False,,open,False,
2041,open,False,,open,False,
2042,open,False,,open,False,
2043,open,False,,open,False,
2044,open,False,,open,False,
2045,open,False,,open,False,
2046,open,False,,open,False,
2047,open,False,,open,False,
2048,closing,False,,closed,False,
2049,closing,False,,closed,False,
2050,open,True,2050,opening,True,2050
2051,open,False,,opening,False,
2052,open,False,,open,False,
2053,open,False,,open,False,
2054,open,False,,open,False,
2055,open,False,,open,False,
2056,open,False,,open,False,
2057,open,False,,open,False,
2058,open,False,,open,False,
2059,open,False,,open,False,
2060,open,False,,open,False,
2061,open,False,,open,False,
2062,open,False,,open,False,
2063,open,False,,open,False,
2064,open,False,,open,False,
2065,open,False,,open,False,
2066,open,False,,open,False,
2067,open,False,,open,False,
2068,open,False,,open,False,
2069,open,False,,open,False,
2070,open,False,,open,False,
2071,open,False,,open,False,
2072,open,False,,open,False,
2073,open,False,,open,False,
2074,open,False,,open,False,
2075,open,False,,open,False,
2076,open,False,,open,False,
2077,open,False,,open,False,
2078,open,False,,open,False,
2079,open,False,,open,False,
2080,open,False,,open,False,
2081,open,False,,open,False,
2082,open,False,,open,False,
2083,open,False,,open,False,
2084,open,False,,open,False,
2085,open,False,,open,False,
2086,open,False,,open,False,
2087,open,False,,open,False,
2088,open,False,,open,False,
2089,open,False,,open,False,
2090,open,False,,open,False,
2091,open,False,,open,False,
2092,open,False,,open,False,
2093,open,False,,open,False,
2094,open,False,,open,False,
2095,open,False,,open,False,
2096,open,False,,open,False,
2097,open,False,,open,False,
2098,open,False,,open,False,
2099,open,False,,open,False,
2100,open,False,,open,False,
2101,open,False,,open,False,
2102,open,False,,open,False,
2103,open,False,,open,False,
2104,open,False,,open,False,
2105,open,False,,open,False,
2106,open,False,,open,False,
2107,open,False,,open,False,
2108,open,False,,open,False,
2109,open,False,,open,False,
2110,open,False,,open,False,
2111,open,False,,open,False,
2112,open,False,,open,False,
2113,open,False,,open,False,
2114,open,False,,open,False,
2115,open,False,,open,False,
2116,open,False,,open,False,
2117,open,False,,closing,False,
2118,open,False,,open,True,
2119,open,False,,open,False,
2120,open,False,,open,False,
2121,open,False,,open,False,
2122,open,False,,open,False,
2123,open,False,,open,False,
2124,open,False,,open,False,
2125,open,False,,open,False,
2126,open,False,,open,False,
2127,open,False,,open,False,
2128,open,False,,open,False,
2129,open,False,,open,False,
2130,open,False,,open,False,
2131,open,False,,open,False,
2132,open,False,,open,False,
2133,open,False,,open,False,
2134,open,False,,open,False,
2135,open,False,,closing,False,
2136,open,False,,closing,False,
2137,open,False,,open,True,
2138,open,False,,open,False,
2139,open,False,,open,False,
2140,open,False,,open,False,
2141,open,False,,open,False,
2142,open,False,,open,False,
2143,open,False,,open,False,
2144,open,False,,open,False,
2145,open,False,,open,False,
2146,open,False,,open,False,
2147,open,False,,closing,False,
2148,open,False,,closing,False,
2149,open,False,,open,True,
2150,open,False,,open,False,
2151,open,False,,open,False,
2152,open,False,,open,False,
2153,open,False,,open,False,
2154,open,False,,open,False,
2155,open,False,,open,False,
2156,open,False,,open,False,
2157,open,False,,open,False,
2158,open,False,,open,False,
2159,open,False,,open,False,
2160,open,False,,closing,False,
2161,closing,False,,closing,False,
2162,open,True,2162,open,True,2162
2163,open,False,,open,False,
2164,open,False,,open,False,
2165,open,False,,open,False,
2166,open,False,,open,False,
2167,open,False,,open,False,
2168,open,False,,open,False,
2169,open,False,,open,False,
2170,open,False,,open,False,
2171,open,False,,open,False,
2172,open,False,,open,False,
2173,open,False,,open,False,
2174,open,False,,open,False,
2175,open,False,,open,False,
2176,open,False,,open,False,
2177,open,False,,open,False,
2178,open,False,,open,False,
2179,open,False,,open,False,
2180,open,False,,open,False,
2181,open,False,,open,False,
2182,open,False,,open,False,
2183,open,False,,open,False,
2184,open,False,,open,False,
2185,open,False,,open,False,
2186,open,False,,open,False,
2187,open,False,,open,False,
2188,open,False,,open,False,
2189,open,False,,open,False,
2190,open,False,,open,False,
2191,open,False,,closed,False,
2192,open,False,,opening,True,
2193,open,False,,closed,False,
2194,open,False,,opening,True,
2195,closing,False,,opening,False,
2196,closing,False,,open,False,
2197,open,True,2197,open,False,2194
2198,open,False,,open,False,
2199,open,False,,open,False,
2200,open,False,,open,False,
2201,open,False,,open,False,
2202,open,False,,open,False,
2203,open,False,,open,False,
2204,open,False,,open,False,
2205,open,False,,open,False,
2206,open,False,,open,False,
2207,open,False,,open,False,
2208,open,False,,open,False,
2209,open,False,,open,False,
2210,open,False,,open,False,
2211,open,False,,open,False,
2212,open,False,,open,False,
2213,open,False,,open,False,
2214,open,False,,open,False,
2215,open,False,,open,False,
2216,open,False,,open,False,
2217,open,False,,open,False,
2218,open,False,,open,False,
2219,open,False,,open,False,
2220,open,False,,open,False,
2221,open,False,,open,False,
2222,open,False,,open,False,
2223,closing,False,,closing,False,
2224,closing,False,,opening,True,
2225,closing,False,,open,False,
2226,closing,False,,open,False,
2227,open,True,2227,open,False,2224
2228,open,False,,open,False,
2229,open,False,,open,False,
2230,open,False,,open,False,
2231,open,False,,open,False,
2232,open,False,,closing,False,
2233,open,False,,opening,True,
2234,open,False,,opening,False,
2235,open,False,,open,False,
2236,open,False,,open,False,
2237,open,False,,open,False,
2238,open,False,,open,False,
2239,open,False,,open,False,
2240,open,False,,open,False,
2241,open,False,,open,False,
2242,open,False,,open,False,
2243,open,False,,open,False,
2244,open,False,,open,False,
2245,open,False,,open,False,
2246,open,False,,open,False,
2247,open,False,,open,False,
2248,open,False,,open,False,
2249,open,False,,open,False,
2250,open,False,,open,False,
2251,open,False,,open,False,
2252,open,False,,open,False,
2253,open,False,,open,False,
2254,open,False,,open,False,
2255,open,False,,open,False,
2256,open,False,,open,False,
2257,open,False,,open,False,
2258,open,False,,open,False,
2259,closing,False,,open,False,
2260,open,True,,open,False,
2261,open,False,,open,False,
2262,open,False,,open,False,
2263,open,False,,open,False,
2264,open,False,,open,False,
2265,open,False,,open,False,
2266,open,False,,open,False,
2267,open,False,,open,False,
2268,open,False,,open,False,
2269,open,False,,open,False,
2270,open,False,,open,False,
2271,open,False,,open,False,
2272,open,False,,open,False,
2273,open,False,,open,False,
2274,open,False,,open,False,
2275,open,False,,open,False,
2276,open,False,,open,False,
2277,open,False,,open,False,
2278,open,False,,open,False,
2279,open,False,,open,False,
2280,closing,False,,open,False,
2281,open,True,,open,False,
2282,open,False,,open,False,
2283,open,False,,open,False,
2284,open,False,,open,False,
2285,open,False,,open,False,
2286,open,False,,open,False,
2287,open,False,,open,False,
2288,open,False,,open,False,
2289,open,False,,open,False,
2290,open,False,,open,False,
2291,open,False,,open,False,
2292,open,False,,open,False,
2293,open,False,,open,False,
2294,open,False,,open,False,
2295,closing,False,,open,False,
2296,closing,False,,open,False,
2297,closing,False,,open,False,
2298,closing,False,,open,False,
2299,open,True,,open,False,
2300,open,False,,open,False,
2301,open,False,,open,False,
2302,open,False,,open,False,
2303,open,False,,open,False,
2304,open,False,,closed,False,
2305,open,False,,closed,False,
2306,open,False,,closed,False,
2307,open,False,,closed,False,
2308,closed,False,,opening,True,
2309,closed,False,,opening,False,
2310,opening,True,2310,closing,False,2308
2311,opening,False,,open,True,
2312,open,False,,open,False,
2313,open,False,,open,False,
2314,open,False,,open,False,
2315,open,False,,open,False,
2316,open,False,,open,False,
2317,open,False,,open,False,
2318,open,False,,open,False,
2319,open,False,,open,False,
2320,open,False,,open,False,
2321,open,False,,open,False,
2322,open,False,,open,False,
2323,open,False,,open,False,
2324,open,False,,open,False,
2325,open,False,,open,False,
2326,open,False,,open,False,
2327,open,False,,open,False,
2328,open,False,,open,False,
2329,open,False,,open,False,
2330,open,False,,open,False,
2331,open,False,,open,False,
2332,open,False,,open,False,
2333,open,False,,open,False,
2334,open,False,,open,False,
2335,open,False,,open,False,
2336,open,False,,open,False,
2337,open,False,,open,False,
2338,open,False,,open,False,
2339,open,False,,open,False,
2340,open,False,,open,False,
2341,open,False,,open,False,
2342,open,False,,open,False,
2343,open,False,,open,False,
2344,open,False,,open,False,
2345,open,False,,open,False,
2346,open,False,,open,False,
2347,open,False,,open,False,
2348,open,False,,closing,False,
2349,closing,False,,opening,True,
2350,open,True,2350,opening,False,2349
2351,open,False,,open,False,
2352,open,False,,open,False,
2353,open,False,,open,False,
2354,open,False,,open,False,
2355,open,False,,open,False,
2356,open,False,,open,False,
2357,open,False,,open,False,
2358,open,False,,open,False,
2359,open,False,,open,False,
2360,open,False,,open,False,
2361,open,False,,open,False,
2362,open,False,,open,False,
2363,closed,False,,closed,False,
2364,opening,True,,closed,False,
2365,opening,False,,closed,False,
2366,opening,False,,closed,False,
2367,closing,False,2364,opening,True,2367
2368,open,True,,open,False,
2369,open,False,,open,False,
2370,open,False,,open,False,
2371,open,False,,open,False,
2372,open,False,,open,False,
2373,open,False,,open,False,
2374,open,False,,open,False,
2375,open,False,,open,False,
2376,open,False,,open,False,
2377,open,False,,open,False,
2378,open,False,,open,False,
2379,open,False,,open,False,
2380,open,False,,open,False,
2381,open,False,,open,False,
2382,open,False,,open,False,
2383,open,False,,open,False,
2384,open,False,,open,False,
2385,open,False,,open,False,
2386,open,False,,open,False,
2387,open,False,,open,False,
2388,open,False,,open,False,
2389,open,False,,open,False,
2390,open,False,,open,False,
2391,open,False,,open,False,
2392,open,False,,open,False,
2393,open,False,,open,False,
2394,open,False,,open,False,
2395,open,False,,open,False,
2396,open,False,,open,False,
2397,open,False,,open,False,
2398,open,False,,open,False,
2399,open,False,,open,False,
2400,open,False,,open,False,
2401,open,False,,open,False,
2402,open,False,,open,False,
2403,open,False,,open,False,
2404,open,False,,open,False,
2405,open,False,,open,False,
2406,open,False,,open,False,
2407,open,False,,closed,False,
2408,open,False,,opening,True,
2409,open,False,,opening,False,
2410,closing,False,,open,False,
2411,open,True,2411,open,False,2408
2412,open,False,,open,False,
2413,open,False,,open,False,
2414,open,False,,open,False,
2415,open,False,,open,False,
2416,open,False,,open,False,
2417,open,False,,open,False,
2418,open,False,,open,False,
2419,open,False,,open,False,
2420,open,False,,open,False,
2421,open,False,,open,False,
2422,open,False,,open,False,
2423,open,False,,open,False,
2424,open,False,,open,False,
2425,open,False,,open,False,
2426,open,False,,open,False,
2427,open,False,,open,False,
2428,open,False,,open,False,
2429,open,False,,open,False,
2430,open,False,,open,False,
2431,open,False,,open,False,
2432,open,False,,open,False,
2433,open,False,,open,False,
2434,open,False,,closed,False,
2435,open,False,,closed,False,
2436,open,False,,closed,False,
2437,closed,False,,closed,False,
2438,opening,True,2438,opening,True,2438
2439,opening,False,,opening,False,
2440,closed,False,,closed,False,
2441,opening,True,,closed,False,
2442,opening,False,,closed,False,
2443,closed,False,,closed,False,
2444,closed,False,,closed,False,
2445,closed,False,,closed,False,
2446,closed,False,,closed,False,
2447,closed,False,,closed,False,
2448,opening,True,,closed,False,
2449,opening,False,2448,opening,True,2449
2450,closed,False,,opening,False,
2451,closed,False,,closed,False,
2452,opening,True,2452,opening,True,2452
2453,opening,False,,closed,False,
2454,closed,False,,opening,True,
2455,opening,True,2455,opening,False,2454
2456,closed,False,,opening,False,
2457,closed,False,,closed,False,
2458,closed,False,,closed,False,
2459,closed,False,,closed,False,
2460,closed,False,,closed,False,
2461,opening,True,,closed,False,
2462,opening,False,2461,opening,True,2462
2463,closed,False,,opening,False,
2464,opening,True,,closed,False,
2465,opening,False,,closed,False,
2466,opening,False,2464,opening,True,2466
2467,opening,False,,opening,False,
2468,opening,False,,opening,False,
2469,opening,False,,opening,False,
2470,closing,False,,closing,False,
2471,opening,True,2471,opening,True,2471
2472,closing,False,,opening,False,
2473,closing,False,,open,False,
2474,open,True,,open,False,
2475,open,False,,open,False,
2476,open,False,,open,False,
2477,open,False,,open,False,
2478,open,False,,open,False,
2479,open,False,,open,False,
2480,open,False,,open,False,
2481,closing,False,,open,False,
2482,open,True,,open,False,
2483,open,False,,open,False,
2484,open,False,,open,False,
2485,open,False,,open,False,
2486,open,False,,open,False,
2487,open,False,,open,False,
2488,open,False,,open,False,
2489,open,False,,open,False,
2490,open,False,,open,False,
2491,open,False,,open,False,
2492,open,False,,open,False,
2493,open,False,,open,False,
2494,open,False,,open,False,
2495,open,False,,open,False,
2496,open,False,,open,False,
2497,open,False,,open,False,
2498,open,False,,open,False,
2499,open,False,,open,False,
2500,open,False,,open,False,
2501,open,False,,open,False,
2502,open,False,,open,False,
2503,open,False,,open,False,
2504,open,False,,open,False,
2505,open,False,,open,False,
2506,open,False,,open,False,
2507,open,False,,open,False,
2508,open,False,,open,False,
2509,open,False,,open,False,
2510,open,False,,open,False,
2511,closing,False,,open,False,
2512,closing,False,,open,False,
2513,open,True,,open,False,
2514,open,False,,open,False,
2515,open,False,,open,False,
2516,open,False,,open,False,
2517,open,False,,open,False,
2518,open,False,,open,False,
2519,open,False,,open,False,
2520,open,False,,open,False,
2521,open,False,,open,False,
2522,open,False,,open,False,
2523,closing,False,,open,False,
2524,closing,False,,open,False,
2525,open,True,,open,False,
2526,open,False,,open,False,
2527,open,False,,open,False,
2528,open,False,,open,False,
2529,open,False,,open,False,
2530,open,False,,open,False,
2531,open,False,,open,False,
2532,open,False,,open,False,
2533,closed,False,,closed,False,
2534,opening,True,,closed,False,
2535,opening,False,2534,opening,True,2535
2536,closing,False,,open,False,
2537,open,True,,open,False,
2538,open,False,,open,False,
2539,open,False,,open,False,
2540,open,False,,open,False,
2541,open,False,,open,False,
2542,open,False,,open,False,
2543,open,False,,open,False,
2544,open,False,,open,False,
2545,open,False,,open,False,
2546,open,False,,open,False,
2547,open,False,,open,False,
2548,open,False,,open,False,
2549,open,False,,open,False,
2550,open,False,,open,False,
2551,open,False,,open,False,
2552,open,False,,open,False,
2553,open,False,,open,False,
2554,open,False,,open,False,
2555,open,False,,open,False,
2556,open,False,,open,False,
2557,open,False,,open,False,
2558,open,False,,open,False,
2559,open,False,,open,False,
2560,open,False,,open,False,
2561,open,False,,open,False,
2562,open,False,,open,False,
2563,open,False,,open,False,
2564,open,False,,open,False,
2565,open,False,,open,False,
2566,open,False,,open,False,
2567,open,False,,closed,False,
2568,open,False,,closed,False,
2569,open,False,,closed,False,
2570,open,False,,closed,False,
2571,open,False,,closed,False,
2572,closed,False,,closed,False,
2573,closed,False,,closed,False,
2574,closed,False,,opening,True,
2575,closed,False,,closing,False,
2576,closed,False,,open,True,
2577,closed,False,,open,False,
2578,open,True,2578,open,False,2576
2579,open,False,,open,False,
2580,open,False,,open,False,
2581,open,False,,open,False,
2582,open,False,,open,False,
2583,open,False,,open,False,
2584,open,False,,open,False,
2585,open,False,,open,False,
2586,open,False,,open,False,
2587,open,False,,open,False,
2588,open,False,,open,False,
2589,open,False,,open,False,
2590,open,False,,open,False,
2591,open,False,,open,False,
2592,open,False,,open,False,
2593,open,False,,open,False,
2594,open,False,,open,False,
2595,open,False,,open,False,
2596,open,False,,open,False,
2597,open,False,,open,False,
2598,open,False,,open,False,
2599,open,False,,open,False,
2600,open,False,,open,False,
2601,open,False,,open,False,
2602,open,False,,open,False,
2603,open,False,,open,False,
2604,open,False,,open,False,
2605,open,False,,open,False,
2606,open,False,,open,False,
2607,open,False,,open,False,
2608,open,False,,open,False,
2609,open,False,,open,False,
2610,open,False,,open,False,
2611,open,False,,open,False,
2612,open,False,,open,False,
2613,open,False,,open,False,
2614,open,False,,open,False,
2615,open,False,,open,False,
2616,open,False,,open,False,
2617,open,False,,open,False,
2618,closing,False,,open,False,
2619,closing,False,,closing,False,
2620,closing,False,,open,True,
2621,open,True,2621,open,False,2620
2622,open,False,,open,False,
2623,open,False,,open,False,
2624,open,False,,open,False,
2625,open,False,,open,False,
2626,open,False,,open,False,
2627,open,False,,open,False,
2628,open,False,,open,False,
2629,closing,False,,open,False,
2630,open,True,,open,False,
2631,open,False,,open,False,
2632,open,False,,open,False,
2633,open,False,,open,False,
2634,open,False,,open,False,
2635,open,False,,open,False,
2636,open,False,,open,False,
2637,open,False,,open,False,
2638,open,False,,open,False,
2639,open,False,,closing,False,
2640,closing,False,,closing,False,
2641,open,True,2641,open,True,2641
2642,open,False,,open,False,
2643,open,False,,open,False,
2644,open,False,,open,False,
2645,open,False,,open,False,
2646,open,False,,open,False,
2647,open,False,,open,False,
2648,open,False,,open,False,
2649,open,False,,open,False,
2650,open,False,,open,False,
2651,open,False,,open,False,
2652,open,False,,open,False,
2653,open,False,,open,False,
2654,closing,False,,open,False,
2655,opening,True,,open,False,
2656,closing,False,,open,False,
2657,open,True,,open,False,
2658,open,False,,open,False,
2659,open,False,,open,False,
2660,open,False,,open,False,
2661,open,False,,open,False,
2662,open,False,,open,False,
2663,open,False,,open,False,
2664,open,False,,open,False,
2665,open,False,,open,False,
2666,open,False,,open,False,
2667,open,False,,open,False,
2668,open,False,,closed,False,
2669,open,False,,closed,False,
2670,open,False,,opening,True,
2671,open,False,,opening,False,
2672,open,False,,closed,False,
2673,open,False,,closed,False,
2674,closed,False,,closed,False,
2675,opening,True,,closed,False,
2676,opening,False,,closed,False,
2677,opening,False,,closed,False,
2678,closed,False,,closed,False,
2679,opening,True,,closed,False,
2680,opening,False,2679,opening,True,2680
2681,opening,False,,opening,False,
2682,opening,False,,opening,False,
2683,closing,False,,opening,False,
2684,open,True,,open,False,
2685,open,False,,open,False,
2686,open,False,,open,False,
2687,open,False,,open,False,
2688,open,False,,open,False,
2689,open,False,,open,False,
2690,open,False,,open,False,
2691,open,False,,open,False,
2692,open,False,,open,False,
2693,open,False,,open,False,
2694,open,False,,open,False,
2695,open,False,,open,False,
2696,open,False,,open,False,
2697,open,False,,open,False,
2698,open,False,,open,False,
2699,open,False,,open,False,
2700,open,False,,open,False,
2701,open,False,,open,False,
2702,open,False,,closed,False,
2703,closing,False,,opening,True,
2704,opening,True,2704,closing,False,2703
2705,open,False,,open,True,
2706,open,False,,open,False,
2707,open,False,,open,False,
2708,open,False,,open,False,
2709,open,False,,open,False,
2710,open,False,,open,False,
2711,open,False,,open,False,
2712,open,False,,open,False,
2713,open,False,,open,False,
2714,open,False,,open,False,
2715,open,False,,open,False,
2716,open,False,,open,False,
2717,open,False,,open,False,
2718,open,False,,open,False,
2719,open,False,,open,False,
2720,open,False,,open,False,
2721,open,False,,open,False,
2722,open,False,,open,False,
2723,open,False,,open,False,
2724,open,False,,open,False,
2725,open,False,,open,False,
2726,open,False,,open,False,
2727,open,False,,open,False,
2728,open,False,,open,False,
2729,open,False,,open,False,
2730,open,False,,open,False,
2731,open,False,,open,False,
2732,open,False,,open,False,
2733,open,False,,open,False,
2734,open,False,,open,False,
2735,open,False,,open,False,
2736,open,False,,open,False,
2737,open,False,,open,False,
2738,open,False,,open,False,
2739,open,False,,open,False,
2740,open,False,,open,False,
2741,open,False,,open,False,
2742,open,False,,open,False,
2743,open,False,,open,False,
2744,open,False,,open,False,
2745,open,False,,open,False,
2746,open,False,,open,False,
2747,open,False,,open,False,
2748,open,False,,open,False,
2749,open,False,,open,False,
2750,open,False,,open,False,
2751,open,False,,open,False,
2752,open,False,,open,False,
2753,open,False,,open,False,
2754,open,False,,open,False,
2755,open,False,,open,False,
2756,open,False,,open,False,
2757,open,False,,open,False,
2758,open,False,,open,False,
2759,open,False,,open,False,
2760,open,False,,open,False,
2761,open,False,,open,False,
2762,open,False,,open,False,
2763,open,False,,open,False,
2764,open,False,,open,False,
2765,open,False,,open,False,
2766,open,False,,open,False,
2767,open,False,,open,False,
2768,open,False,,open,False,
2769,open,False,,open,False,
2770,closing,False,,closing,False,
2771,opening,True,2771,opening,True,2771
2772,opening,False,,opening,False,
2773,opening,False,,opening,False,
2774,opening,False,,closed,False,
2775,closing,False,,opening,True,
2776,open,True,2776,closing,False,2775
2777,open,False,,open,True,
2778,open,False,,open,False,
2779,open,False,,open,False,
2780,open,False,,open,False,
2781,open,False,,open,False,
2782,open,False,,open,False,
2783,open,False,,open,False,
2784,open,False,,open,False,
2785,open,False,,open,False,
2786,open,False,,open,False,
2787,open,False,,open,False,
2788,open,False,,open,False,
2789,open,False,,open,False,
2790,open,False,,open,False,
2791,open,False,,open,False,
2792,open,False,,open,False,
2793,open,False,,open,False,
2794,open,False,,open,False,
2795,open,False,,open,False,
2796,open,False,,open,False,
2797,open,False,,open,False,
2798,open,False,,open,False,
2799,open,False,,open,False,
2800,open,False,,open,False,
2801,open,False,,open,False,
2802,open,False,,open,False,
2803,open,False,,open,False,
2804,open,False,,open,False,
2805,open,False,,open,False,
2806,open,False,,open,False,
2807,open,False,,open,False,
2808,open,False,,open,False,
2809,open,False,,open,False,
2810,open,False,,open,False,
2811,open,False,,open,False,
2812,open,False,,open,False,
2813,open,False,,open,False,
2814,open,False,,open,False,
2815,open,False,,open,False,
2816,open,False,,open,False,
2817,open,False,,open,False,
2818,open,False,,open,False,
2819,open,False,,open,False,
2820,open,False,,open,False,
2821,open,False,,open,False,
2822,open,False,,open,False,
2823,open,False,,open,False,
2824,open,False,,open,False,
2825,open,False,,open,False,
2826,open,False,,open,False,
2827,open,False,,open,False,
2828,open,False,,open,False,
2829,open,False,,open,False,
2830,open,False,,open,False,
2831,open,False,,open,False,
2832,open,False,,open,False,
2833,open,False,,open,False,
2834,open,False,,open,False,
2835,open,False,,open,False,
2836,open,False,,open,False,
2837,open,False,,open,False,
2838,open,False,,open,False,
2839,open,False,,open,False,
2840,open,False,,open,False,
2841,open,False,,closing,False,
2842,open,False,,closing,False,
2843,open,False,,closing,False,
2844,open,False,,open,True,
2845,open,False,,open,False,
2846,open,False,,open,False,
2847,open,False,,open,False,
2848,open,False,,open,False,
2849,open,False,,open,False,
2850,open,False,,open,False,
2851,open,False,,open,False,
2852,open,False,,closing,False,
2853,open,False,,opening,True,
2854,open,False,,closing,False,
2855,open,False,,open,True,
2856,open,False,,open,False,
2857,open,False,,open,False,
2858,open,False,,open,False,
2859,open,False,,open,False,
2860,open,False,,open,False,
2861,open,False,,open,False,
2862,open,False,,open,False,
2863,open,False,,open,False,
2864,open,False,,open,False,
2865,open,False,,open,False,
2866,open,False,,open,False,
2867,open,False,,open,False,
2868,open,False,,open,False,
2869,open,False,,open,False,
2870,open,False,,open,False,
2871,open,False,,open,False,
2872,open,False,,open,False,
2873,open,False,,open,False,
2874,open,False,,open,False,
2875,open,False,,open,False,
2876,open,False,,open,False,
2877,open,False,,open,False,
2878,open,False,,open,False,
2879,open,False,,open,False,
2880,open,False,,open,False,
2881,open,False,,open,False,
2882,open,False,,open,False,
2883,open,False,,open,False,
2884,open,False,,open,False,
2885,open,False,,open,False,
2886,open,False,,open,False,
2887,open,False,,open,False,
2888,open,False,,open,False,
2889,open,False,,open,False,
2890,open,False,,open,False,
2891,open,False,,closing,False,
2892,open,False,,closing,False,
2893,open,False,,opening,True,
2894,open,False,,open,False,
2895,open,False,,open,False,
2896,open,False,,open,False,
2897,open,False,,open,False,
2898,open,False,,open,False,
2899,open,False,,open,False,
2900,open,False,,open,False,
2901,open,False,,open,False,
2902,open,False,,open,False,
2903,open,False,,open,False,
2904,open,False,,open,False,
2905,open,False,,open,False,
2906,open,False,,open,False,
2907,open,False,,open,False,
2908,open,False,,open,False,
2909,open,False,,open,False,
2910,open,False,,open,False,
2911,open,False,,open,False,
2912,open,False,,open,False,
2913,closing,False,,closing,False,
2914,closing,False,,open,True,
2915,open,True,2915,open,False,2914
2916,open,False,,open,False,
2917,open,False,,open,False,
2918,open,False,,open,False,
2919,open,False,,open,False,
2920,open,False,,open,False,
2921,open,False,,open,False,
2922,open,False,,open,False,
2923,open,False,,open,False,
2924,open,False,,open,False,
2925,open,False,,open,False,
2926,open,False,,open,False,
2927,open,False,,open,False,
2928,open,False,,open,False,
2929,open,False,,open,False,
2930,open,False,,open,False,
2931,open,False,,open,False,
2932,open,False,,open,False,
2933,open,False,,open,False,
2934,open,False,,open,False,
2935,closing,False,,open,False,
2936,opening,True,,open,False,
2937,closing,False,,open,False,
2938,closing,False,,open,False,
2939,open,True,,open,False,
2940,open,False,,open,False,
2941,open,False,,open,False,
2942,open,False,,open,False,
2943,open,False,,open,False,
2944,open,False,,open,False,
2945,open,False,,open,False,
2946,open,False,,open,False,
2947,open,False,,open,False,
2948,open,False,,open,False,
2949,open,False,,open,False,
2950,open,False,,open,False,
2951,open,False,,open,False,
2952,open,False,,open,False,
2953,open,False,,open,False,
2954,open,False,,open,False,
2955,open,False,,open,False,
2956,open,False,,open,False,
2957,open,False,,open,False,
2958,open,False,,open,False,
2959,open,False,,open,False,
2960,open,False,,open,False,
2961,open,False,,open,False,
2962,open,False,,open,False,
2963,open,False,,open,False,
2964,open,False,,open,False,
2965,open,False,,open,False,
2966,open,False,,open,False,
2967,open,False,,open,False,
2968,open,False,,open,False,
2969,open,False,,open,False,
2970,open,False,,open,False,
2971,closing,False,,closing,False,
2972,opening,True,2972,opening,True,2972
2973,closing,False,,opening,False,
2974,open,True,,opening,False,
2975,open,False,,open,False,
2976,open,False,,open,False,
2977,open,False,,open,False,
2978,open,False,,open,False,
2979,open,False,,open,False,
2980,open,False,,open,False,
2981,open,False,,open,False,
2982,open,False,,open,False,
2983,open,False,,open,False,
2984,open,False,,open,False,
2985,open,False,,open,False,
2986,open,False,,open,False,
2987,open,False,,open,False,
2988,closing,False,,closing,False,
2989,closing,False,,opening,True,
2990,open,True,2990,open,False,2989
2991,open,False,,open,False,
2992,open,False,,open,False,
2993,open,False,,open,False,
2994,open,False,,open,False,
2995,open,False,,open,False,
2996,open,False,,open,False,
2997,open,False,,open,False,
2998,open,False,,open,False,
2999,open,False,,open,False,
3000,open,False,,open,False,
