Frame,LE area,Closed/Open?,State,RE area,Closed/Open?,State
1,0.6903010033444816,,,0.7972665148063781,,
2,0.808695652173913,1,,0.8762338648443432,1,
3,0.3906354515050167,,,0.4548215641609719,,
4,0.15719063545150502,,,0.22627182991647685,,
5,0.1197324414715719,0,,0.18147304479878512,0,
6,0.34782608695652173,,,0.428246013667426,,
7,0.4903010033444816,,,0.5383447228549735,,
8,0.4903010033444816,,,0.568716780561883,,
9,0.6575250836120401,,,0.7122247532270312,,
10,0.6729096989966555,,,0.7782839787395596,,
11,0.691638795986622,,,0.8253606681852695,1,
12,0.7157190635451505,,,0.7965072133637054,0,
13,0.7438127090301003,1,,0.8018223234624146,1,
14,0.6535117056856188,,,0.7577828397873956,,
15,0.27692307692307694,,,0.2748671222475323,,
16,0.19531772575250836,,,0.19362186788154898,,
17,0.12508361204013377,0,,0.14502657555049356,0,
18,0.18929765886287625,,,0.23234624145785876,,
19,0.328428093645485,,,0.3826879271070615,,
20,0.3585284280936455,,,0.4138192862566439,,
21,0.42207357859531774,,,0.43887623386484437,,
22,0.45484949832775917,,,0.47228549734244496,,
23,0.4816053511705686,,,0.5170842824601367,1,
24,0.5217391304347826,1,,0.49582384206529995,0,
25,0.48762541806020065,0,,0.5056947608200456,,
26,0.5377926421404682,,,0.5634016704631739,,
27,0.5531772575250836,1,,0.5793470007593015,1,
28,0.5016722408026756,,,0.5375854214123007,,
29,0.4842809364548495,0,,0.5201214882308276,0,
30,0.5110367892976588,1,,0.5497342444950646,1,
31,0.4842809364548495,0,,0.5459377372817008,0,
32,0.5471571906354515,1,,0.5626423690205011,1,
33,0.49297658862876254,,,0.45785876993166286,0,
34,0.4802675585284281,,,0.49658314350797267,1,
35,0.35719063545150503,,,0.3917995444191344,,
36,0.06822742474916388,,,0.031131359149582385,0,
37,0.05351170568561873,0,,0.053910402429764616,,
38,0.0782608695652174,,,0.09339407744874716,,
39,0.2602006688963211,,,0.24297646165527714,,
40,0.442809364548495,1,,0.4160971905846621,1,
41,0.4013377926421405,0,,0.40015186028853456,0,
42,0.4802675585284281,,,0.4730447987851177,,
43,0.5391304347826087,,,0.5861807137433561,1,
44,0.5518394648829431,,,0.5603644646924829,0,
45,0.5525083612040134,,,0.5945330296127562,,
46,0.577257525083612,1,,0.6514806378132119,1,
47,0.5591973244147157,0,,0.6142748671222475,0,
48,0.5705685618729097,1,,0.6507213363705391,1,
49,0.5692307692307692,0,,0.6438876233864844,0,
50,0.5812709030100335,,,0.659832953682612,,
51,0.6020066889632107,,,0.6856492027334852,,
52,0.6876254180602007,1,,0.7304479878511769,1,
53,0.6581939799331104,0,,0.7046317388003037,,
54,0.6655518394648829,1,,0.6704631738800304,0,
55,0.662876254180602,0,,0.7228549734244495,,
56,0.6842809364548496,1,,0.7463933181473045,1,
57,0.642809364548495,0,,0.7327258921791951,0,
58,0.6702341137123746,1,,0.7334851936218679,1,
59,0.5933110367892976,,,0.6264236902050114,,
60,0.25217391304347825,,,0.2953682611996963,0,
61,0.25016722408026754,0,,0.3128321943811693,,
62,0.3063545150501672,,,0.4123006833712984,,
63,0.46220735785953176,,,0.6378132118451025,,
64,0.5130434782608696,,,0.6902050113895216,,
65,0.5250836120401338,,,0.7023538344722855,,
66,0.5732441471571906,,,0.768413059984814,,
67,0.788628762541806,1,,1.0,1,
68,0.768561872909699,0,,0.9263477600607442,0,
69,0.8147157190635451,1,,0.9476082004555809,1,
70,0.6374581939799331,0,,0.7714502657555049,0,
71,0.6548494983277592,,,0.812452543659833,,
72,0.6936454849498328,,,0.8208048595292331,,
73,0.7010033444816054,,,0.8549734244495064,,
74,0.8441471571906355,1,,0.9514047076689446,,
75,0.811371237458194,,,0.9757023538344722,1,
76,0.802675585284281,,,0.9073652239939256,,
77,0.777257525083612,,,0.8625664388762339,,
78,0.7377926421404682,0,,0.7744874715261959,0,
79,0.7946488294314381,1,,0.7835990888382688,1,
80,0.7625418060200669,,,0.7395596051632498,,
81,0.7591973244147158,,,0.7091875474563402,,
82,0.7418060200668897,,,0.662870159453303,,
83,0.6742474916387959,,,0.6082004555808656,,
84,0.559866220735786,,,0.49658314350797267,,
85,0.3177257525083612,,,0.25664388762338647,,
86,0.15585284280936454,,,0.14350797266514806,,
87,0.1411371237458194,0,,0.12452543659832954,0,
88,0.2408026755852843,,,0.255125284738041,,
89,0.39531772575250834,,,0.381169324221716,,
90,0.46220735785953176,,,0.49506454062262717,,
91,0.5244147157190635,,,0.5391040242976461,,
92,0.6709030100334448,,,0.6902050113895216,,
93,0.6996655518394649,,,0.7319665907365224,,
94,0.737123745819398,,,0.7608200455580866,,
95,0.7632107023411371,1,,0.7646165527714502,,
96,0.7210702341137124,,,0.7661351556567958,1,
97,0.6454849498327759,0,,0.7236142748671223,0,
98,0.696989966555184,,,0.7646165527714502,,
99,0.7217391304347827,1,,0.8238420652999241,1,
100,0.6775919732441471,,,0.7486712224753227,,
101,0.5625418060200669,,,0.6089597570235383,,
102,0.09431438127090301,,,0.12984054669703873,,
103,0.05016722408026756,0,,0.08200455580865604,0,
104,0.0903010033444816,,,0.10402429764616553,,
105,0.3130434782608696,,,0.34851936218678814,1,
106,0.3183946488294314,,,0.2900531511009871,0,
107,0.41270903010033444,,,0.4548215641609719,,
108,0.5966555183946488,,,0.6347760060744115,,
109,0.611371237458194,1,,0.6446469248291572,,
110,0.5973244147157191,0,,0.6605922551252847,,
111,0.6060200668896321,,,0.7585421412300684,,
112,0.6615384615384615,1,,0.835990888382688,1,
113,0.6167224080267558,,,0.8253606681852695,,
114,0.568561872909699,0,,0.7441154138192863,0,
115,0.6809364548494983,1,,0.8420652999240699,,
116,0.6541806020066889,0,,0.8496583143507973,,
117,0.6762541806020067,,,0.8496583143507973,,
118,0.7250836120401338,1,,0.8458618071374335,,
119,0.711705685618729,,,0.7873955960516325,,
120,0.6675585284280936,,,0.7319665907365224,,
121,0.6575250836120401,,,0.715261958997722,,
122,0.5404682274247492,,,0.5406226271829917,,
123,0.4020066889632107,0,,0.4214123006833713,0,
124,0.43277591973244145,,,0.4290053151100987,,
125,0.537123745819398,,,0.5474563401670464,,
126,0.5645484949832776,,,0.5550493545937737,,
127,0.6983277591973244,,,0.6575550493545937,,
128,0.7331103678929766,,,0.7091875474563402,,
129,0.8080267558528428,1,,0.7365223993925588,1,
130,0.6742474916387959,,,0.6605922551252847,,
131,0.3765886287625418,,,0.3249810174639332,,
132,0.26755852842809363,,,0.16932422171602127,0,
133,0.23076923076923078,0,,0.2270311313591496,,
134,0.31906354515050167,,,0.2953682611996963,,
135,0.42274247491638794,,,0.38876233864844345,,
136,0.5565217391304348,,,0.5459377372817008,,
137,0.6434782608695652,,,0.6461655277145026,,
138,0.6662207357859532,,,0.6552771450265755,,
139,0.7110367892976589,,,0.7760060744115413,,
140,0.7197324414715719,1,,0.8101746393318148,1,
141,0.6662207357859532,0,,0.738800303720577,0,
142,0.7177257525083612,1,,0.8116932422171602,1,
143,0.6642140468227424,,,0.7380410022779044,,
144,0.6107023411371237,0,,0.6484434320425209,0,
145,0.631438127090301,1,,0.7198177676537585,1,
146,0.6086956521739131,0,,0.6507213363705391,0,
147,0.6849498327759197,,,0.7160212604403948,1,
148,0.6862876254180602,1,,0.6583143507972665,0,
149,0.6749163879598662,0,,0.721336370539104,1,
150,0.7578595317725753,1,,0.7122247532270312,,
151,0.5230769230769231,,,0.5041761579347,,
152,0.42474916387959866,0,,0.40015186028853456,0,
153,0.5357859531772575,,,0.5360668185269551,1,
154,0.577257525083612,,,0.49278663629460895,0,
155,0.6214046822742475,,,0.6119969627942293,1,
156,0.6387959866220736,,,0.6059225512528473,0,
157,0.6762541806020067,1,,0.6492027334851936,,
158,0.6408026755852843,,,0.6621108580106302,1,
159,0.5973244147157191,0,,0.5937737281700836,0,
160,0.6481605351170568,,,0.642369020501139,,
161,0.6735785953177258,,,0.7038724373576309,,
162,0.691638795986622,1,,0.7167805618830676,1,
163,0.6909698996655519,0,,0.7129840546697038,0,
164,0.7397993311036789,1,,0.724373576309795,,
165,0.7023411371237458,,,0.7266514806378133,1,
166,0.6755852842809364,,,0.689445709946849,,
167,0.4568561872909699,,,0.43432042520880787,,
168,0.3551839464882943,,,0.32725892179195143,0,
169,0.33444816053511706,0,,0.3340926347760061,,
170,0.38996655518394646,,,0.4153378891419894,,
171,0.43745819397993313,,,0.4472285497342445,,
172,0.4809364548494983,,,0.4859529233105543,,
173,0.5090301003344482,,,0.5580865603644647,,
174,0.517056856187291,,,0.5603644646924829,,
175,0.5230769230769231,,,0.6028853454821564,,
176,0.6120401337792643,,,0.6332574031890661,1,
177,0.6608695652173913,1,,0.6127562642369021,0,
178,0.6100334448160535,,,0.6302201974183751,1,
179,0.5197324414715719,,,0.548215641609719,,
180,0.17324414715719064,,,0.20956719817767655,,
181,0.12709030100334448,0,,0.15034168564920272,0,
182,0.18929765886287625,,,0.1776765375854214,,
183,0.2822742474916388,,,0.3325740318906606,,
184,0.4133779264214047,,,0.4624145785876993,,
185,0.5270903010033445,,,0.5694760820045558,,
186,0.5966555183946488,,,0.6719817767653758,,
187,0.6448160535117057,,,0.7205770690964313,,
188,0.7364548494983277,1,,0.7987851176917237,1,
189,0.7217391304347827,,,0.7820804859529233,0,
190,0.7177257525083612,0,,0.8170083523158694,,
191,0.7204013377926421,1,,0.8488990129081245,1,
192,0.6976588628762542,,,0.7934700075930144,0,
193,0.696989966555184,0,,0.8473804100227791,,
194,0.7411371237458194,,,0.8663629460895975,1,
195,0.7424749163879598,1,,0.8428246013667426,,
196,0.705685618729097,,,0.7524677296886864,,
197,0.5638795986622074,0,,0.6416097190584662,0,
198,0.6923076923076923,1,,0.7752467729688687,1,
199,0.6561872909698997,,,0.765375854214123,,
200,0.5939799331103679,0,,0.7319665907365224,0,
201,0.5986622073578596,,,0.7881548974943052,1,
202,0.6133779264214047,1,,0.7798025816249051,0,
203,0.6093645484949832,0,,0.7957479119210327,1,
204,0.6127090301003344,1,,0.7744874715261959,,
205,0.5719063545150501,,,0.6340167046317388,,
206,0.20267558528428092,0,,0.26879271070615035,0,
207,0.2983277591973244,,,0.37965072133637057,,
208,0.35986622073578595,,,0.42065299924069854,,
209,0.6207357859531772,,,0.6241457858769932,,
210,0.7531772575250836,,,0.7615793470007594,,
211,0.8187290969899665,,,0.8246013667425968,1,
212,0.8234113712374582,1,,0.7691723614274867,0,
213,0.7852842809364549,,,0.7729688686408505,1,
214,0.7418060200668897,,,0.6985573272589218,,
215,0.7391304347826086,,,0.6780561883067577,,
216,0.7224080267558528,0,,0.6507213363705391,,
217,0.7618729096989967,1,,0.6355353075170843,0,
218,0.7384615384615385,0,,0.6590736522399393,,
219,0.7899665551839465,1,,0.6757782839787395,1,
220,0.7190635451505016,,,0.6317388003037205,,
221,0.6561872909698997,0,,0.5793470007593015,0,
222,0.7966555183946489,1,,0.6810933940774487,1,
223,0.7498327759197324,,,0.6704631738800304,0,
224,0.7277591973244147,,,0.7031131359149583,1,
225,0.7063545150501672,,,0.6621108580106302,0,
226,0.6949832775919732,,,0.7122247532270312,1,
227,0.6688963210702341,,,0.683371298405467,,
228,0.3351170568561873,,,0.32953682611996965,,
229,0.23210702341137124,0,,0.2885345482156416,0,
230,0.3010033444816054,,,0.34851936218678814,,
231,0.442809364548495,,,0.4783599088838269,,
232,0.49698996655518396,,,0.5520121488230828,,
233,0.505685618729097,,,0.6697038724373576,1,
234,0.545819397993311,,,0.659832953682612,0,
235,0.6220735785953178,,,0.7501898253606681,,
236,0.6474916387959866,,,0.7714502657555049,,
237,0.6615384615384615,1,,0.8071374335611238,1,
238,0.6214046822742475,0,,0.7744874715261959,0,
239,0.7130434782608696,,,0.8671222475322703,,
240,0.7652173913043478,1,,0.9415337889141989,1,
241,0.7451505016722408,,,0.8473804100227791,,
242,0.6983277591973244,,,0.7934700075930144,,
243,0.6849498327759197,0,,0.7813211845102506,0,
244,0.7250836120401338,1,,0.8580106302201974,1,
245,0.6996655518394649,,,0.8041002277904328,,
246,0.16187290969899665,,,0.23766135155656795,,
247,0.1290969899665552,0,,0.19286256643887623,0,
248,0.17190635451505018,,,0.2034927866362946,,
249,0.348494983277592,,,0.4168564920273349,,
250,0.47959866220735786,,,0.5527714502657555,,
251,0.6046822742474917,,,0.6879271070615034,,
252,0.6254180602006689,,,0.7312072892938497,1,
253,0.6421404682274248,,,0.7228549734244495,0,
254,0.6588628762541806,,,0.7555049354593774,,
255,0.6682274247491639,,,0.7790432801822323,,
256,0.7812709030100334,,,0.8686408504176157,,
257,0.7979933110367893,1,,0.9187547456340167,1,
258,0.777257525083612,,,0.914958238420653,,
259,0.7264214046822742,0,,0.8899012908124525,,
260,0.7270903010033445,1,,0.8147304479878512,,
261,0.6795986622073579,,,0.809415337889142,,
262,0.6602006688963211,,,0.8086560364464692,,
263,0.6006688963210702,,,0.7668944570994685,,
264,0.48963210702341137,,,0.5785876993166287,,
265,0.2581939799331104,,,0.26347760060744113,,
266,0.1076923076923077,0,,0.07137433561123765,,
267,0.1197324414715719,,,0.06454062262718299,0,
268,0.2561872909698997,,,0.14882308276385725,,
269,0.5638795986622074,,,0.4183750949126803,,
270,0.6461538461538462,,,0.48139711465451784,,
271,0.7264214046822742,1,,0.5618830675778284,,
272,0.7177257525083612,0,,0.5626423690205011,,
273,0.7357859531772575,1,,0.5671981776765376,1,
274,0.7023411371237458,,,0.5573272589217919,0,
275,0.6936454849498328,0,,0.5861807137433561,,
276,0.7244147157190636,1,,0.6271829916476841,,
277,0.7204013377926421,0,,0.6545178435839029,,
278,0.748494983277592,1,,0.6993166287015945,1,
279,0.6976588628762542,0,,0.6818526955201215,0,
280,0.7739130434782608,,,0.7509491268033409,,
281,0.8053511705685619,,,0.8223234624145785,,
282,0.8615384615384616,1,,0.9172361427486713,1,
283,0.8013377926421404,,,0.8572513287775246,,
284,0.7311036789297659,,,0.788914198936978,,
285,0.6869565217391305,0,,0.7304479878511769,0,
286,0.7197324414715719,1,,0.8132118451025057,,
287,0.7036789297658863,0,,0.8610478359908884,,
288,0.7197324414715719,,,0.8883826879271071,,
289,0.7337792642140468,1,,0.9331814730447988,1,
290,0.6755852842809364,,,0.8580106302201974,,
291,0.4836120401337793,,,0.6529992406985573,,
292,0.1745819397993311,,,0.2589217919514047,0,
293,0.15117056856187291,0,,0.2627182991647684,,
294,0.28695652173913044,,,0.4198936977980258,,
295,0.40735785953177256,,,0.48215641609719057,,
296,0.5578595317725753,,,0.6006074411541382,,
297,0.6006688963210702,,,0.6385725132877752,,
298,0.6688963210702341,,,0.7615793470007594,1,
299,0.7123745819397993,1,,0.718299164768413,,
300,0.6448160535117057,0,,0.6180713743356112,,
301,0.6588628762541806,1,,0.5930144267274108,0,
302,0.6488294314381271,,,0.6044039483675019,1,
303,0.6327759197324415,0,,0.5846621108580107,0,
304,0.768561872909699,1,,0.6666666666666666,1,
305,0.7612040133779264,0,,0.6461655277145026,0,
306,0.7839464882943143,1,,0.6537585421412301,1,
307,0.7237458193979933,0,,0.5679574791192104,0,
308,0.725752508361204,,,0.5808656036446469,,
309,0.7565217391304347,,,0.5930144267274108,,
310,0.8234113712374582,1,,0.6560364464692483,1,
311,0.8220735785953177,0,,0.6545178435839029,,
312,0.8327759197324415,,,0.6507213363705391,0,
313,0.8903010033444816,1,,0.7015945330296127,,
314,0.8421404682274247,,,0.7129840546697038,,
315,0.7953177257525084,0,,0.715261958997722,,
316,0.8682274247491639,1,,0.7471526195899773,1,
317,0.7745819397993311,,,0.6924829157175398,,
318,0.7137123745819398,,,0.6461655277145026,,
319,0.6301003344481605,0,,0.6173120728929385,,
320,0.6508361204013378,1,,0.5998481397114654,,
321,0.18461538461538463,,,0.18375094912680334,,
322,0.1565217391304348,0,,0.15186028853454822,0,
323,0.19866220735785953,,,0.19893697798025817,,
324,0.3866220735785953,,,0.3705391040242976,,
325,0.517056856187291,,,0.5504935459377372,,
326,0.5812709030100335,,,0.5846621108580107,,
327,0.5933110367892976,,,0.6772968868640851,,
328,0.7163879598662207,1,,0.7577828397873956,,
329,0.7070234113712375,,,0.782839787395596,1,
330,0.6749163879598662,,,0.7479119210326499,,
331,0.6662207357859532,0,,0.6507213363705391,0,
332,0.68561872909699,1,,0.7258921791951405,1,
333,0.6508361204013378,,,0.636294608959757,,
334,0.5531772575250836,0,,0.5808656036446469,0,
335,0.5906354515050167,,,0.6021260440394837,1,
336,0.5906354515050167,,,0.5649202733485194,0,
337,0.6762541806020067,1,,0.715261958997722,1,
338,0.6173913043478261,,,0.6507213363705391,0,
339,0.5979933110367893,0,,0.6704631738800304,,
340,0.611371237458194,1,,0.7547456340167046,1,
341,0.5672240802675586,,,0.6909643128321944,,
342,0.5297658862876254,,,0.6271829916476841,,
343,0.25953177257525084,,,0.37433561123766135,,
344,0.06889632107023412,0,,0.1442672741078208,0,
345,0.16321070234113713,,,0.2627182991647684,,
346,0.4033444816053512,,,0.49430523917995445,,
347,0.5204013377926422,,,0.571753986332574,,
348,0.622742474916388,,,0.6241457858769932,,
349,0.6943143812709031,,,0.7471526195899773,,
350,0.7043478260869566,,,0.7638572513287776,,
351,0.7926421404682275,,,0.835990888382688,1,
352,0.8020066889632107,,,0.7896735003796507,0,
353,0.811371237458194,1,,0.8041002277904328,1,
354,0.7652173913043478,0,,0.765375854214123,0,
355,0.7852842809364549,,,0.7661351556567958,,
356,0.8274247491638796,1,,0.768413059984814,1,
357,0.8153846153846154,,,0.7661351556567958,,
358,0.7986622073578595,,,0.7350037965072134,,
359,0.7652173913043478,,,0.6674259681093394,,
360,0.7010033444816054,,,0.6484434320425209,0,
361,0.6943143812709031,0,,0.6537585421412301,,
362,0.725752508361204,,,0.6560364464692483,,
363,0.7324414715719063,1,,0.6970387243735763,,
364,0.7264214046822742,,,0.7061503416856492,1,
365,0.6949832775919732,0,,0.662870159453303,0,
366,0.7478260869565218,1,,0.7479119210326499,,
367,0.745819397993311,0,,0.8542141230068337,1,
368,0.7732441471571906,1,,0.7775246772968869,0,
369,0.725752508361204,0,,0.8321943811693242,1,
370,0.7839464882943143,1,,0.8147304479878512,0,
371,0.7612040133779264,,,0.8443432042520881,1,
372,0.7591973244147158,,,0.8405466970387244,,
373,0.728428093645485,,,0.8314350797266514,,
374,0.40535117056856185,,,0.46848899012908124,,
375,0.09698996655518395,,,0.15186028853454822,,
376,0.06488294314381271,0,,0.08656036446469248,0,
377,0.19933110367892976,,,0.18602885345482156,,
378,0.2254180602006689,,,0.22247532270311313,,
379,0.2782608695652174,1,,0.26651480637813213,1,
380,0.24816053511705685,0,,0.22323462414578588,0,
381,0.3866220735785953,,,0.29460895975702356,,
382,0.40668896321070236,1,,0.36446469248291574,1,
383,0.38193979933110367,,,0.3234624145785877,,
384,0.3785953177257525,0,,0.3052391799544419,0,
385,0.3919732441471572,1,,0.3439635535307517,1,
386,0.35250836120401335,0,,0.3105542900531511,0,
387,0.3705685618729097,,,0.32725892179195143,,
388,0.4006688963210702,,,0.41002277904328016,,
389,0.4688963210702341,,,0.41078208048595294,,
390,0.5290969899665552,,,0.4646924829157175,,
391,0.5892976588628762,1,,0.4988610478359909,,
392,0.5852842809364549,,,0.524677296886864,1,
393,0.5672240802675586,0,,0.4525436598329537,,
394,0.5959866220735786,1,,0.4495064540622627,0,
395,0.5852842809364549,0,,0.4783599088838269,,
396,0.611371237458194,,,0.5261958997722096,,
397,0.6795986622073579,1,,0.5565679574791192,1,
398,0.5765886287625418,0,,0.4654517843583903,,
399,0.6321070234113713,,,0.45026575550493547,,
400,0.6434782608695652,1,,0.4069855732725892,,
401,0.5357859531772575,,,0.30296127562642367,,
402,0.46220735785953176,,,0.2505694760820046,,
403,0.2020066889632107,0,,0.03568716780561883,0,
404,0.262876254180602,,,0.11237661351556567,,
405,0.28494983277591973,,,0.15793470007593013,,
406,0.5050167224080268,,,0.3895216400911162,,
407,0.5832775919732441,,,0.5003796507213364,,
408,0.5986622073578596,1,,0.5998481397114654,,
409,0.5759197324414715,0,,0.6416097190584662,,
410,0.620066889632107,1,,0.6856492027334852,1,
411,0.579933110367893,,,0.615793470007593,,
412,0.545819397993311,0,,0.615793470007593,,
413,0.5638795986622074,1,,0.6378132118451025,1,
414,0.5505016722408027,,,0.5588458618071375,,
415,0.47759197324414715,,,0.5079726651480638,,
416,0.09632107023411371,0,,0.15869400151860288,0,
417,0.10903010033444815,,,0.17084282460136674,,
418,0.1591973244147157,,,0.22095671981776766,,
419,0.33712374581939797,,,0.38496583143507973,,
420,0.44414715719063547,,,0.5094912680334093,,
421,0.579933110367893,,,0.6203492786636294,,
422,0.6287625418060201,,,0.683371298405467,,
423,0.6668896321070235,1,,0.7661351556567958,,
424,0.65685618729097,0,,0.7927107061503417,,
425,0.7357859531772575,1,,0.8792710706150342,1,
426,0.7050167224080267,0,,0.829916476841306,0,
427,0.7237458193979933,,,0.8952164009111617,1,
428,0.728428093645485,1,,0.8511769172361427,0,
429,0.7076923076923077,0,,0.8731966590736523,1,
430,0.7083612040133779,1,,0.8496583143507973,0,
431,0.6474916387959866,0,,0.8861047835990888,,
432,0.6882943143812709,1,,0.8914198936977981,1,
433,0.6789297658862876,0,,0.8170083523158694,0,
434,0.6862876254180602,1,,0.8443432042520881,1,
435,0.6294314381270903,0,,0.7805618830675778,0,
436,0.6876254180602007,,,0.8405466970387244,1,
437,0.7090301003344481,1,,0.8147304479878512,0,
438,0.6535117056856188,,,0.835990888382688,1,
439,0.4260869565217391,,,0.5497342444950646,,
440,0.32709030100334446,,,0.3804100227790433,0,
441,0.3096989966555184,0,,0.3940774487471526,,
442,0.3759197324414716,,,0.4198936977980258,,
443,0.5926421404682274,,,0.7350037965072134,1,
444,0.6133779264214047,,,0.7274107820804859,0,
445,0.6635451505016723,,,0.7843583902809416,,
446,0.7397993311036789,1,,0.8572513287775246,1,
447,0.6795986622073579,0,,0.835990888382688,,
448,0.7311036789297659,,,0.8261199696279423,0,
449,0.7806020066889632,1,,0.9050873196659074,1,
450,0.7244147157190636,0,,0.8625664388762339,,
451,0.7304347826086957,,,0.8610478359908884,,
452,0.7605351170568562,1,,0.8602885345482156,0,
453,0.7538461538461538,0,,0.8967350037965072,1,
454,0.7618729096989967,1,,0.8526955201214882,,
455,0.36989966555183945,,,0.40926347760060744,,
456,0.20602006688963212,0,,0.2771450265755505,0,
457,0.2555183946488294,,,0.3568716780561883,,
458,0.32642140468227426,,,0.3583902809415338,1,
459,0.328428093645485,,,0.33788914198936976,0,
460,0.442809364548495,,,0.5201214882308276,,
461,0.49765886287625416,,,0.5239179954441914,,
462,0.5250836120401338,1,,0.5808656036446469,1,
463,0.5070234113712374,0,,0.5330296127562643,0,
464,0.5585284280936454,1,,0.5391040242976461,1,
465,0.5431438127090301,0,,0.5216400911161732,0,
466,0.5692307692307692,,,0.5694760820045558,1,
467,0.5926421404682274,,,0.5383447228549735,0,
468,0.6053511705685619,1,,0.5740318906605922,1,
469,0.5819397993311036,0,,0.5049354593773728,0,
470,0.6474916387959866,,,0.6347760060744115,1,
471,0.6622073578595318,1,,0.6051632498101747,,
472,0.6334448160535117,0,,0.5345482156416097,0,
473,0.7377926421404682,,,0.618830675778284,,
474,0.7652173913043478,1,,0.6780561883067577,1,
475,0.757190635451505,,,0.6454062262718299,0,
476,0.7384615384615385,0,,0.6507213363705391,1,
477,0.7765886287625418,,,0.6324981017463933,0,
478,0.8535117056856187,1,,0.7091875474563402,1,
479,0.7966555183946489,0,,0.6735003796507213,,
480,0.8193979933110368,,,0.6438876233864844,0,
481,0.8247491638795986,1,,0.6461655277145026,,
482,0.7946488294314381,,,0.6529992406985573,1,
483,0.7290969899665551,0,,0.6264236902050114,0,
484,0.748494983277592,,,0.6385725132877752,,
485,0.7792642140468228,1,,0.6545178435839029,1,
486,0.7137123745819398,0,,0.5869400151860289,0,
487,0.725752508361204,1,,0.6066818526955201,1,
488,0.7177257525083612,0,,0.5968109339407744,0,
489,0.7899665551839465,,,0.6681852695520122,,
490,0.8494983277591973,,,0.7274107820804859,,
491,0.925752508361204,1,,0.829916476841306,1,
492,0.9130434782608695,,,0.812452543659833,,
493,0.8949832775919733,,,0.7555049354593774,,
494,0.41270903010033444,,,0.27638572513287774,,
495,0.3117056856187291,,,0.1852695520121488,,
496,0.27759197324414714,0,,0.1366742596810934,0,
497,0.5063545150501673,,,0.3310554290053151,,
498,0.5491638795986622,,,0.4009111617312073,,
499,0.5839464882943144,,,0.425208807896735,,
500,0.6140468227424749,,,0.49582384206529995,,
501,0.7090301003344481,1,,0.5740318906605922,1,
502,0.671571906354515,0,,0.5702353834472286,0,
503,0.7090301003344481,,,0.5930144267274108,,
504,0.7163879598662207,1,,0.6431283219438116,1,
505,0.68561872909699,0,,0.6127562642369021,0,
506,0.7290969899665551,1,,0.6666666666666666,1,
507,0.6956521739130435,0,,0.6021260440394837,0,
508,0.7578595317725753,,,0.6697038724373576,,
509,0.7839464882943143,1,,0.7015945330296127,1,
510,0.35384615384615387,0,,0.29460895975702356,,
511,0.37190635451505016,1,,0.2604403948367502,,
512,0.32976588628762543,0,,0.25588458618071375,0,
513,0.39933110367892977,,,0.2870159453302961,,
514,0.4983277591973244,,,0.39483675018982534,,
515,0.5210702341137123,,,0.47000759301442674,,
516,0.5872909698996656,,,0.5345482156416097,,
517,0.6521739130434783,1,,0.6021260440394837,1,
518,0.6481605351170568,,,0.5755504935459378,,
519,0.5605351170568562,0,,0.4988610478359909,0,
520,0.6474916387959866,1,,0.5960516324981018,1,
521,0.5866220735785953,,,0.5337889141989369,,
522,0.5585284280936454,0,,0.5186028853454822,0,
523,0.5879598662207358,1,,0.5649202733485194,,
524,0.5732441471571906,0,,0.5740318906605922,,
525,0.7210702341137124,1,,0.7281700835231587,1,
526,0.6662207357859532,0,,0.7145026575550494,0,
527,0.7163879598662207,1,,0.7668944570994685,1,
528,0.691638795986622,,,0.741837509491268,,
529,0.6702341137123746,,,0.6826119969627942,0,
530,0.6588628762541806,0,,0.6909643128321944,,
531,0.6976588628762542,,,0.7593014426727411,,
532,0.7304347826086957,1,,0.7934700075930144,1,
533,0.7277591973244147,,,0.765375854214123,,
534,0.6662207357859532,0,,0.7380410022779044,0,
535,0.6949832775919732,,,0.7630979498861048,,
536,0.7632107023411371,1,,0.8200455580865603,1,
537,0.7110367892976589,,,0.8056188306757783,,
538,0.7043478260869566,,,0.7934700075930144,0,
539,0.6809364548494983,0,,0.8230827638572513,,
540,0.7464882943143812,1,,0.8830675778283978,1,
541,0.7264214046822742,,,0.8473804100227791,,
542,0.651505016722408,,,0.8314350797266514,,
543,0.5926421404682274,,,0.7752467729688687,,
544,0.22474916387959867,0,,0.340167046317388,0,
545,0.2568561872909699,,,0.3568716780561883,,
546,0.2662207357859532,,,0.37965072133637057,,
547,0.4468227424749164,,,0.5132877752467729,,
548,0.5250836120401338,1,,0.5907365223993926,,
549,0.46956521739130436,0,,0.6256643887623387,,
550,0.5959866220735786,1,,0.6780561883067577,,
551,0.5886287625418061,0,,0.7091875474563402,,
552,0.6655518394648829,,,0.7357630979498861,,
553,0.691638795986622,,,0.8147304479878512,,
554,0.728428093645485,,,0.8170083523158694,,
555,0.737123745819398,,,0.8671222475322703,,
556,0.7545150501672241,1,,0.8853454821564161,1,
557,0.7404682274247492,,,0.8640850417615793,,
558,0.682943143812709,0,,0.7942293090356871,0,
559,0.7525083612040134,,,0.8656036446469249,,
560,0.8274247491638796,1,,0.958997722095672,1,
561,0.7705685618729097,0,,0.8321943811693242,,
562,0.7892976588628763,1,,0.8291571753986332,,
563,0.6234113712374582,,,0.6643887623386484,,
564,0.26755852842809363,,,0.31890660592255127,,
565,0.24949832775919734,0,,0.30372057706909644,0,
566,0.2956521739130435,,,0.3310554290053151,,
567,0.3625418060200669,,,0.384206529992407,,
568,0.47558528428093644,,,0.5056947608200456,,
569,0.5157190635451505,,,0.5504935459377372,,
570,0.579933110367893,,,0.659832953682612,1,
571,0.5966555183946488,,,0.6545178435839029,0,
572,0.6494983277591974,,,0.6818526955201215,,
573,0.6622073578595318,,,0.6917236142748672,1,
574,0.6963210702341137,1,,0.6871678056188307,,
575,0.6648829431438127,,,0.6674259681093394,0,
576,0.6220735785953178,,,0.6719817767653758,1,
577,0.5879598662207358,0,,0.6651480637813212,,
578,0.6307692307692307,,,0.6552771450265755,0,
579,0.6675585284280936,,,0.7198177676537585,1,
580,0.6849498327759197,1,,0.689445709946849,,
581,0.6521739130434783,0,,0.6856492027334852,0,
582,0.6909698996655519,1,,0.7175398633257403,1,
583,0.5491638795986622,,,0.6173120728929385,,
584,0.38729096989966555,,,0.4085041761579347,,
585,0.22274247491638796,,,0.21867881548974943,0,
586,0.20535117056856186,0,,0.22930903568716782,,
587,0.36187290969899666,,,0.37813211845102507,,
588,0.48561872909698994,1,,0.48519362186788156,1,
589,0.4789297658862876,0,,0.4745634016704632,0,
590,0.6066889632107023,,,0.6195899772209568,1,
591,0.6066889632107023,,,0.592255125284738,,
592,0.591304347826087,0,,0.5831435079726651,0,
593,0.5919732441471572,,,0.5854214123006833,1,
594,0.6013377926421405,1,,0.5702353834472286,0,
595,0.5879598662207358,0,,0.5816249050873197,1,
596,0.5926421404682274,,,0.5520121488230828,0,
597,0.6341137123745819,1,,0.6347760060744115,,
598,0.6267558528428093,0,,0.6446469248291572,1,
599,0.631438127090301,,,0.5816249050873197,0,
600,0.6387959866220736,1,,0.6036446469248291,1,
601,0.4635451505016722,,,0.4138192862566439,,
602,0.15451505016722408,0,,0.1313591495823842,0,
603,0.20066889632107024,,,0.16021260440394836,,
604,0.24347826086956523,,,0.21336370539104024,,
605,0.31237458193979933,,,0.26499620349278663,,
606,0.517056856187291,,,0.4176157934700076,,
607,0.568561872909699,,,0.5618830675778284,,
608,0.5765886287625418,,,0.5801063022019742,,
609,0.5933110367892976,,,0.6028853454821564,1,
610,0.6153846153846154,1,,0.5732725892179195,,
611,0.6147157190635452,0,,0.5656795747911921,0,
612,0.6274247491638796,1,,0.6059225512528473,1,
613,0.5565217391304348,,,0.4859529233105543,0,
614,0.5464882943143813,0,,0.489749430523918,,
615,0.5919732441471572,1,,0.568716780561883,1,
616,0.5264214046822743,,,0.5322703113135915,,
617,0.3117056856187291,,,0.2862566438876234,,
618,0.024749163879598662,0,,0.0,0,
619,0.03411371237458194,,,0.015945330296127564,,
620,0.17190635451505018,,,0.13971146545178437,,
621,0.31638795986622076,,,0.32270311313591493,,
622,0.4180602006688963,,,0.3697798025816249,,
623,0.5478260869565217,,,0.49582384206529995,,
624,0.6548494983277592,,,0.639331814730448,,
625,0.696989966555184,1,,0.6742596810933941,,
626,0.6782608695652174,,,0.6772968868640851,1,
627,0.6668896321070235,0,,0.6454062262718299,0,
628,0.7083612040133779,,,0.6886864085041762,1,
629,0.7090301003344481,1,,0.6871678056188307,0,
630,0.7016722408026755,0,,0.7380410022779044,1,
631,0.768561872909699,1,,0.7251328777524677,0,
632,0.7204013377926421,0,,0.7486712224753227,,
633,0.7431438127090301,,,0.7593014426727411,1,
634,0.7672240802675585,1,,0.7342444950645406,0,
635,0.7431438127090301,,,0.7706909643128322,1,
636,0.6822742474916388,,,0.6454062262718299,,
637,0.44481605351170567,,,0.40167046317388005,,
638,0.3063545150501672,0,,0.26575550493545935,0,
639,0.348494983277592,,,0.3363705391040243,,
640,0.4193979933110368,,,0.37281700835231585,,
641,0.4668896321070234,1,,0.4290053151100987,,
642,0.46488294314381273,0,,0.4381169324221716,,
643,0.48963210702341137,,,0.49506454062262717,,
644,0.5023411371237458,1,,0.5064540622627183,1,
645,0.4836120401337793,,,0.4988610478359909,,
646,0.32441471571906355,,,0.3454821564160972,,
647,0.14381270903010032,,,0.11921032649962035,,
648,0.08561872909698996,0,,0.07289293849658314,0,
649,0.14381270903010032,,,0.19286256643887623,,
650,0.2508361204013378,,,0.26879271070615035,,
651,0.3110367892976589,,,0.33561123766135154,,
652,0.43277591973244145,,,0.45861807137433563,,
653,0.4916387959866221,1,,0.5398633257403189,1,
654,0.4454849498327759,0,,0.5011389521640092,0,
655,0.5070234113712374,,,0.5375854214123007,,
656,0.5177257525083612,,,0.5444191343963554,,
657,0.5879598662207358,,,0.6241457858769932,,
658,0.6702341137123746,1,,0.7023538344722855,1,
659,0.5785953177257525,,,0.5831435079726651,,
660,0.5692307692307692,0,,0.5580865603644647,0,
661,0.6020066889632107,,,0.6127562642369021,1,
662,0.6026755852842809,,,0.5763097949886105,,
663,0.6374581939799331,1,,0.5504935459377372,,
664,0.6013377926421405,0,,0.5436598329536826,0,
665,0.7130434782608696,,,0.5725132877752468,,
666,0.7605351170568562,1,,0.6226271829916477,1,
667,0.47959866220735786,,,0.39635535307517084,,
668,0.42207357859531774,0,,0.26879271070615035,0,
669,0.525752508361204,,,0.4069855732725892,,
670,0.6287625418060201,,,0.5406226271829917,,
671,0.6321070234113713,,,0.5573272589217919,,
672,0.676923076923077,,,0.6150341685649203,,
673,0.676923076923077,,,0.6264236902050114,,
674,0.8862876254180602,,,0.7919514047076689,,
675,0.9117056856187291,1,,0.7949886104783599,1,
676,0.8267558528428094,0,,0.7729688686408505,0,
677,0.8695652173913043,1,,0.7980258162490509,1,
678,0.8187290969899665,0,,0.7630979498861048,0,
679,0.8434782608695652,1,,0.7835990888382688,1,
680,0.777257525083612,,,0.7061503416856492,,
681,0.7016722408026755,0,,0.6203492786636294,0,
682,0.768561872909699,,,0.6962794229309036,,
683,0.8361204013377926,,,0.7357630979498861,,
684,0.8822742474916387,,,0.8291571753986332,,
685,0.9478260869565217,1,,0.8845861807137434,1,
686,0.9137123745819398,,,0.8785117691723614,,
687,0.8836120401337793,,,0.8230827638572513,,
688,0.7913043478260869,,,0.7334851936218679,,
689,0.4006688963210702,,,0.35383447228549736,0,
690,0.3866220735785953,0,,0.36446469248291574,,
691,0.4133779264214047,,,0.41305998481397116,,
692,0.48695652173913045,,,0.45785876993166286,,
693,0.551170568561873,,,0.5186028853454822,,
694,0.5879598662207358,,,0.5565679574791192,,
695,0.6421404682274248,,,0.6180713743356112,,
696,0.6481605351170568,,,0.6476841305998481,1,
697,0.6595317725752509,1,,0.6317388003037205,,
698,0.6073578595317726,0,,0.615793470007593,0,
699,0.6795986622073579,1,,0.6332574031890661,1,
700,0.6361204013377927,,,0.618830675778284,,
701,0.6307692307692307,0,,0.5998481397114654,0,
702,0.6642140468227424,,,0.6643887623386484,,
703,0.671571906354515,1,,0.6977980258162491,1,
704,0.6327759197324415,0,,0.6454062262718299,0,
705,0.6528428093645485,,,0.686408504176158,,
706,0.6595317725752509,1,,0.70083523158694,1,
707,0.6321070234113713,,,0.6765375854214123,,
708,0.46488294314381273,,,0.5003796507213364,,
709,0.21070234113712374,,,0.2217160212604404,,
710,0.11438127090301003,0,,0.15261958997722094,0,
711,0.15451505016722408,,,0.16400911161731208,,
712,0.2842809364548495,,,0.2847380410022779,,
713,0.4307692307692308,,,0.48215641609719057,,
714,0.4709030100334448,,,0.5087319665907365,,
715,0.5016722408026756,,,0.5801063022019742,,
716,0.5525083612040134,,,0.5937737281700836,,
717,0.5618729096989966,,,0.6552771450265755,,
718,0.6508361204013378,1,,0.6902050113895216,1,
719,0.5157190635451505,,,0.5656795747911921,,
720,0.38996655518394646,,,0.4198936977980258,,
721,0.1826086956521739,,,0.2619589977220957,,
722,0.1551839464882943,0,,0.25816249050873197,0,
723,0.29163879598662207,,,0.3933181473044799,,
724,0.39264214046822743,,,0.4760820045558087,,
725,0.4608695652173913,,,0.5649202733485194,,
726,0.5939799331103679,,,0.6947608200455581,,
727,0.651505016722408,1,,0.7107061503416856,1,
728,0.5886287625418061,0,,0.683371298405467,,
729,0.6100334448160535,,,0.6522399392558846,0,
730,0.6535117056856188,1,,0.7236142748671223,1,
731,0.6107023411371237,,,0.7023538344722855,,
732,0.5879598662207358,,,0.6355353075170843,0,
733,0.579933110367893,0,,0.6651480637813212,,
734,0.6214046822742475,1,,0.6780561883067577,1,
735,0.4963210702341137,0,,0.5535307517084282,0,
736,0.5324414715719064,1,,0.5960516324981018,1,
737,0.5204013377926422,,,0.5497342444950646,,
738,0.47558528428093644,0,,0.5337889141989369,0,
739,0.5505016722408027,1,,0.6226271829916477,1,
740,0.43478260869565216,,,0.4874715261958998,,
741,0.2956521739130435,,,0.30296127562642367,,
742,0.01471571906354515,,,0.07441154138192863,0,
743,0.0,0,,0.0979498861047836,1,
744,0.05150501672240803,,,0.09643128321943811,0,
745,0.22809364548494984,,,0.2331055429005315,,
746,0.3103678929765886,,,0.3470007593014427,,
747,0.4140468227424749,,,0.45026575550493547,,
748,0.44749163879598663,,,0.5406226271829917,,
749,0.5872909698996656,1,,0.6567957479119211,,
750,0.5792642140468227,0,,0.6605922551252847,,
751,0.5973244147157191,,,0.6757782839787395,1,
752,0.642809364548495,1,,0.6583143507972665,,
753,0.640133779264214,0,,0.6454062262718299,0,
754,0.6555183946488294,,,0.7023538344722855,,
755,0.6615384615384615,1,,0.7061503416856492,1,
756,0.6167224080267558,,,0.6605922551252847,0,
757,0.6140468227424749,0,,0.6772968868640851,,
758,0.696989966555184,,,0.721336370539104,,
759,0.7357859531772575,1,,0.8276385725132878,1,
760,0.7123745819397993,0,,0.7668944570994685,0,
761,0.7518394648829432,1,,0.8147304479878512,1,
762,0.6501672240802676,,,0.6545178435839029,,
763,0.2394648829431438,,,0.2718299164768413,,
764,0.19531772575250836,0,,0.23006833712984054,0,
765,0.19732441471571907,,,0.24677296886864086,,
766,0.3130434782608696,,,0.3477600607441154,,
767,0.388628762541806,,,0.37281700835231585,,
768,0.49765886287625416,,,0.5193621867881549,,
769,0.5792642140468227,,,0.6059225512528473,,
770,0.6153846153846154,,,0.6203492786636294,,
771,0.6193979933110368,,,0.6514806378132119,,
772,0.6836120401337793,,,0.7145026575550494,,
773,0.7498327759197324,,,0.7972665148063781,,
774,0.7598662207357859,,,0.8283978739559605,1,
775,0.7598662207357859,,,0.8200455580865603,,
776,0.7725752508361204,1,,0.8116932422171602,,
777,0.7444816053511706,0,,0.7706909643128322,,
778,0.748494983277592,1,,0.762338648443432,,
779,0.7143812709030101,0,,0.6947608200455581,0,
780,0.7779264214046823,1,,0.7281700835231587,,
781,0.7511705685618729,0,,0.7403189066059226,1,
782,0.7598662207357859,,,0.724373576309795,0,
783,0.7986622073578595,,,0.7524677296886864,,
784,0.8140468227424749,1,,0.7600607441154138,1,
785,0.5290969899665552,,,0.5368261199696279,,
786,0.494314381270903,0,,0.47228549734244496,0,
787,0.6341137123745819,,,0.6355353075170843,,
788,0.7578595317725753,,,0.7091875474563402,,
789,0.8294314381270903,,,0.8101746393318148,,
790,0.8608695652173913,1,,0.8208048595292331,1,
791,0.8040133779264214,0,,0.8139711465451784,0,
792,0.8334448160535117,1,,0.8413059984813971,1,
793,0.8247491638795986,,,0.8276385725132878,,
794,0.782608695652174,,,0.7729688686408505,,
795,0.7692307692307693,0,,0.7380410022779044,0,
796,0.8173913043478261,1,,0.8071374335611238,1,
797,0.7404682274247492,,,0.642369020501139,,
798,0.6822742474916388,,,0.6249050873196659,0,
799,0.6494983277591974,0,,0.6476841305998481,,
800,0.7785953177257525,1,,0.7175398633257403,1,
801,0.7150501672240802,0,,0.6780561883067577,0,
802,0.7518394648829432,,,0.6955201214882308,,
803,0.8729096989966555,,,0.8147304479878512,,
804,0.8729096989966555,,,0.8253606681852695,1,
805,0.8066889632107024,0,,0.7957479119210327,0,
806,0.8347826086956521,,,0.8192862566438877,1,
807,0.842809364548495,,,0.7911921032649962,0,
808,0.8729096989966555,1,,0.8420652999240699,1,
809,0.7759197324414716,0,,0.6924829157175398,0,
810,0.7806020066889632,,,0.7570235383447228,1,
811,0.8053511705685619,1,,0.7251328777524677,,
812,0.6688963210702341,,,0.615793470007593,,
813,0.3311036789297659,,,0.2832194381169324,,
814,0.22608695652173913,0,,0.22475322703113135,,
815,0.25752508361204013,,,0.2088078967350038,0,
816,0.4528428093645485,1,,0.3804100227790433,1,
817,0.4140468227424749,0,,0.3675018982536067,0,
818,0.47759197324414715,,,0.42596810933940776,,
819,0.5076923076923077,1,,0.4806378132118451,1,
820,0.45484949832775917,,,0.4396355353075171,,
821,0.4294314381270903,0,,0.41305998481397116,0,
822,0.45217391304347826,,,0.4654517843583903,1,
823,0.4709030100334448,,,0.45558086560364464,0,
824,0.5183946488294314,1,,0.5148063781321185,1,
825,0.5123745819397993,,,0.5079726651480638,,
826,0.4809364548494983,0,,0.47000759301442674,0,
827,0.5632107023411371,1,,0.5155656795747912,1,
828,0.3377926421404682,,,0.3447228549734245,,
829,0.0903010033444816,0,,0.0683371298405467,0,
830,0.10234113712374582,,,0.07896735003796507,,
831,0.14782608695652175,,,0.126044039483675,,
832,0.34448160535117056,,,0.3447228549734245,,
833,0.38996655518394646,,,0.4069855732725892,,
834,0.47558528428093644,,,0.48367501898253606,,
835,0.537123745819398,,,0.5618830675778284,,
836,0.5638795986622074,,,0.6059225512528473,1,
837,0.585953177257525,,,0.5618830675778284,0,
838,0.6073578595317726,,,0.6074411541381929,,
839,0.6287625418060201,,,0.6112376613515565,,
840,0.6287625418060201,,,0.6643887623386484,1,
841,0.6387959866220736,1,,0.5846621108580107,,
842,0.3919732441471572,,,0.3591495823842065,,
843,0.18193979933110369,0,,0.1716021260440395,0,
844,0.21003344481605352,,,0.23462414578587698,,
845,0.28561872909699,,,0.296127562642369,,
846,0.38996655518394646,,,0.3955960516324981,,
847,0.5471571906354515,,,0.5345482156416097,,
848,0.6341137123745819,1,,0.6446469248291572,1,
849,0.5946488294314382,0,,0.6233864844343204,0,
850,0.6802675585284281,1,,0.6757782839787395,,
851,0.6642140468227424,,,0.7076689445709947,1,
852,0.6481605351170568,,,0.6484434320425209,,
853,0.5926421404682274,,,0.5960516324981018,,
854,0.4842809364548495,,,0.507213363705391,,
855,0.23277591973244147,,,0.27638572513287774,,
856,0.2040133779264214,,,0.23158694001518604,,
857,0.15585284280936454,0,,0.1958997722095672,0,
858,0.2842809364548495,,,0.31662870159453305,,
859,0.3277591973244147,,,0.3933181473044799,,
860,0.46488294314381273,,,0.5261958997722096,,
861,0.5070234113712374,,,0.571753986332574,1,
862,0.5290969899665552,,,0.5444191343963554,,
863,0.5431438127090301,,,0.5223993925588458,0,
864,0.5638795986622074,1,,0.5603644646924829,1,
865,0.5137123745819397,0,,0.5413819286256644,0,
866,0.5438127090301004,1,,0.5444191343963554,1,
867,0.4361204013377926,0,,0.4274867122247532,,
868,0.43745819397993313,,,0.4214123006833713,0,
869,0.5096989966555184,1,,0.5026575550493546,1,
870,0.35719063545150503,0,,0.360668185269552,,
871,0.37725752508361204,,,0.3454821564160972,0,
872,0.42675585284280937,,,0.39711465451784356,,
873,0.5451505016722408,1,,0.49810174639331817,1,
874,0.5003344481605351,0,,0.47000759301442674,0,
875,0.6013377926421405,,,0.5641609719058466,,
876,0.6354515050167224,,,0.636294608959757,,
877,0.696989966555184,1,,0.6492027334851936,,
878,0.6588628762541806,0,,0.6621108580106302,,
879,0.7678929765886288,,,0.8101746393318148,,
880,0.7866220735785954,1,,0.8306757782839788,1,
881,0.7424749163879598,,,0.8010630220197419,,
882,0.6608695652173913,0,,0.6826119969627942,0,
883,0.7645484949832776,,,0.7706909643128322,1,
884,0.797324414715719,,,0.7608200455580866,0,
885,0.8448160535117056,1,,0.8375094912680334,1,
886,0.8107023411371237,,,0.7866362946089598,,
887,0.6782608695652174,,,0.6780561883067577,,
888,0.48294314381270903,0,,0.5315110098709187,0,
889,0.49966555183946487,,,0.5603644646924829,,
890,0.5632107023411371,,,0.5839028094153379,,
891,0.6247491638795987,,,0.5975702353834472,,
892,0.6956521739130435,,,0.6985573272589218,,
893,0.7424749163879598,,,0.7706909643128322,1,
894,0.7812709030100334,,,0.7570235383447228,0,
895,0.8167224080267559,1,,0.8033409263477601,1,
896,0.7638795986622073,0,,0.7258921791951405,0,
897,0.7739130434782608,1,,0.7904328018223234,1,
898,0.6822742474916388,,,0.7433561123766135,,
899,0.6421404682274248,,,0.7091875474563402,,
900,0.6120401337792643,,,0.6795747911921033,,
901,0.3110367892976589,,,0.31359149582384205,,
902,0.007357859531772575,0,,0.04176157934700076,0,
903,0.046153846153846156,,,0.04783599088838269,,
904,0.08963210702341137,,,0.12300683371298406,,
905,0.2782608695652174,,,0.30068337129840544,,
906,0.3451505016722408,,,0.3219438116932422,,
907,0.45819397993311034,,,0.4381169324221716,,
908,0.5565217391304348,1,,0.5459377372817008,1,
909,0.5364548494983278,0,,0.4844343204252088,0,
910,0.6193979933110368,1,,0.6583143507972665,1,
911,0.6167224080267558,,,0.6522399392558846,,
912,0.6013377926421405,,,0.6302201974183751,,
913,0.5404682274247492,,,0.5702353834472286,0,
914,0.5137123745819397,,,0.5884586180713743,1,
915,0.2020066889632107,0,,0.23234624145785876,0,
916,0.21137123745819397,,,0.2513287775246773,1,
917,0.21672240802675585,,,0.24829157175398633,0,
918,0.3464882943143813,,,0.32725892179195143,,
919,0.49698996655518396,,,0.47076689445709946,,
920,0.5297658862876254,1,,0.5125284738041003,1,
921,0.4334448160535117,0,,0.4054669703872437,0,
922,0.5672240802675586,,,0.6294608959757023,1,
923,0.6093645484949832,,,0.5869400151860289,0,
924,0.6675585284280936,,,0.6955201214882308,,
925,0.682943143812709,,,0.7228549734244495,,
926,0.7217391304347827,,,0.7661351556567958,,
927,0.7545150501672241,,,0.7699316628701595,1,
928,0.7692307692307693,1,,0.765375854214123,,
929,0.7210702341137124,,,0.7433561123766135,,
930,0.6775919732441471,,,0.7046317388003037,,
931,0.41471571906354515,,,0.4168564920273349,,
932,0.31505016722408025,0,,0.3052391799544419,0,
933,0.36722408026755854,,,0.35003796507213364,,
934,0.45016722408026755,,,0.4844343204252088,,
935,0.5812709030100335,1,,0.5709946848899012,,
936,0.565886287625418,0,,0.5801063022019742,,
937,0.6381270903010033,1,,0.6735003796507213,1,
938,0.2568561872909699,,,0.2824601366742597,,
939,0.1117056856187291,,,0.1480637813211845,,
940,0.06755852842809365,0,,0.10022779043280182,0,
941,0.20735785953177258,,,0.2604403948367502,,
942,0.3083612040133779,,,0.34851936218678814,,
943,0.41204013377926424,,,0.4882308276385725,,
944,0.5351170568561873,1,,0.548215641609719,1,
945,0.47491638795986624,0,,0.46697038724373574,0,
946,0.5351170568561873,1,,0.5634016704631739,1,
947,0.5030100334448161,0,,0.5208807896735004,,
948,0.557190635451505,,,0.4988610478359909,0,
949,0.6387959866220736,1,,0.595292331055429,1,
950,0.5792642140468227,0,,0.5580865603644647,0,
951,0.6294314381270903,,,0.5656795747911921,,
952,0.7043478260869566,,,0.5968109339407744,,
953,0.7719063545150502,1,,0.721336370539104,1,
954,0.7658862876254181,,,0.7205770690964313,,
955,0.7652173913043478,0,,0.7031131359149583,0,
956,0.7752508361204014,1,,0.7441154138192863,1,
957,0.7444816053511706,0,,0.7114654517843584,0,
958,0.7892976588628763,1,,0.7524677296886864,1,
959,0.7264214046822742,0,,0.7190584662110858,,
960,0.7270903010033445,,,0.70083523158694,0,
961,0.7525083612040134,1,,0.7456340167046317,1,
962,0.6909698996655519,0,,0.6810933940774487,,
963,0.7076923076923077,1,,0.6735003796507213,0,
964,0.6923076923076923,,,0.6780561883067577,,
965,0.6923076923076923,,,0.7069096431283219,1,
966,0.748494983277592,1,,0.6757782839787395,,
967,0.6454849498327759,,,0.6089597570235383,,
968,0.38528428093645484,,,0.35990888382687924,,
969,0.2548494983277592,0,,0.20501138952164008,0,
970,0.3036789297658863,,,0.23993925588458617,,
971,0.3130434782608696,,,0.2604403948367502,,
972,0.36187290969899666,,,0.2824601366742597,,
973,0.46488294314381273,,,0.43204252088078965,,
974,0.5030100334448161,,,0.4996203492786636,1,
975,0.5331103678929766,,,0.4654517843583903,0,
976,0.6140468227424749,,,0.5725132877752468,,
977,0.6387959866220736,1,,0.5899772209567198,1,
978,0.6361204013377927,,,0.5785876993166287,,
979,0.6080267558528428,0,,0.5618830675778284,0,
980,0.6642140468227424,,,0.6264236902050114,1,
981,0.6709030100334448,1,,0.615793470007593,,
982,0.6220735785953178,0,,0.5801063022019742,0,
983,0.651505016722408,,,0.5823842065299925,,
984,0.7110367892976589,,,0.6788154897494305,,
985,0.7110367892976589,,,0.6818526955201215,1,
986,0.6956521739130435,0,,0.6332574031890661,0,
987,0.7578595317725753,1,,0.6780561883067577,1,
988,0.728428093645485,0,,0.6545178435839029,0,
989,0.7511705685618729,,,0.6765375854214123,,
990,0.7658862876254181,1,,0.6940015186028854,1,
991,0.7123745819397993,0,,0.6499620349278664,0,
992,0.7418060200668897,1,,0.6583143507972665,1,
993,0.7391304347826086,,,0.6264236902050114,,
994,0.6695652173913044,0,,0.6180713743356112,0,
995,0.717056856187291,1,,0.6370539104024298,,
996,0.7137123745819398,0,,0.6712224753227031,1,
997,0.7391304347826086,,,0.6469248291571754,0,
998,0.7478260869565218,1,,0.6575550493545937,1,
999,0.7418060200668897,0,,0.6400911161731208,0,
1000,0.7705685618729097,1,,0.6795747911921033,1,
1001,0.6454849498327759,,,0.5292331055429005,,
1002,0.33043478260869563,,,0.20425208807896736,,
1003,0.20133779264214047,0,,0.07820804859529233,0,
1004,0.20535117056856186,,,0.10782080485952923,,
1005,0.26755852842809363,,,0.17995444191343962,,
1006,0.4280936454849498,,,0.3113135914958238,,
1007,0.44214046822742475,,,0.36294608959757024,,
1008,0.5177257525083612,,,0.4533029612756264,,
1009,0.557190635451505,,,0.5034168564920274,,
1010,0.5939799331103679,1,,0.5261958997722096,,
1011,0.5899665551839465,0,,0.5299924069855733,,
1012,0.6782608695652174,,,0.5869400151860289,,
1013,0.6782608695652174,,,0.6233864844343204,,
1014,0.7491638795986622,,,0.6264236902050114,,
1015,0.7799331103678929,,,0.7486712224753227,,
1016,0.7939799331103679,1,,0.7608200455580866,1,
1017,0.7906354515050167,0,,0.7517084282460137,0,
1018,0.7959866220735786,1,,0.7699316628701595,1,
1019,0.7779264214046823,,,0.7327258921791951,0,
1020,0.7759197324414716,,,0.7357630979498861,1,
1021,0.7505016722408027,,,0.6985573272589218,,
1022,0.6622073578595318,,,0.5641609719058466,,
1023,0.34046822742474914,,,0.3219438116932422,,
1024,0.2214046822742475,,,0.1845102505694761,,
1025,0.20869565217391303,0,,0.1776765375854214,0,
1026,0.38929765886287626,,,0.32422171602126043,,
1027,0.4214046822742475,,,0.37281700835231585,,
1028,0.4735785953177257,,,0.4639331814730448,,
1029,0.551170568561873,,,0.5436598329536826,,
1030,0.5625418060200669,,,0.5474563401670464,,
1031,0.5959866220735786,,,0.5755504935459378,,
1032,0.6220735785953178,,,0.636294608959757,,
1033,0.696989966555184,1,,0.7114654517843584,1,
1034,0.6876254180602007,0,,0.7099468488990129,,
1035,0.7076923076923077,1,,0.6757782839787395,,
1036,0.5759197324414715,,,0.5497342444950646,,
1037,0.5204013377926422,,,0.44874715261959,0,
1038,0.4882943143812709,,,0.4601366742596811,1,
1039,0.48561872909698994,,,0.45709946848899013,,
1040,0.4822742474916388,0,,0.43204252088078965,,
1041,0.49297658862876254,,,0.41305998481397116,0,
1042,0.5277591973244147,,,0.4434320425208808,,
1043,0.5431438127090301,1,,0.49506454062262717,1,
1044,0.5063545150501673,,,0.466211085801063,,
1045,0.48294314381270903,0,,0.45861807137433563,0,
1046,0.5464882943143813,,,0.5094912680334093,,
1047,0.5785953177257525,,,0.5383447228549735,,
1048,0.6013377926421405,,,0.5413819286256644,,
1049,0.6220735785953178,1,,0.5489749430523918,1,
1050,0.5551839464882943,0,,0.48291571753986334,0,
1051,0.6468227424749163,,,0.5087319665907365,,
1052,0.7792642140468228,,,0.6689445709946849,,
1053,0.8080267558528428,,,0.7251328777524677,1,
1054,0.8381270903010033,1,,0.7160212604403948,,
1055,0.8167224080267559,0,,0.6940015186028854,0,
1056,0.8916387959866221,1,,0.715261958997722,1,
1057,0.8548494983277592,,,0.686408504176158,,
1058,0.745819397993311,,,0.6309794988610479,,
1059,0.3096989966555184,,,0.15793470007593013,,
1060,0.18595317725752508,0,,0.07593014426727411,0,
1061,0.30434782608695654,,,0.19893697798025817,,
1062,0.3551839464882943,,,0.2824601366742597,,
1063,0.4394648829431438,,,0.3234624145785877,,
1064,0.4889632107023411,1,,0.3682611996962794,,
1065,0.47023411371237456,,,0.4069855732725892,,
1066,0.451505016722408,0,,0.4381169324221716,,
1067,0.5424749163879599,,,0.5140470766894457,,
1068,0.5745819397993311,,,0.5421412300683371,,
1069,0.5826086956521739,,,0.5603644646924829,1,
1070,0.6334448160535117,1,,0.5596051632498101,,
1071,0.5933110367892976,0,,0.5436598329536826,0,
1072,0.6127090301003344,,,0.5489749430523918,,
1073,0.6481605351170568,,,0.5702353834472286,,
1074,0.7732441471571906,,,0.6917236142748672,,
1075,0.8983277591973244,1,,0.7987851176917237,,
1076,0.8909698996655518,,,0.8200455580865603,1,
1077,0.8575250836120402,0,,0.8018223234624146,0,
1078,0.8602006688963211,1,,0.8428246013667426,1,
1079,0.8327759197324415,,,0.7638572513287776,0,
1080,0.7919732441471572,,,0.7676537585421412,1,
1081,0.7812709030100334,0,,0.7380410022779044,0,
1082,0.8789297658862876,,,0.8261199696279423,,
1083,0.9471571906354515,1,,0.8997722095671982,1,
1084,0.8488294314381271,,,0.7813211845102506,,
1085,0.4802675585284281,,,0.42065299924069854,,
1086,0.3558528428093645,0,,0.2619589977220957,0,
1087,0.47023411371237456,,,0.40015186028853456,,
1088,0.5277591973244147,,,0.4290053151100987,,
1089,0.6608695652173913,,,0.5520121488230828,,
1090,0.7204013377926421,,,0.686408504176158,,
1091,0.8635451505016722,,,0.7965072133637054,,
1092,0.9083612040133779,,,0.835990888382688,,
1093,0.9698996655518395,1,,0.8519362186788155,,
1094,0.8735785953177257,0,,0.8549734244495064,1,
1095,0.8969899665551839,1,,0.8420652999240699,0,
1096,0.8849498327759198,,,0.8496583143507973,1,
1097,0.8381270903010033,,,0.7706909643128322,0,
1098,0.8301003344481606,0,,0.8025816249050873,,
1099,0.8354515050167224,1,,0.8261199696279423,1,
1100,0.8267558528428094,,,0.7843583902809416,,
1101,0.7859531772575251,,,0.7395596051632498,,
1102,0.6060200668896321,,,0.5413819286256644,,
1103,0.4782608695652174,,,0.44267274107820803,,
1104,0.3765886287625418,,,0.3735763097949886,,
1105,0.3745819397993311,0,,0.3287775246772969,0,
1106,0.4983277591973244,,,0.43432042520880787,,
1107,0.5678929765886288,,,0.5094912680334093,,
1108,0.6254180602006689,,,0.5869400151860289,,
1109,0.6896321070234114,,,0.6173120728929385,,
1110,0.7444816053511706,1,,0.7046317388003037,1,
1111,0.6929765886287625,0,,0.6886864085041762,0,
1112,0.7297658862876254,1,,0.7091875474563402,1,
1113,0.4983277591973244,,,0.466211085801063,,
1114,0.27892976588628765,,,0.24449506454062261,,
1115,0.2254180602006689,0,,0.21108580106302202,0,
1116,0.3096989966555184,,,0.3234624145785877,,
1117,0.4535117056856187,,,0.4677296886864085,,
1118,0.5117056856187291,,,0.5679574791192104,,
1119,0.6013377926421405,,,0.6643887623386484,,
1120,0.6481605351170568,,,0.7076689445709947,,
1121,0.6789297658862876,1,,0.7494305239179955,1,
1122,0.6080267558528428,,,0.6818526955201215,,
1123,0.577257525083612,0,,0.6279422930903569,0,
1124,0.5979933110367893,1,,0.6621108580106302,1,
1125,0.579933110367893,0,,0.6203492786636294,0,
1126,0.585953177257525,,,0.6788154897494305,1,
1127,0.5993311036789297,,,0.6735003796507213,0,
1128,0.6675585284280936,,,0.715261958997722,,
1129,0.7003344481605351,1,,0.7782839787395596,1,
1130,0.5899665551839465,,,0.615793470007593,,
1131,0.12173913043478261,,,0.12984054669703873,,
1132,0.05418060200668896,0,,0.07061503416856492,0,
1133,0.11906354515050167,,,0.19665907365223995,,
1134,0.29966555183946486,,,0.34092634776006076,,
1135,0.39732441471571905,,,0.45709946848899013,,
1136,0.4488294314381271,,,0.49582384206529995,,
1137,0.4882943143812709,,,0.5178435839028094,,
1138,0.565886287625418,,,0.6340167046317388,,
1139,0.5725752508361204,,,0.6514806378132119,,
1140,0.5872909698996656,,,0.6643887623386484,,
1141,0.6448160535117057,1,,0.7372817008352316,1,
1142,0.6408026755852843,0,,0.7258921791951405,0,
1143,0.6635451505016723,1,,0.7304479878511769,1,
1144,0.6608695652173913,,,0.7190584662110858,,
1145,0.6053511705685619,,,0.6818526955201215,,
1146,0.5959866220735786,,,0.6788154897494305,,
1147,0.17993311036789297,,,0.23690205011389523,,
1148,0.12173913043478261,0,,0.17084282460136674,0,
1149,0.12842809364548494,,,0.2012148823082764,,
1150,0.28494983277591973,,,0.3052391799544419,,
1151,0.4033444816053512,1,,0.4145785876993166,1,
1152,0.3658862876254181,0,,0.37661351556567957,0,
1153,0.451505016722408,,,0.43356112376613515,,
1154,0.4909698996655518,,,0.5140470766894457,1,
1155,0.5464882943143813,,,0.48139711465451784,0,
1156,0.7598662207357859,1,,0.6256643887623387,1,
1157,0.7357859531772575,0,,0.615793470007593,0,
1158,0.8622073578595317,,,0.6605922551252847,,
1159,0.8749163879598663,,,0.6621108580106302,,
1160,0.9752508361204013,1,,0.7099468488990129,,
1161,0.9605351170568562,0,,0.7281700835231587,,
1162,0.9939799331103679,,,0.738800303720577,,
1163,1.0,1,,0.7911921032649962,1,
1164,0.8836120401337793,,,0.7205770690964313,,
1165,0.6749163879598662,,,0.5125284738041003,,
1166,0.4274247491638796,,,0.2984054669703872,,
1167,0.3979933110367893,0,,0.29233105542900534,,
1168,0.4354515050167224,,,0.28170083523158695,0,
1169,0.5498327759197325,1,,0.33029612756264237,,
1170,0.5130434782608696,0,,0.4039483675018983,,
1171,0.6160535117056856,,,0.48899012908124523,1,
1172,0.6160535117056856,,,0.47987851176917234,0,
1173,0.6173913043478261,1,,0.48291571753986334,,
1174,0.5819397993311036,0,,0.4973424449506454,,
1175,0.6287625418060201,,,0.5823842065299925,,
1176,0.6709030100334448,1,,0.6324981017463933,1,
1177,0.5585284280936454,0,,0.5353075170842825,0,
1178,0.6615384615384615,1,,0.6507213363705391,,
1179,0.6581939799331104,0,,0.6689445709946849,1,
1180,0.6635451505016723,1,,0.6621108580106302,,
1181,0.6615384615384615,0,,0.6621108580106302,,
1182,0.6735785953177258,,,0.6871678056188307,1,
1183,0.6735785953177258,,,0.6719817767653758,,
1184,0.31705685618729096,,,0.3211845102505695,,
1185,0.11839464882943143,0,,0.10478359908883828,0,
1186,0.18729096989966554,,,0.2498101746393318,,
1187,0.3177257525083612,,,0.33788914198936976,,
1188,0.5939799331103679,,,0.5854214123006833,,
1189,0.6448160535117057,,,0.7076689445709947,,
1190,0.6735785953177258,1,,0.7562642369020501,1,
1191,0.6615384615384615,0,,0.7327258921791951,0,
1192,0.691638795986622,,,0.7638572513287776,1,
1193,0.6923076923076923,1,,0.738800303720577,,
1194,0.6461538461538462,,,0.7099468488990129,,
1195,0.6354515050167224,,,0.6765375854214123,,
1196,0.25150501672240805,,,0.2824601366742597,,
1197,0.16321070234113713,0,,0.22095671981776766,0,
1198,0.20133779264214047,,,0.24449506454062261,,
1199,0.35785953177257523,,,0.43659832953682615,,
1200,0.45953177257525085,,,0.5041761579347,,
1201,0.4709030100334448,,,0.5087319665907365,,
1202,0.5551839464882943,,,0.6089597570235383,,
1203,0.6729096989966555,1,,0.686408504176158,1,
1204,0.585953177257525,,,0.6165527714502658,,
1205,0.5264214046822743,0,,0.6119969627942293,,
1206,0.5484949832775919,,,0.5998481397114654,,
1207,0.551170568561873,,,0.5466970387243736,0,
1208,0.6093645484949832,,,0.592255125284738,,
1209,0.6421404682274248,,,0.6347760060744115,1,
1210,0.6474916387959866,,,0.6028853454821564,0,
1211,0.6943143812709031,1,,0.659832953682612,1,
1212,0.6648829431438127,0,,0.5968109339407744,0,
1213,0.6976588628762542,1,,0.6492027334851936,1,
1214,0.6775919732441471,,,0.6028853454821564,,
1215,0.34983277591973244,,,0.2968868640850418,,
1216,0.19866220735785953,0,,0.1921032649962035,0,
1217,0.3585284280936455,,,0.3310554290053151,,
1218,0.39665551839464885,,,0.33940774487471526,,
1219,0.45551839464882943,,,0.4191343963553531,,
1220,0.5444816053511705,,,0.5094912680334093,,
1221,0.6214046822742475,,,0.5550493545937737,,
1222,0.6682274247491639,,,0.6431283219438116,,
1223,0.7096989966555184,1,,0.6826119969627942,,
1224,0.651505016722408,0,,0.7061503416856492,1,
1225,0.6742474916387959,1,,0.6780561883067577,0,
1226,0.6448160535117057,0,,0.6848899012908124,,
1227,0.6648829431438127,,,0.6962794229309036,,
1228,0.6956521739130435,1,,0.7706909643128322,1,
1229,0.5317725752508361,,,0.592255125284738,,
1230,0.16722408026755853,0,,0.2976461655277145,,
1231,0.20869565217391303,,,0.2771450265755505,0,
1232,0.3377926421404682,,,0.39711465451784356,,
1233,0.4080267558528428,,,0.4776006074411541,,
1234,0.4916387959866221,,,0.5315110098709187,,
1235,0.6040133779264214,,,0.6848899012908124,,
1236,0.6581939799331104,,,0.7312072892938497,,
1237,0.6963210702341137,1,,0.7486712224753227,,
1238,0.6849498327759197,,,0.7577828397873956,1,
1239,0.6648829431438127,0,,0.7456340167046317,0,
1240,0.6876254180602007,1,,0.7532270311313591,1,
1241,0.10501672240802676,0,,0.11313591495823842,0,
1242,0.1705685618729097,,,0.18223234624145787,,
1243,0.2153846153846154,,,0.24525436598329536,,
1244,0.3832775919732441,1,,0.3917995444191344,,
1245,0.3384615384615385,0,,0.41002277904328016,,
1246,0.41204013377926424,,,0.4290053151100987,,
1247,0.5451505016722408,,,0.5558086560364465,,
1248,0.5464882943143813,1,,0.577828397873956,1,
1249,0.5010033444816053,0,,0.5216400911161732,0,
1250,0.5785953177257525,1,,0.5740318906605922,1,
1251,0.5030100334448161,0,,0.5011389521640092,,
1252,0.5090301003344482,,,0.489749430523918,,
1253,0.5250836120401338,1,,0.47228549734244496,,
1254,0.5063545150501673,0,,0.4654517843583903,0,
1255,0.6347826086956522,,,0.5368261199696279,,
1256,0.7190635451505016,,,0.6651480637813212,,
1257,0.7745819397993311,1,,0.7175398633257403,1,
1258,0.6836120401337793,0,,0.6317388003037205,0,
1259,0.7043478260869566,1,,0.6552771450265755,1,
1260,0.6849498327759197,0,,0.5914958238420653,0,
1261,0.7137123745819398,1,,0.6400911161731208,1,
1262,0.7036789297658863,,,0.6203492786636294,,
1263,0.6461538461538462,,,0.5550493545937737,,
1264,0.6387959866220736,0,,0.5421412300683371,0,
1265,0.6989966555183946,1,,0.5930144267274108,1,
1266,0.6615384615384615,0,,0.530751708428246,0,
1267,0.6896321070234114,1,,0.5990888382687927,1,
1268,0.6561872909698997,,,0.5634016704631739,,
1269,0.6086956521739131,0,,0.5299924069855733,0,
1270,0.6434782608695652,,,0.5907365223993926,,
1271,0.6956521739130435,1,,0.6127562642369021,1,
1272,0.6581939799331104,,,0.5899772209567198,,
1273,0.585953177257525,,,0.5132877752467729,,
1274,0.5745819397993311,,,0.4730447987851177,0,
1275,0.5739130434782609,,,0.5239179954441914,1,
1276,0.5297658862876254,0,,0.4616552771450266,,
1277,0.5665551839464883,,,0.45709946848899013,0,
1278,0.5906354515050167,1,,0.5003796507213364,1,
1279,0.5478260869565217,0,,0.46697038724373574,0,
1280,0.5872909698996656,1,,0.4760820045558087,1,
1281,0.27224080267558526,,,0.126044039483675,,
1282,0.21003344481605352,,,0.08807896735003796,,
1283,0.1591973244147157,0,,0.07668944570994685,,
1284,0.17123745819397992,,,0.06681852695520121,0,
1285,0.3745819397993311,1,,0.25816249050873197,,
1286,0.3612040133779264,0,,0.3052391799544419,,
1287,0.5337792642140469,,,0.3917995444191344,,
1288,0.557190635451505,1,,0.486712224753227,1,
1289,0.5451505016722408,,,0.43659832953682615,0,
1290,0.5418060200668896,0,,0.47987851176917234,1,
1291,0.5698996655518395,,,0.4745634016704632,0,
1292,0.5846153846153846,,,0.4912680334092635,,
1293,0.5993311036789297,,,0.5763097949886105,,
1294,0.6795986622073579,,,0.615793470007593,,
1295,0.7150501672240802,1,,0.6203492786636294,1,
1296,0.6561872909698997,,,0.5694760820045558,,
1297,0.5612040133779265,,,0.49278663629460895,,
1298,0.3130434782608696,,,0.21336370539104024,,
1299,0.26220735785953175,0,,0.17463933181473046,0,
1300,0.32240802675585284,,,0.22930903568716782,,
1301,0.47558528428093644,1,,0.3788914198936978,,
1302,0.44949832775919735,0,,0.39104024297646167,,
1303,0.5123745819397993,,,0.4290053151100987,,
1304,0.5451505016722408,,,0.5504935459377372,,
1305,0.6120401337792643,1,,0.5611237661351557,1,
1306,0.5678929765886288,0,,0.4776006074411541,0,
1307,0.6448160535117057,1,,0.5694760820045558,1,
1308,0.6080267558528428,,,0.5345482156416097,,
1309,0.5765886287625418,,,0.5292331055429005,,
1310,0.568561872909699,0,,0.5239179954441914,0,
1311,0.5919732441471572,,,0.5755504935459378,1,
1312,0.5959866220735786,,,0.5497342444950646,0,
1313,0.6254180602006689,,,0.5671981776765376,,
1314,0.6374581939799331,,,0.5839028094153379,,
1315,0.6488294314381271,1,,0.6074411541381929,1,
1316,0.42675585284280937,,,0.3591495823842065,,
1317,0.11237458193979934,0,,0.05466970387243736,0,
1318,0.18394648829431437,1,,0.07289293849658314,,
1319,0.17993311036789297,0,,0.14578587699316628,,
1320,0.2903010033444816,1,,0.24525436598329536,,
1321,0.282943143812709,0,,0.25436598329536825,,
1322,0.4187290969899666,,,0.3659832953682612,,
1323,0.4916387959866221,,,0.4791192103264996,,
1324,0.5337792642140469,,,0.48367501898253606,,
1325,0.5525083612040134,1,,0.4988610478359909,,
1326,0.5130434782608696,,,0.5375854214123007,1,
1327,0.4367892976588629,0,,0.42293090356871677,0,
1328,0.49698996655518396,1,,0.4419134396355353,1,
1329,0.47759197324414715,0,,0.42596810933940776,0,
1330,0.5250836120401338,,,0.4472285497342445,,
